{
    "_id": "d3YklujLpBFC5HfB",
    "data": {
        "attributes": {
            "ac": {
                "value": 10
            },
            "hardness": 0,
            "hasHealth": false,
            "hp": {
                "details": "",
                "max": 0,
                "temp": 0,
                "tempmax": 0,
                "value": 0
            },
            "stealth": {
                "details": "(expert)",
                "value": 10
            }
        },
        "creatureType": "",
        "details": {
            "description": "A choir of lost souls rises out of the floor, singing an eerie chant that terrifies its listeners and buffets their bodies with walls of sound.",
            "disable": "DC 28 Performance (trained) to disrupt the song's resonance with another tune or DC 28 Religion (trained) to ritually silence the spirits",
            "isComplex": false,
            "level": {
                "value": 6
            },
            "reset": "",
            "routine": ""
        },
        "recallKnowledgeText": "",
        "saves": {
            "fortitude": {
                "rank": 0,
                "saveDetail": "",
                "value": 0
            },
            "reflex": {
                "rank": 0,
                "saveDetail": "",
                "value": 0
            },
            "will": {
                "rank": 0,
                "saveDetail": "",
                "value": 0
            }
        },
        "schema": {
            "lastMigration": null,
            "version": 0.643
        },
        "source": {
            "value": ""
        },
        "statusEffects": [],
        "traits": {
            "ci": [],
            "di": {
                "custom": "",
                "selected": {},
                "value": []
            },
            "dr": [],
            "dv": [],
            "rarity": {
                "value": "common"
            },
            "size": {
                "value": "med"
            },
            "traits": {
                "custom": "",
                "value": [
                    "haunt"
                ]
            }
        }
    },
    "effects": [],
    "flags": {},
    "img": "systems/pf2e/icons/default-icons/hazard.svg",
    "items": [
        {
            "_id": "oZGdTS4jvoAj1myH",
            "data": {
                "actionCategory": {
                    "value": ""
                },
                "actionType": {
                    "value": "reaction"
                },
                "actions": {
                    "value": ""
                },
                "description": {
                    "chat": "",
                    "unidentified": "",
                    "value": "<p><strong>Trigger</strong> A creature moves within 10 feet of the section of floor from which the choir can arise. <br /><strong>Effect</strong> The choir rises, and its song deals [[/r 4d8+18 #mental]] mental damage to non-evil creatures within 30 feet of the souls' spectral forms. Affected creatures must each attempt a <span data-pf2-saving-throw=\"will\" data-pf2-dc=\"24\" data-pf2-traits=\"auditory,damaging-effect,emotion,enchantment,fear,mental,occult\" data-pf2-label=\"Profane Chant DC\" data-pf2-show-dc=\"gm\">Will</span> save.<br /><br /><strong>Critical Success</strong> The creature is unaffected.<br /><strong>Success</strong> The creature takes half damage and becomes frightened 1.<br /><strong>Failure</strong> The creature takes full damage and becomes frightened 2.<br /><strong>Critical Failure</strong> The creature takes double damage. It also becomes frightened 3 and fleeing for 1 round.</p>"
                },
                "requirements": {
                    "value": ""
                },
                "rules": [],
                "schema": {
                    "lastMigration": null,
                    "version": 0.643
                },
                "slug": null,
                "source": {
                    "value": ""
                },
                "traits": {
                    "custom": "",
                    "rarity": {
                        "value": "common"
                    },
                    "value": [
                        "auditory",
                        "emotion",
                        "enchantment",
                        "fear",
                        "mental",
                        "occult"
                    ]
                },
                "trigger": {
                    "value": ""
                },
                "weapon": {
                    "value": ""
                }
            },
            "effects": [],
            "flags": {},
            "img": "systems/pf2e/icons/actions/Reaction.webp",
            "name": "Profane Chant",
            "sort": 100000,
            "type": "action"
        }
    ],
    "name": "Ghostly Choir",
    "token": {
        "actorId": "d3YklujLpBFC5HfB",
        "actorLink": false,
        "alpha": 1,
        "bar1": {
            "attribute": null
        },
        "bar2": {
            "attribute": null
        },
        "brightLight": 0,
        "brightSight": 0,
        "dimLight": 0,
        "dimSight": 0,
        "displayBars": 20,
        "displayName": 20,
        "disposition": 0,
        "flags": {},
        "height": 1,
        "img": "systems/pf2e/icons/default-icons/hazard.svg",
        "lightAlpha": 1,
        "lightAngle": 0,
        "lightAnimation": {
            "intensity": 5,
            "speed": 5
        },
        "lockRotation": false,
        "mirrorX": false,
        "mirrorY": false,
        "name": "Ghostly Choir",
        "randomImg": false,
        "rotation": 0,
        "scale": 1,
        "sightAngle": 0,
        "tint": null,
        "vision": false,
        "width": 1
    },
    "type": "hazard"
}
