{
    "_id": "siylw0zIh1g4VnCW",
    "data": {
        "attributes": {
            "ac": {
                "value": 10
            },
            "hardness": 0,
            "hasHealth": false,
            "hp": {
                "details": "",
                "max": 0,
                "temp": 0,
                "tempmax": 0,
                "value": 0
            },
            "stealth": {
                "details": "(master)",
                "value": 33
            }
        },
        "creatureType": "",
        "details": {
            "description": "These desperate spirits are the echoes of people who committed great atrocities in the name of an evil god. Now, they are left with only the knowledge that their souls have been damned, and the unwavering belief that they can better their fate by providing powerful sacrifices for their fiendish masters.",
            "disable": "DC 46 Religion (master) to inspire a deity to intervene and counteract the ritual",
            "isComplex": false,
            "level": {
                "value": 17
            },
            "reset": "1 day",
            "routine": ""
        },
        "recallKnowledgeText": "",
        "saves": {
            "fortitude": {
                "rank": 0,
                "saveDetail": "",
                "value": 0
            },
            "reflex": {
                "rank": 0,
                "saveDetail": "",
                "value": 0
            },
            "will": {
                "rank": 0,
                "saveDetail": "",
                "value": 0
            }
        },
        "schema": {
            "lastMigration": null,
            "version": 0.643
        },
        "source": {
            "value": ""
        },
        "statusEffects": [],
        "traits": {
            "ci": [],
            "di": {
                "custom": "",
                "selected": {},
                "value": []
            },
            "dr": [],
            "dv": [],
            "rarity": {
                "value": "common"
            },
            "size": {
                "value": "med"
            },
            "traits": {
                "custom": "",
                "value": [
                    "haunt"
                ]
            }
        }
    },
    "effects": [],
    "flags": {},
    "img": "systems/pf2e/icons/default-icons/hazard.svg",
    "items": [
        {
            "_id": "hK2a0NJwqQgjs15q",
            "data": {
                "actionCategory": {
                    "value": ""
                },
                "actionType": {
                    "value": "reaction"
                },
                "actions": {
                    "value": ""
                },
                "description": {
                    "chat": "",
                    "unidentified": "",
                    "value": "<p><strong>Trigger</strong> Three or more sentient living creatures of 13th level or higher enter the haunt's area. <br /><strong>Effect</strong> The haunt deals [[/r 6d12+35 #negative]] negative damage to each creature in the haunt's area, and each creature must attempt a <span data-pf2-saving-throw=\"will\" data-pf2-dc=\"40\" data-pf2-traits=\"damaging-effects,death,divine,necromancy\" data-pf2-label=\"Mark for Damnation DC\" data-pf2-show-dc=\"gm\">Will</span> save. <br /><br /><strong>Critical Success</strong> The creature takes no damage and is doomed 1.<br /><strong>Success</strong> The creature takes half damage and is doomed 1.<br /><strong>Failure</strong> The creature takes full damage, becomes doomed 2, and is marked for damnation.<br /><strong>Critical Failure</strong> The creature takes double damage, becomes doomed 3, and is marked for damnation.If a creature that is marked for damnation dies within the next 24 hours, including from the haunt's damage, its soul is immediately dragged away to the plane of the evil deity that the damned spirits served, where the creature's soul is held captive by one of that deity's powerful servitors. Only <i>wish</i> and similarly potent effects are able to recover the lost soul directly; however, it is also possible to recover the soul by journeying to the evil plane and defeating the soul's captor.</p>"
                },
                "requirements": {
                    "value": ""
                },
                "rules": [],
                "schema": {
                    "lastMigration": null,
                    "version": 0.643
                },
                "slug": null,
                "source": {
                    "value": ""
                },
                "traits": {
                    "custom": "",
                    "rarity": {
                        "value": "common"
                    },
                    "value": [
                        "death",
                        "divine",
                        "necromancy"
                    ]
                },
                "trigger": {
                    "value": ""
                },
                "weapon": {
                    "value": ""
                }
            },
            "effects": [],
            "flags": {},
            "img": "systems/pf2e/icons/actions/Reaction.webp",
            "name": "Mark for Damnation",
            "sort": 100000,
            "type": "action"
        }
    ],
    "name": "Grasp Of The Damned",
    "token": {
        "actorId": "siylw0zIh1g4VnCW",
        "actorLink": false,
        "alpha": 1,
        "bar1": {
            "attribute": null
        },
        "bar2": {
            "attribute": null
        },
        "brightLight": 0,
        "brightSight": 0,
        "dimLight": 0,
        "dimSight": 0,
        "displayBars": 20,
        "displayName": 20,
        "disposition": 0,
        "flags": {},
        "height": 1,
        "img": "systems/pf2e/icons/default-icons/hazard.svg",
        "lightAlpha": 1,
        "lightAngle": 0,
        "lightAnimation": {
            "intensity": 5,
            "speed": 5
        },
        "lockRotation": false,
        "mirrorX": false,
        "mirrorY": false,
        "name": "Grasp Of The Damned",
        "randomImg": false,
        "rotation": 0,
        "scale": 1,
        "sightAngle": 0,
        "tint": null,
        "vision": false,
        "width": 1
    },
    "type": "hazard"
}
