{
    "_id": "1HYH5BgFGtFxVMpc",
    "data": {
        "attributes": {
            "ac": {
                "value": 0
            },
            "hardness": 0,
            "hasHealth": true,
            "hp": {
                "details": "",
                "max": 10,
                "temp": 0,
                "tempmax": 0,
                "value": 10
            },
            "stealth": {
                "details": "(expert)",
                "value": 14
            }
        },
        "creatureType": "",
        "details": {
            "description": "The haze conceals a rune that summons a krooth in front of the door to area B10.",
            "disable": "DC 24 Acrobatics to approach without triggering the trap followed by DC 26 Thievery (expert) to erase the rune, or dispel magic (4th level; counteract DC 24) to counteract the rune",
            "isComplex": true,
            "level": {
                "value": 8
            },
            "reset": "The trap resets after 24 hours.",
            "routine": ""
        },
        "recallKnowledgeText": "",
        "saves": {
            "fortitude": {
                "rank": 0,
                "saveDetail": "",
                "value": null
            },
            "reflex": {
                "rank": 0,
                "saveDetail": "",
                "value": null
            },
            "will": {
                "rank": 0,
                "saveDetail": "",
                "value": null
            }
        },
        "schema": {
            "lastMigration": null,
            "version": 0.643
        },
        "source": {
            "value": ""
        },
        "statusEffects": [],
        "traits": {
            "ci": [],
            "di": {
                "custom": "",
                "selected": {},
                "value": []
            },
            "dr": [],
            "dv": [],
            "rarity": {
                "value": "uncommon"
            },
            "size": {
                "value": "med"
            },
            "traits": {
                "custom": "",
                "value": [
                    "magical"
                ]
            }
        }
    },
    "effects": [],
    "flags": {},
    "img": "systems/pf2e/icons/default-icons/hazard.svg",
    "items": [
        {
            "_id": "zBa9WIu0MHIhcZTg",
            "data": {
                "actionCategory": {
                    "value": ""
                },
                "actionType": {
                    "value": "reaction"
                },
                "actions": {
                    "value": ""
                },
                "description": {
                    "chat": "",
                    "unidentified": "",
                    "value": "<p><strong>Trigger</strong> A non‑xulgath, non‑demon creature that isn't carrying a religious symbol of Zevgavizeb crosses from the north part of the hall to the south part of the hall;</p>\n<p><strong>Effect</strong> The trap summons a krooth. The krooth rolls initiative and remains for 2d6 rounds, after which the spell ends and the krooth disappears. The krooth also disappears if someone disables the trap before the duration expires. Unlike most summoned creatures, the krooth can use 3 actions each round and can use reactions.</p>"
                },
                "requirements": {
                    "value": ""
                },
                "rules": [],
                "schema": {
                    "lastMigration": null,
                    "version": 0.643
                },
                "slug": null,
                "source": {
                    "value": ""
                },
                "traits": {
                    "custom": "Summon",
                    "rarity": {
                        "value": "common"
                    },
                    "value": [
                        "arcane",
                        "conjuration"
                    ]
                },
                "trigger": {
                    "value": ""
                },
                "weapon": {
                    "value": ""
                }
            },
            "effects": [],
            "flags": {},
            "img": "systems/pf2e/icons/actions/Reaction.webp",
            "name": "Summon Monster",
            "sort": 100000,
            "type": "action"
        }
    ],
    "name": "Krooth Summoning Rune",
    "token": {
        "actorId": "1HYH5BgFGtFxVMpc",
        "actorLink": false,
        "alpha": 1,
        "bar1": {
            "attribute": null
        },
        "bar2": {
            "attribute": null
        },
        "brightLight": 0,
        "brightSight": 0,
        "dimLight": 0,
        "dimSight": 0,
        "displayBars": 20,
        "displayName": 20,
        "disposition": 0,
        "flags": {},
        "height": 1,
        "img": "systems/pf2e/icons/default-icons/hazard.svg",
        "lightAlpha": 1,
        "lightAngle": 0,
        "lightAnimation": {
            "intensity": 5,
            "speed": 5
        },
        "lockRotation": false,
        "mirrorX": false,
        "mirrorY": false,
        "name": "Krooth Summoning Rune",
        "randomImg": false,
        "rotation": 0,
        "scale": 1,
        "sightAngle": 0,
        "tint": null,
        "vision": false,
        "width": 1
    },
    "type": "hazard"
}
