{
    "_id": "BORxkpaFBSCyB1f1",
    "data": {
        "abilities": {
            "cha": {
                "min": 3,
                "mod": -5,
                "value": 0
            },
            "con": {
                "min": 3,
                "mod": 5,
                "value": 20
            },
            "dex": {
                "min": 3,
                "mod": -5,
                "value": 0
            },
            "int": {
                "min": 3,
                "mod": -5,
                "value": 0
            },
            "str": {
                "min": 3,
                "mod": "+6",
                "value": 22
            },
            "wis": {
                "min": 3,
                "mod": 0,
                "value": 10
            }
        },
        "attributes": {
            "ac": {
                "check": 0,
                "details": "",
                "dex": 0,
                "item": 0,
                "min": 0,
                "value": 19
            },
            "allSaves": {
                "value": ""
            },
            "ancestryhp": 0,
            "bonusEncumbranceBulk": 0,
            "bonusLimitBulk": 0,
            "classDC": {
                "ability": "str",
                "breakdown": "",
                "item": 0,
                "rank": 0,
                "value": 0
            },
            "classhp": 0,
            "flatbonushp": 0,
            "flatbonussp": 0,
            "hp": {
                "details": "",
                "max": 270,
                "min": 0,
                "temp": 0,
                "value": 270
            },
            "init": {
                "bonus": 0,
                "value": 0
            },
            "initiative": {
                "ability": "",
                "circumstance": 0,
                "status": 0
            },
            "levelbonushp": 0,
            "levelbonussp": 0,
            "perception": {
                "ability": "wis",
                "breakdown": "",
                "item": 0,
                "rank": 0,
                "value": 14
            },
            "resolve": {
                "value": 0
            },
            "shield": {
                "ac": 0,
                "brokenThreshold": 0,
                "hardness": 0,
                "max": 0,
                "min": 0,
                "value": 0
            },
            "sp": {
                "details": "",
                "max": 0,
                "min": 0,
                "value": 0
            },
            "speed": {
                "otherSpeeds": [
                    {
                        "type": "Swim",
                        "value": "20 feet"
                    }
                ],
                "value": "20 feet"
            }
        },
        "details": {
            "alignment": {
                "value": "N"
            },
            "ancestry": {
                "value": ""
            },
            "biography": {
                "public": "",
                "value": ""
            },
            "class": {
                "value": ""
            },
            "creatureType": "",
            "deity": {
                "image": "systems/pf2e/assets/sheet/deity.webp",
                "value": ""
            },
            "flavourText": "",
            "heritage": {
                "value": ""
            },
            "keyability": {
                "value": "str"
            },
            "level": {
                "min": 1,
                "value": 11
            },
            "recallKnowledgeText": "",
            "source": {
                "value": "Pathfinder #154: Siege of the Dinosaurs"
            }
        },
        "saves": {
            "fortitude": {
                "ability": "con",
                "breakdown": "",
                "item": 0,
                "rank": 0,
                "saveDetail": "",
                "value": 22
            },
            "reflex": {
                "ability": "dex",
                "breakdown": "",
                "item": 0,
                "rank": 0,
                "saveDetail": "",
                "value": 10
            },
            "will": {
                "ability": "wis",
                "breakdown": "",
                "item": 0,
                "rank": 0,
                "saveDetail": "",
                "value": 13
            }
        },
        "schema": {
            "lastMigration": null,
            "version": 0.643
        },
        "traits": {
            "ci": [],
            "di": {
                "custom": "",
                "value": [
                    "acid",
                    "critical-hits",
                    "mental",
                    "piercing",
                    "precision",
                    "slashing",
                    "unconscious",
                    "visual"
                ]
            },
            "dr": [
                {
                    "label": "Cold",
                    "type": "cold",
                    "value": "10"
                }
            ],
            "dv": [
                {
                    "label": "Fire",
                    "type": "fire",
                    "value": "10"
                }
            ],
            "languages": {
                "custom": "",
                "selected": [],
                "value": []
            },
            "rarity": {
                "value": "common"
            },
            "senses": {
                "value": "motion sense 60 feet, no vision"
            },
            "size": {
                "value": "med"
            },
            "traits": {
                "custom": "",
                "value": [
                    "mindless",
                    "ooze"
                ]
            }
        }
    },
    "effects": [],
    "flags": {},
    "img": "systems/pf2e/icons/default-icons/npc.svg",
    "items": [
        {
            "_id": "4hQQHFYYXkIr2wtS",
            "data": {
                "attack": {
                    "value": ""
                },
                "attackEffects": {
                    "value": [
                        "residual grease"
                    ]
                },
                "bonus": {
                    "value": 23
                },
                "damageRolls": {
                    "i1i64k2z4hj0gwcdba5d": {
                        "damage": "2d10+10",
                        "damageType": "bludgeoning"
                    }
                },
                "description": {
                    "chat": "",
                    "unidentified": "",
                    "value": ""
                },
                "rules": [],
                "schema": {
                    "lastMigration": null,
                    "version": 0.643
                },
                "slug": null,
                "source": {
                    "value": ""
                },
                "traits": {
                    "custom": "",
                    "rarity": {
                        "value": "common"
                    },
                    "value": []
                },
                "weaponType": {
                    "value": "melee"
                }
            },
            "effects": [],
            "flags": {},
            "img": "systems/pf2e/icons/default-icons/melee.svg",
            "name": "Pseudopod",
            "sort": 100000,
            "type": "melee"
        },
        {
            "_id": "6T41uBvYSdsd3etb",
            "data": {
                "actionCategory": {
                    "value": "defensive"
                },
                "actionType": {
                    "value": "passive"
                },
                "actions": {
                    "value": ""
                },
                "description": {
                    "chat": "",
                    "unidentified": "",
                    "value": "<p>Whenever the tallow ooze takes fire damage, it becomes quickened for 1 round (it can only Stride or Strike with the extra action). Whenever the tallow ooze is dealt cold damage (even if that damage is prevented by its resistance), it becomes slowed 1 for 1 round and can't use its Engulf ability (but creatures already engulfed are still engulfed).</p>"
                },
                "requirements": {
                    "value": ""
                },
                "rules": [],
                "schema": {
                    "lastMigration": null,
                    "version": 0.643
                },
                "slug": null,
                "source": {
                    "value": ""
                },
                "traits": {
                    "custom": "",
                    "rarity": {
                        "value": "common"
                    },
                    "value": []
                },
                "trigger": {
                    "value": ""
                },
                "weapon": {
                    "value": ""
                }
            },
            "effects": [],
            "flags": {},
            "img": "systems/pf2e/icons/default-icons/action.svg",
            "name": "Congealed",
            "sort": 200000,
            "type": "action"
        },
        {
            "_id": "dCh3xhDcX6ef0gtU",
            "data": {
                "actionCategory": {
                    "value": "defensive"
                },
                "actionType": {
                    "value": "passive"
                },
                "actions": {
                    "value": ""
                },
                "description": {
                    "chat": "",
                    "unidentified": "",
                    "value": "<p>10 feet. Any creature that starts its turn in or enters a square in the area must attempt a DC 30 Acrobatics check to Balance. A creature that takes a Step doesn't need to roll this check.</p>"
                },
                "requirements": {
                    "value": ""
                },
                "rules": [],
                "schema": {
                    "lastMigration": null,
                    "version": 0.643
                },
                "slug": null,
                "source": {
                    "value": ""
                },
                "traits": {
                    "custom": "",
                    "rarity": {
                        "value": "common"
                    },
                    "value": [
                        "aura"
                    ]
                },
                "trigger": {
                    "value": ""
                },
                "weapon": {
                    "value": ""
                }
            },
            "effects": [],
            "flags": {},
            "img": "systems/pf2e/icons/default-icons/action.svg",
            "name": "Greasy Seepage",
            "sort": 300000,
            "type": "action"
        },
        {
            "_id": "8kNg53i0CquI08Bo",
            "data": {
                "actionCategory": {
                    "value": "offensive"
                },
                "actionType": {
                    "value": "action"
                },
                "actions": {
                    "value": 2
                },
                "description": {
                    "chat": "",
                    "unidentified": "",
                    "value": "<p>DC 30, 4d10 bludgeoning, Escape DC 26, Rupture 25</p>"
                },
                "requirements": {
                    "value": ""
                },
                "rules": [],
                "schema": {
                    "lastMigration": null,
                    "version": 0.643
                },
                "slug": null,
                "source": {
                    "value": ""
                },
                "traits": {
                    "custom": "",
                    "rarity": {
                        "value": "common"
                    },
                    "value": []
                },
                "trigger": {
                    "value": ""
                },
                "weapon": {
                    "value": ""
                }
            },
            "effects": [],
            "flags": {},
            "img": "systems/pf2e/icons/default-icons/action.svg",
            "name": "Engulf",
            "sort": 400000,
            "type": "action"
        },
        {
            "_id": "JW7pj6pjhMG4D95l",
            "data": {
                "actionCategory": {
                    "value": "offensive"
                },
                "actionType": {
                    "value": "passive"
                },
                "actions": {
                    "value": ""
                },
                "description": {
                    "chat": "",
                    "unidentified": "",
                    "value": "<p>When the tallow ooze critically succeeds at an attack against a creature or a creature escapes from being engulfed by the ooze, that creature's hands and gear become slick with grease. For 1d4 rounds, the affected creature must attempt a <span data-pf2-saving-throw=\"reflex\" data-pf2-dc=\"30\" data-pf2-label=\"Residual Grease DC\" data-pf2-show-dc=\"gm\">Reflex</span> save whenever it uses any item (including weapons) that must be wielded or held. On a failure, the creature takes a -2 circumstance penalty to any attack roll or check to use the item; on a critical failure, the creature drops the item, which lands in a random adjacent square. The creature (or an adjacent ally) can use 1 Interact action to wipe off the grease from an item or from its hands.</p>"
                },
                "requirements": {
                    "value": ""
                },
                "rules": [],
                "schema": {
                    "lastMigration": null,
                    "version": 0.643
                },
                "slug": null,
                "source": {
                    "value": ""
                },
                "traits": {
                    "custom": "",
                    "rarity": {
                        "value": "common"
                    },
                    "value": []
                },
                "trigger": {
                    "value": ""
                },
                "weapon": {
                    "value": ""
                }
            },
            "effects": [],
            "flags": {},
            "img": "systems/pf2e/icons/default-icons/action.svg",
            "name": "Residual Grease",
            "sort": 500000,
            "type": "action"
        },
        {
            "_id": "CIaWl6lT5hduxe9Q",
            "data": {
                "description": {
                    "chat": "",
                    "unidentified": "",
                    "value": ""
                },
                "item": {
                    "value": 0
                },
                "mod": {
                    "value": 23
                },
                "proficient": {
                    "value": 0
                },
                "rules": [],
                "schema": {
                    "lastMigration": null,
                    "version": 0.643
                },
                "slug": null,
                "source": {
                    "value": ""
                },
                "traits": {
                    "custom": "",
                    "rarity": {
                        "value": "common"
                    },
                    "value": []
                }
            },
            "effects": [],
            "flags": {},
            "img": "systems/pf2e/icons/default-icons/lore.svg",
            "name": "Athletics",
            "sort": 600000,
            "type": "lore"
        }
    ],
    "name": "Tallow Ooze",
    "token": {
        "actorId": "BORxkpaFBSCyB1f1",
        "actorLink": false,
        "alpha": 1,
        "bar1": {
            "attribute": null
        },
        "bar2": {
            "attribute": null
        },
        "brightLight": 0,
        "brightSight": 0,
        "dimLight": 0,
        "dimSight": 0,
        "displayBars": 20,
        "displayName": 20,
        "disposition": -1,
        "flags": {},
        "height": 1,
        "img": "systems/pf2e/icons/default-icons/npc.svg",
        "lightAlpha": 1,
        "lightAngle": 0,
        "lightAnimation": {
            "intensity": 5,
            "speed": 5
        },
        "lockRotation": false,
        "mirrorX": false,
        "mirrorY": false,
        "name": "Tallow Ooze",
        "randomImg": false,
        "rotation": 0,
        "scale": 1,
        "sightAngle": 0,
        "tint": null,
        "vision": false,
        "width": 1
    },
    "type": "npc"
}
