{
    "_id": "DmAIPqOBomZ7H95W",
    "data": {
        "active": true,
        "alsoApplies": {
            "linked": [],
            "unlinked": []
        },
        "base": "Concealed",
        "description": {
            "chat": "",
            "unidentified": "",
            "value": "<p>While you are concealed from a creature, such as in a thick fog, you are difficult for that creature to see. You can still be @Compendium[pf2e.conditionitems.Observed]{Observed}, but you're tougher to target. A creature that you're concealed from must succeed at a <a class=\"inline-roll roll\" title=\"DC 5 flat check\" data-mode=\"roll\" data-flavor=\"DC 5 flat check\" data-formula=\"1d20\"><i class=\"fas fa-dice-d20\"></i> 1d20</a> <strong>DC 5</strong> flat check when targeting you with an attack, spell, or other effect. Area effects aren't subject to this flat check. If the check fails, the attack, spell, or effect doesn't affect you.</p>"
        },
        "duration": {
            "perpetual": true,
            "text": "",
            "value": 0
        },
        "group": "senses",
        "hud": {
            "img": {
                "useStatusName": true,
                "value": "systems/pf2e/icons/conditions-2/concealed.webp"
            },
            "selectable": true,
            "statusName": "concealed"
        },
        "modifiers": [],
        "overrides": [],
        "references": {
            "children": [],
            "immunityFrom": [],
            "overriddenBy": [],
            "overrides": []
        },
        "removable": true,
        "rules": [],
        "schema": {
            "lastMigration": null,
            "version": 0.643
        },
        "source": {
            "value": ""
        },
        "sources": {
            "hud": true
        },
        "traits": {
            "custom": "",
            "rarity": {
                "value": "common"
            },
            "value": []
        },
        "value": {
            "immutable": false,
            "isValued": false,
            "modifiers": [],
            "value": null
        }
    },
    "effects": [],
    "flags": {
        "pf2e": {
            "condition": true
        }
    },
    "img": "systems/pf2e/icons/conditions/concealed.webp",
    "name": "Concealed",
    "type": "condition"
}
