{
    "_id": "I0vuIFypx8ADSJQC",
    "data": {
        "boosts": {
            "0": {
                "value": [
                    "cha",
                    "wis"
                ]
            },
            "1": {
                "value": [
                    "cha",
                    "con",
                    "dex",
                    "int",
                    "str",
                    "wis"
                ]
            }
        },
        "description": {
            "chat": "",
            "unidentified": "",
            "value": "<p><strong>Prerequisite</strong>: Region - Golden Road</p>\n<hr />\n<p>You know how to work the less-than-legal side of the region's markets and know how to slip contraband past the authorities.</p>\n<p>Choose two ability boosts. One must be to <strong>Wisdom</strong> or <strong>Charisma</strong>, and one is a free ability boost.</p>\n<p>You're trained in the Stealth skill and the Underworld Lore skill. You gain the @Compendium[pf2e.feats-srd.Experienced Smuggler]{Experienced Smuggler} skill feat.</p>"
        },
        "items": {
            "52l0f": {
                "id": "t3btih0O5RUwWynt",
                "img": "systems/pf2e/icons/features/feats/feats.webp",
                "level": "1",
                "name": "Experienced Smuggler",
                "pack": "pf2e.feats-srd"
            }
        },
        "rules": [],
        "schema": {
            "lastMigration": null,
            "version": 0.643
        },
        "source": {
            "value": ""
        },
        "trainedLore": "Underworld Lore",
        "trainedSkills": {
            "value": [
                "ste"
            ]
        },
        "traits": {
            "custom": "",
            "rarity": {
                "value": "common"
            },
            "value": []
        }
    },
    "effects": [],
    "flags": {},
    "img": "systems/pf2e/icons/default-icons/mystery-man.svg",
    "name": "Black Market Smuggler",
    "type": "background"
}
