{
    "_id": "3wLnNwWnZ2dHIbV4",
    "data": {
        "boosts": {
            "0": {
                "value": [
                    "con",
                    "dex"
                ]
            },
            "1": {
                "value": [
                    "cha",
                    "con",
                    "dex",
                    "int",
                    "str",
                    "wis"
                ]
            }
        },
        "description": {
            "chat": "",
            "unidentified": "",
            "value": "<p><strong>Prerequisite</strong>: Region - Absalom and Starstone Isle</p>\n<hr />\n<p>You spent a portion of your youth diving and gathering precious pearls under the attentive eyes of Kortos Consortium merchants.</p>\n<p>Choose two ability boosts. One must be to <strong>Constitution</strong> or <strong>Dexterity</strong>, and one is a free ability boost.</p>\n<p>You're trained in the Athletics skill and the Ocean Lore skill. You gain the @Compendium[pf2e.feats-srd.Underwater Marauder]{Underwater Marauder} skill feat.</p>"
        },
        "items": {
            "xnsv2": {
                "id": "iOY6YfGBaOvMNAor",
                "img": "systems/pf2e/icons/features/feats/feats.webp",
                "level": "1",
                "name": "Underwater Marauder",
                "pack": "pf2e.feats-srd"
            }
        },
        "rules": [],
        "schema": {
            "lastMigration": null,
            "version": 0.643
        },
        "source": {
            "value": ""
        },
        "trainedLore": "Ocean Lore",
        "trainedSkills": {
            "value": [
                "ath"
            ]
        },
        "traits": {
            "custom": "",
            "rarity": {
                "value": "common"
            },
            "value": []
        }
    },
    "effects": [],
    "flags": {},
    "img": "systems/pf2e/icons/default-icons/mystery-man.svg",
    "name": "Diobel Pearl Diver",
    "type": "background"
}
