{
    "_id": "oEm937kNrP5sXxFD",
    "data": {
        "boosts": {
            "0": {
                "value": [
                    "cha",
                    "dex"
                ]
            },
            "1": {
                "value": [
                    "cha",
                    "con",
                    "dex",
                    "int",
                    "str",
                    "wis"
                ]
            }
        },
        "description": {
            "chat": "",
            "unidentified": "",
            "value": "<p>Until recently, the nation of Ravounel was part of the larger nation of Cheliax, where the church of Asmodeus is the law and slaves are traded freely in the open market. You had the poor fortune to be born into slavery, but the good luck to have grown up in the city of Kintargo. When Ravounel seceded from Cheliax, the leaders of this new nation freed all slaves, and you've wasted no time in exploring and establishing your new life. How and why you've come to Breachill is left to you to decide-but the fact that you feel empowered to determine your own destiny continues to drive you!</p>\n<p>The chance to become an adventurer has excited you for some time, as you hope to build a new life for yourself as a hero rewarded with fame and fortune. Joining the Call for Heroes is a great opportunity to find a group to adventure with.</p>\n<p>Choose two ability boosts. One must be to <strong>Dexterity</strong> or <strong>Charisma</strong>, and one is a free ability boost.</p>\n<p>You're trained in the Stealth skill and the Kintargo Lore skill. You gain the @Compendium[pf2e.feats-srd.Terrain Stalker]{Terrain Stalker} skill feat.</p>"
        },
        "items": {
            "qbuex": {
                "id": "beyw5bdA5hkQbmaG",
                "img": "systems/pf2e/icons/features/feats/feats.webp",
                "level": "1",
                "name": "Terrain Stalker",
                "pack": "pf2e.feats-srd"
            }
        },
        "rules": [],
        "schema": {
            "lastMigration": null,
            "version": 0.643
        },
        "source": {
            "value": ""
        },
        "trainedLore": "Kintargo Lore",
        "trainedSkills": {
            "value": [
                "ste"
            ]
        },
        "traits": {
            "custom": "",
            "rarity": {
                "value": "common"
            },
            "value": []
        }
    },
    "effects": [],
    "flags": {},
    "img": "systems/pf2e/icons/default-icons/mystery-man.svg",
    "name": "Emancipated",
    "type": "background"
}
