{
    "_id": "i4hN6OYv8qmi3GLW",
    "data": {
        "boosts": {
            "0": {
                "value": [
                    "cha",
                    "dex"
                ]
            },
            "1": {
                "value": [
                    "cha",
                    "con",
                    "dex",
                    "int",
                    "str",
                    "wis"
                ]
            }
        },
        "description": {
            "chat": "",
            "unidentified": "",
            "value": "<p>Through an education in the arts or sheer dogged practice, you learned to entertain crowds. You might have been an actor, a dancer, a musician, a street magician, or any other sort of performer.</p>\n<p>Choose two ability boosts. One must be to <strong>Dexterity</strong> or <strong>Charisma</strong>, and one is a free ability boost.</p>\n<p>You're trained in the Performance skill and the Theater Lore skill. You gain the @Compendium[pf2e.feats-srd.Fascinating Performance]{Fascinating Performance} skill feat.</p>"
        },
        "items": {
            "q8t33": {
                "id": "7LB00jkh6JaJr3vS",
                "img": "systems/pf2e/icons/features/feats/feats.webp",
                "level": "1",
                "name": "Fascinating Performance",
                "pack": "pf2e.feats-srd"
            }
        },
        "rules": [],
        "schema": {
            "lastMigration": null,
            "version": 0.643
        },
        "source": {
            "value": ""
        },
        "trainedLore": "Theatre Lore",
        "trainedSkills": {
            "value": [
                "prf"
            ]
        },
        "traits": {
            "custom": "",
            "rarity": {
                "value": "common"
            },
            "value": []
        }
    },
    "effects": [],
    "flags": {},
    "img": "systems/pf2e/icons/default-icons/mystery-man.svg",
    "name": "Entertainer",
    "type": "background"
}
