{
    "_id": "aWAfj7bhTZM2oK81",
    "data": {
        "boosts": {
            "0": {
                "value": [
                    "cha",
                    "str"
                ]
            },
            "1": {
                "value": [
                    "cha",
                    "con",
                    "dex",
                    "int",
                    "str",
                    "wis"
                ]
            }
        },
        "description": {
            "chat": "",
            "unidentified": "",
            "value": "<p><strong>Prerequisites</strong> Kobold ancestry</p>\n<p>You are a digger from the Hookclaw kobold tribe, born beneath the streets of Absalom, with muscles and mind hardened by years spent tunneling through rock and earth and a confidence built upon your pride in your draconic heritage.</p>\n<p>Choose two ability boosts. One must be to <strong>Strength</strong> or <strong>Charisma</strong>, and one is a free ability boost.</p>\n<p>You're trained in the Crafting skill, the Mining Lore skill, and the Engineering Lore skill. You gain the @Compendium[pf2e.feats-srd.Improvise Tool]{Improvise Tool} skill feat.</p>"
        },
        "items": {
            "o3zgv": {
                "id": "3HChkcD1IRqv4DbA",
                "img": "systems/pf2e/icons/features/feats/feats.webp",
                "level": "1",
                "name": "Improvise Tool",
                "pack": "pf2e.feats-srd"
            }
        },
        "rules": [],
        "schema": {
            "lastMigration": null,
            "version": 0.643
        },
        "source": {
            "value": ""
        },
        "trainedLore": "Mining Lore, Engineering Lore",
        "trainedSkills": {
            "value": [
                "cra"
            ]
        },
        "traits": {
            "custom": "",
            "rarity": {
                "value": "common"
            },
            "value": []
        }
    },
    "effects": [],
    "flags": {},
    "img": "systems/pf2e/icons/default-icons/mystery-man.svg",
    "name": "Hookclaw Digger",
    "type": "background"
}
