{
    "_id": "7IrOApgShgnmp1A5",
    "data": {
        "boosts": {
            "0": {
                "value": [
                    "dex",
                    "str"
                ]
            },
            "1": {
                "value": [
                    "cha",
                    "con",
                    "dex",
                    "int",
                    "str",
                    "wis"
                ]
            }
        },
        "description": {
            "chat": "",
            "unidentified": "",
            "value": "<p>You've worked as a roustabout to erect tents and set up rigging for acrobatic performances; you've sometimes even aided aerialists and acrobats in their death-defying training. Even though your work is often done before the crowds arrive, you know your skills contribute to the success and safety of the circus. Mistress Dusklight treats her roustabouts as little more than slaves, and you've resolved to join a company where your expertise is appreciated.</p>\n<p>Choose two ability boosts. One must be to <strong>Strength</strong> or <strong>Dexterity</strong>, and one is a free ability boost.</p>\n<p>You're trained in the Athletics skill and the Circus Lore skill. You gain the @Compendium[pf2e.feats-srd.Combat Climber]{Combat Climber} skill feat.</p>"
        },
        "items": {
            "zp5gh": {
                "id": "09PurtIanNUPfNRq",
                "img": "systems/pf2e/icons/features/feats/feats.webp",
                "level": "1",
                "name": "Combat Climber",
                "pack": "pf2e.feats-srd"
            }
        },
        "rules": [],
        "schema": {
            "lastMigration": null,
            "version": 0.643
        },
        "source": {
            "value": ""
        },
        "trainedLore": "Circus Lore",
        "trainedSkills": {
            "value": [
                "ath"
            ]
        },
        "traits": {
            "custom": "",
            "rarity": {
                "value": "common"
            },
            "value": []
        }
    },
    "effects": [],
    "flags": {},
    "img": "systems/pf2e/icons/default-icons/mystery-man.svg",
    "name": "Rigger",
    "type": "background"
}
