{
    "_id": "i5G6E5dkGWiq838C",
    "data": {
        "boosts": {
            "0": {
                "value": [
                    "cha",
                    "int"
                ]
            },
            "1": {
                "value": [
                    "cha",
                    "con",
                    "dex",
                    "int",
                    "str",
                    "wis"
                ]
            }
        },
        "description": {
            "chat": "",
            "unidentified": "",
            "value": "<p><strong>Prerequisite</strong>: Region - High Seas</p>\n<hr />\n<p>You're fascinated by the lost Azlanti Empire and have dedicated yourself to seeking out and studying every broken artifact or scrap of knowledge that remains, whether as an academic pursuit or simply for the joy of treasure hunting.</p>\n<p>Choose two ability boosts. One must be to <strong>Intelligence</strong> or <strong>Charisma</strong>, and one is a free ability boost.</p>\n<p>You're trained in the Arcana skill and the Azlant Lore skills. You gain the @Compendium[pf2e.feats-srd.Quick Identification]{Quick Identification} skill feat.</p>"
        },
        "items": {
            "nrcun": {
                "id": "IlOQuCQIhjJpig3S",
                "img": "systems/pf2e/icons/features/feats/feats.webp",
                "level": "1",
                "name": "Quick Identification",
                "pack": "pf2e.feats-srd"
            }
        },
        "rules": [],
        "schema": {
            "lastMigration": null,
            "version": 0.643
        },
        "source": {
            "value": ""
        },
        "trainedLore": "Azlant Lore",
        "trainedSkills": {
            "value": [
                "arc"
            ]
        },
        "traits": {
            "custom": "",
            "rarity": {
                "value": "common"
            },
            "value": []
        }
    },
    "effects": [],
    "flags": {},
    "img": "systems/pf2e/icons/default-icons/mystery-man.svg",
    "name": "Scholar of the Ancients",
    "type": "background"
}
