{
    "_id": "UdOUj7i8XGTI72Zc",
    "data": {
        "boosts": {
            "0": {
                "value": [
                    "cha",
                    "dex"
                ]
            },
            "1": {
                "value": [
                    "cha",
                    "con",
                    "dex",
                    "int",
                    "str",
                    "wis"
                ]
            }
        },
        "description": {
            "chat": "",
            "unidentified": "",
            "value": "<p>You held a role of servitude, waiting on nobles and engendering their trust as one of the confidantes of the household. You might have walked away on good terms, or perhaps you know dangerous secrets about your former masters. Regardless, you're adventuring for a change and finding that in this new role, the skills you've learned now serve you.</p>\n<p>Choose two ability boosts. One must be to <strong>Dexterity</strong> or <strong>Charisma</strong>, and one is a free ability boost.</p>\n<p>You're trained in the Society skill and the Labor Lore skill. You gain the @Compendium[pf2e.feats-srd.Read Lips]{Read Lips} skill feat.</p>"
        },
        "items": {
            "z7jfd": {
                "id": "yUuU9xyotrpwpTyC",
                "img": "systems/pf2e/icons/features/feats/feats.webp",
                "level": "1",
                "name": "Read Lips",
                "pack": "pf2e.feats-srd"
            }
        },
        "rules": [],
        "schema": {
            "lastMigration": null,
            "version": 0.643
        },
        "source": {
            "value": ""
        },
        "trainedLore": "Labor Lore",
        "trainedSkills": {
            "value": [
                "soc"
            ]
        },
        "traits": {
            "custom": "",
            "rarity": {
                "value": "common"
            },
            "value": []
        }
    },
    "effects": [],
    "flags": {},
    "img": "systems/pf2e/icons/default-icons/mystery-man.svg",
    "name": "Servant",
    "type": "background"
}
