{
    "_id": "UURvnfwXypRYYXBI",
    "data": {
        "boosts": {
            "0": {
                "value": [
                    "str",
                    "wis"
                ]
            },
            "1": {
                "value": [
                    "cha",
                    "con",
                    "dex",
                    "int",
                    "str",
                    "wis"
                ]
            }
        },
        "description": {
            "chat": "",
            "unidentified": "",
            "value": "<p><strong>Prerequisite</strong>: Region - High Seas</p>\n<hr />\n<p>Through luck or through skill, you managed to survive a catastrophic maritime disaster, such as a shipwreck or being thrown overboard. You have a keen sense for weather or situations that are similar to the one you escaped.</p>\n<p>Choose two ability boosts. One must be to <strong>Strength</strong> or <strong>Wisdom</strong>, and one is a free ability boost.</p>\n<p>You're trained in the Survival skill and the Weather Lore skill. You gain the @Compendium[pf2e.feats-srd.Forager]{Forager} skill feat.</p>"
        },
        "items": {
            "un6z5": {
                "id": "8qebBeOJsyRIchcu",
                "img": "systems/pf2e/icons/features/feats/feats.webp",
                "level": "1",
                "name": "Forager",
                "pack": "pf2e.feats-srd"
            }
        },
        "rules": [],
        "schema": {
            "lastMigration": null,
            "version": 0.643
        },
        "source": {
            "value": ""
        },
        "trainedLore": "Weather Lore",
        "trainedSkills": {
            "value": [
                "sur"
            ]
        },
        "traits": {
            "custom": "",
            "rarity": {
                "value": "common"
            },
            "value": []
        }
    },
    "effects": [],
    "flags": {},
    "img": "systems/pf2e/icons/default-icons/mystery-man.svg",
    "name": "Storm Survivor",
    "type": "background"
}
