{
    "_id": "tPwYYwxNqdGQp2nW",
    "data": {
        "MAP": {
            "value": ""
        },
        "ability": {
            "value": "str"
        },
        "baseItem": "dwarven-war-axe",
        "bonus": {
            "value": 4
        },
        "bonusDamage": {
            "value": 0
        },
        "brokenThreshold": {
            "value": 0
        },
        "bulkCapacity": {
            "value": ""
        },
        "collapsed": {
            "value": false
        },
        "containerId": {
            "value": ""
        },
        "damage": {
            "damageType": "slashing",
            "dice": 1,
            "die": "d8",
            "value": ""
        },
        "description": {
            "chat": "",
            "unidentified": "",
            "value": "<p>The blade of this +4 major striking @Compendium[pf2e.equipment-srd.Keen]{Keen} @Compendium[pf2e.equipment-srd.Returning]{Returning} @Compendium[pf2e.equipment-srd.Speed]{Speed} dwarven waraxe is carved with an intricate design depicting countless generations of great dwarven warriors and leaders.</p>\n<p>The axe has the thrown 30 feet weapon trait, in addition to the normal weapon traits for a dwarven waraxe. Strikes with the axe deal an additional 1d6 damage to orcs.</p>\n<p>While the axe is in your possession, you gain a +4 item bonus when Crafting armor, jewelry, metalworking, stonemasonry, snares, traps, and weapons.</p>\n<p>If you are a dwarf, you gain greater darkvision while holding the axe. If you are not a dwarf, you are stupefied 4 while holding the axe, and if you are an orc, you are also drained 4 and enfeebled 4 while holding it.</p>\n<hr />\n<p><strong>Activate</strong> <span class=\"pf2-icon\">T</span> envision, Interact</p>\n<p><strong>Frequency</strong> once per week</p>\n<p><strong>Effect</strong> The axe casts a 10th-level @Compendium[pf2e.spells-srd.Summon Elemental]{Summon Elemental} spell to conjure an elite elemental avalanche. The spell is automatically sustained, requiring no action on your part but still allowing you to command the elemental on each of your turns. You can Dismiss the Spell.</p>\n<hr />\n<p><strong>Destruction</strong> If an orc beheads a dwarven king with the <em>Axe of the Dwarven Lords</em>, the axe rusts away to nothing.</p>\n<hr />\n<p>Automatically applied effects:</p>\n<ul>\n<li>+4 item bonus when Crafting armor, jewelry, metalworking, stonemasonry, snares, traps, and weapons.</li>\n<li>+1d6 damage vs. orcs (use toggle on the Action page or target a creature with the orc trait to apply)</li>\n</ul>"
        },
        "equipped": {
            "value": false
        },
        "equippedBulk": {
            "value": ""
        },
        "group": {
            "value": "axe"
        },
        "hands": {
            "value": ""
        },
        "hardness": {
            "value": 0
        },
        "hp": {
            "value": 0
        },
        "identification": {
            "misidentified": {},
            "status": "identified",
            "unidentified": {
                "data": {
                    "description": {
                        "value": ""
                    }
                },
                "img": "",
                "name": ""
            }
        },
        "invested": {
            "value": false
        },
        "level": {
            "value": 26
        },
        "maxHp": {
            "value": 0
        },
        "negateBulk": {
            "value": "0"
        },
        "potencyRune": {
            "value": 4
        },
        "preciousMaterial": {
            "value": ""
        },
        "preciousMaterialGrade": {
            "value": ""
        },
        "price": {
            "value": "0 gp"
        },
        "property1": {
            "critDamage": "",
            "critDamageType": "",
            "critDice": null,
            "critDie": "",
            "criticalConditionType": "",
            "criticalConditionValue": null,
            "damageType": "",
            "dice": null,
            "die": "",
            "strikeConditionType": "",
            "strikeConditionValue": null,
            "value": ""
        },
        "propertyRune1": {
            "value": "keen"
        },
        "propertyRune2": {
            "value": "returning"
        },
        "propertyRune3": {
            "value": "speed"
        },
        "propertyRune4": {
            "value": ""
        },
        "quantity": {
            "value": 1
        },
        "range": {
            "value": ""
        },
        "reload": {
            "value": ""
        },
        "rules": [
            {
                "key": "PF2E.RuleElement.FlatModifier",
                "predicate": {
                    "all": [
                        "action:craft"
                    ],
                    "any": [
                        "armor",
                        "jewelry",
                        "metalworking",
                        "stonemasonry",
                        "snare",
                        "trap",
                        "weapon"
                    ]
                },
                "selector": "crafting",
                "type": "item",
                "value": 4
            },
            {
                "diceNumber": 1,
                "dieSize": "d6",
                "key": "PF2E.RuleElement.DamageDice",
                "predicate": {
                    "all": [
                        "target:orc"
                    ]
                },
                "selector": "damage"
            },
            {
                "key": "PF2E.RuleElement.ToggleProperty",
                "label": "Target is an orc",
                "property": "flags.pf2e.rollOptions.damage-roll.orc"
            }
        ],
        "schema": {
            "lastMigration": null,
            "version": 0.643
        },
        "size": {
            "value": "med"
        },
        "source": {
            "value": ""
        },
        "splashDamage": {
            "value": null
        },
        "stackGroup": {
            "value": ""
        },
        "strikingRune": {
            "value": "majorStriking"
        },
        "traits": {
            "custom": "",
            "rarity": {
                "value": "unique"
            },
            "value": [
                "conjuration",
                "dwarf",
                "magical",
                "sweep",
                "thrown-30",
                "transmutation",
                "two-hand-d12"
            ]
        },
        "usage": {
            "value": "held-in-one-hand"
        },
        "weaponType": {
            "value": "advanced"
        },
        "weight": {
            "value": "3"
        }
    },
    "effects": [],
    "flags": {},
    "img": "systems/pf2e/icons/equipment/artifacts/axe-of-the-dwarven-lords.webp",
    "name": "Axe of the Dwarven Lords",
    "type": "weapon"
}
