{
    "_id": "cozhl69heIF0vjUt",
    "data": {
        "description": {
            "chat": "",
            "unidentified": "",
            "value": "<div><strong>Armor</strong> hide armor</div>\n<div><strong>Weapons</strong> dagger</div>\n<div><strong>Gear</strong> adventurer's pack, grappling hook</div>\n<div><strong>Options</strong> @Compendium[pf2e.equipment-srd.Greatsword]{Greatsword} (2 gp), @Compendium[pf2e.equipment-srd.Longbow]{Longbow} with 20 @Compendium[pf2e.equipment-srd.Arrows]{Arrows} (6 gp, 2 sp), or @Compendium[pf2e.equipment-srd.Longsword]{Longsword} and @Compendium[pf2e.equipment-srd.Steel Shield]{Steel Shield} (3 gp)</div>"
        },
        "equippedBulk": {
            "value": ""
        },
        "items": {
            "6lfxm": {
                "id": "6DCy7tEF1cxaIJMy",
                "img": "systems/pf2e/icons/equipment/adventuring-gear/grapling-hook.webp",
                "isContainer": false,
                "items": {},
                "name": "Grappling Hook",
                "pack": "pf2e.equipment-srd",
                "quantity": 1
            },
            "9s0za": {
                "id": "AnwzlOs0njF9Jqnr",
                "img": "systems/pf2e/icons/equipment/armor/hide.webp",
                "isContainer": false,
                "items": {},
                "name": "Hide",
                "pack": "pf2e.equipment-srd",
                "quantity": 1
            },
            "gps": {
                "id": "B6B7tBWJSqOBz5zz",
                "img": "systems/pf2e/icons/equipment/treasure/currency/gold-pieces.webp",
                "isContainer": false,
                "items": {},
                "name": "Gold Pieces",
                "pack": "pf2e.equipment-srd",
                "quantity": 11
            },
            "sps": {
                "id": "5Ew82vBF9YfaiY9f",
                "img": "systems/pf2e/icons/equipment/treasure/currency/silver-pieces.webp",
                "isContainer": false,
                "items": {},
                "name": "Silver Pieces",
                "pack": "pf2e.equipment-srd",
                "quantity": 2
            },
            "wp0mg": {
                "id": "2req0jGaxz8hScdB",
                "img": "systems/pf2e/icons/equipment/adventuring-gear/adventurers-pack.webp",
                "isContainer": true,
                "items": {},
                "name": "Adventurer's Pack",
                "pack": "pf2e.equipment-srd",
                "quantity": 1
            },
            "zcxm9": {
                "id": "rQWaJhI5Bko5x14Z",
                "img": "systems/pf2e/icons/equipment/weapons/dagger.webp",
                "isContainer": false,
                "items": {},
                "name": "Dagger",
                "pack": "pf2e.equipment-srd",
                "quantity": 1
            }
        },
        "price": {
            "value": "3 gp, 8 sp"
        },
        "rules": [],
        "schema": {
            "lastMigration": null,
            "version": 0.643
        },
        "source": {
            "value": ""
        },
        "traits": {
            "custom": "",
            "rarity": {
                "value": "common"
            },
            "value": [
                "fighter"
            ]
        },
        "weight": {
            "value": "-"
        }
    },
    "effects": [],
    "flags": {},
    "img": "systems/pf2e/icons/equipment/adventuring-gear/classkit-fighter.webp",
    "name": "Class Kit (Fighter)",
    "type": "kit"
}
