{
    "_id": "9UJbMaglf35GVzaZ",
    "data": {
        "baseItem": null,
        "brokenThreshold": {
            "value": 0
        },
        "bulkCapacity": {
            "value": ""
        },
        "collapsed": {
            "value": false
        },
        "containerId": {
            "value": ""
        },
        "description": {
            "chat": "",
            "unidentified": "",
            "value": "<p>This satchel includes 50 feet of rope, pulleys, a dozen pitons, a hammer, a grappling hook, and one set of crampons. Climbing kits allow you to attach yourself to the wall you're Climbing, moving half as quickly as usual (minimum 5 feet) but letting you attempt a DC 5 flat check whenever you critically fail to prevent a fall. A single kit has only enough materials for one climber; each climber needs their own kit.</p>"
        },
        "equipped": {
            "value": false
        },
        "equippedBulk": {
            "value": ""
        },
        "hardness": {
            "value": 0
        },
        "hp": {
            "value": 0
        },
        "identification": {
            "misidentified": {},
            "status": "identified",
            "unidentified": {
                "data": {
                    "description": {
                        "value": ""
                    }
                },
                "img": "",
                "name": ""
            }
        },
        "invested": {
            "value": false
        },
        "level": {
            "value": 0
        },
        "maxHp": {
            "value": 0
        },
        "negateBulk": {
            "value": "0"
        },
        "preciousMaterial": {
            "value": ""
        },
        "preciousMaterialGrade": {
            "value": ""
        },
        "price": {
            "value": "5 sp"
        },
        "quantity": {
            "value": 1
        },
        "rules": [],
        "schema": {
            "lastMigration": null,
            "version": 0.643
        },
        "size": {
            "value": "med"
        },
        "source": {
            "value": ""
        },
        "stackGroup": {
            "value": ""
        },
        "traits": {
            "custom": "",
            "rarity": {
                "value": "common"
            },
            "usage": {
                "value": "held-in-one-hand"
            },
            "value": []
        },
        "usage": {
            "value": "held-in-one-hand"
        },
        "weight": {
            "value": "1"
        }
    },
    "effects": [],
    "flags": {},
    "img": "systems/pf2e/icons/equipment/adventuring-gear/climbing-kit.webp",
    "name": "Climbing Kit",
    "type": "equipment"
}
