{
    "_id": "vfzzrp0tKXznWnhY",
    "data": {
        "armor": {
            "value": 1
        },
        "armorType": {
            "value": "shield"
        },
        "baseItem": null,
        "brokenThreshold": {
            "value": 4
        },
        "bulkCapacity": {
            "value": ""
        },
        "check": {
            "value": 0
        },
        "collapsed": {
            "value": false
        },
        "containerId": {
            "value": ""
        },
        "description": {
            "chat": "",
            "unidentified": "",
            "value": "<p>Dragonhide shields are each immune to one damage type based on the type of dragon.</p>\n<table class=\"pf2-table\">\n<thead>\n<tr>\n<th>Dragon Type</th>\n<th>Breath Weapon (Save)</th>\n</tr>\n</thead>\n<tbody>\n<tr>\n<td>Black or copper</td>\n<td>30-foot line of acid (Reflex)</td>\n</tr>\n<tr>\n<td>Blue or bronze</td>\n<td>30-foot line of electricity (Reflex)</td>\n</tr>\n<tr>\n<td>Brass</td>\n<td>30-foot line of fire (Reflex)</td>\n</tr>\n<tr>\n<td>Green</td>\n<td>15-foot cone of poison (Fortitude)</td>\n</tr>\n<tr>\n<td>Gold or red</td>\n<td>15-foot cone of fire (Reflex)</td>\n</tr>\n<tr>\n<td>Silver or white</td>\n<td>15-foot cone of cold (Reflex)</td>\n</tr>\n</tbody>\n</table>\n<p>The shield has Hardness 2, HP 8, and BT 4.</p>\n<p><strong>Craft Requirements</strong> dragonhide worth at least 50 gp</p>"
        },
        "dex": {
            "value": 0
        },
        "equipped": {
            "value": false
        },
        "equippedBulk": {
            "value": ""
        },
        "group": {
            "value": null
        },
        "hardness": {
            "value": 2
        },
        "hp": {
            "value": 8
        },
        "identification": {
            "misidentified": {},
            "status": "identified",
            "unidentified": {
                "data": {
                    "description": {
                        "value": ""
                    }
                },
                "img": "",
                "name": ""
            }
        },
        "invested": {
            "value": false
        },
        "level": {
            "value": 8
        },
        "maxHp": {
            "value": 8
        },
        "negateBulk": {
            "value": "0"
        },
        "potencyRune": {
            "value": null
        },
        "preciousMaterial": {
            "value": "dragonhide"
        },
        "preciousMaterialGrade": {
            "value": "standard"
        },
        "price": {
            "value": "400 gp"
        },
        "propertyRune1": {
            "value": ""
        },
        "propertyRune2": {
            "value": ""
        },
        "propertyRune3": {
            "value": ""
        },
        "propertyRune4": {
            "value": ""
        },
        "quantity": {
            "value": 1
        },
        "resiliencyRune": {
            "value": ""
        },
        "rules": [],
        "schema": {
            "lastMigration": null,
            "version": 0.643
        },
        "size": {
            "value": "med"
        },
        "source": {
            "value": ""
        },
        "speed": {
            "value": 0
        },
        "stackGroup": {
            "value": ""
        },
        "strength": {
            "value": 0
        },
        "traits": {
            "custom": "",
            "rarity": {
                "value": "uncommon"
            },
            "value": []
        },
        "usage": {
            "value": "held-in-one-hand"
        },
        "weight": {
            "value": "L"
        }
    },
    "effects": [],
    "flags": {},
    "img": "systems/pf2e/icons/equipment/shields/precious-material-shields/dragonhide-buckler.webp",
    "name": "Dragonhide Buckler (Standard-Grade)",
    "type": "armor"
}
