{
    "_id": "DA3HgyEBGEbtRNOo",
    "data": {
        "baseItem": null,
        "brokenThreshold": {
            "value": 0
        },
        "bulkCapacity": {
            "value": ""
        },
        "collapsed": {
            "value": false
        },
        "containerId": {
            "value": ""
        },
        "description": {
            "chat": "",
            "unidentified": "",
            "value": "<p>You can pull a dueling cape you're wearing from your shoulder and wrap it around your arm with an @Compendium[pf2e.actionspf2e.Interact]{Interact} action.</p>\n<p>While wielding the dueling cape this way, the cape uses that arm and hand, and you can't hold anything else in that hand.</p>\n<p>While you do so, you can spend an action to hold it in a protective position, giving you a +1 circumstance bonus to AC and to Deception checks to @Compendium[pf2e.actionspf2e.Feint]{Feint} until the start of your next turn.</p>\n<p>@Compendium[pf2e.equipment-effects.Effect: Dueling Cape]{Effect: Dueling Cape}</p>"
        },
        "equipped": {
            "value": false
        },
        "equippedBulk": {
            "value": ""
        },
        "hardness": {
            "value": 0
        },
        "hp": {
            "value": 0
        },
        "identification": {
            "misidentified": {},
            "status": "identified",
            "unidentified": {
                "data": {
                    "description": {
                        "value": ""
                    }
                },
                "img": "",
                "name": ""
            }
        },
        "invested": {
            "value": false
        },
        "level": {
            "value": 0
        },
        "maxHp": {
            "value": 0
        },
        "negateBulk": {
            "value": "0"
        },
        "preciousMaterial": {
            "value": ""
        },
        "preciousMaterialGrade": {
            "value": ""
        },
        "price": {
            "value": "5 sp"
        },
        "quantity": {
            "value": 1
        },
        "rules": [],
        "schema": {
            "lastMigration": null,
            "version": 0.643
        },
        "size": {
            "value": "med"
        },
        "source": {
            "value": ""
        },
        "stackGroup": {
            "value": ""
        },
        "traits": {
            "custom": "",
            "rarity": {
                "value": "common"
            },
            "value": []
        },
        "usage": {
            "value": "worncloak"
        },
        "weight": {
            "value": "L"
        }
    },
    "effects": [],
    "flags": {},
    "img": "systems/pf2e/icons/equipment/adventuring-gear/dueling-cape.webp",
    "name": "Dueling Cape",
    "type": "equipment"
}
