{
    "_id": "tr2eOlJMmBKBZtI9",
    "data": {
        "baseItem": null,
        "brokenThreshold": {
            "value": 0
        },
        "bulkCapacity": {
            "value": ""
        },
        "collapsed": {
            "value": false
        },
        "containerId": {
            "value": ""
        },
        "description": {
            "chat": "",
            "unidentified": "",
            "value": "<p>This ice-blue half-mask is adorned with a wicked silver grin that covers the wearer's mouth, leaving the rest of the face uncovered. You gain a +2 item bonus to Intimidation checks.</p>\n<p><strong>Activate</strong> <span class=\"pf2-icon\">2 </span>envision, Interact;</p>\n<p><strong>Frequency</strong> once per day;</p>\n<p><strong>Effect</strong> The mask emits a soul-chilling scream that deals [[/r 6d10]] negative damage to each living creature in a 20-foot emanation (<span data-pf2-saving-throw=\"fortitude\" data-pf2-dc=\"25\" data-pf2-traits=\"auditory,magical,necromancy,negative\" data-pf2-label=\"Mask of the Banshee DC\" data-pf2-show-dc=\"gm\">basic Fortitude</span> save).</p>\n<p><strong>Craft Requirements</strong> Supply a casting of <em>wail of the banshee</em>.</p>\n<hr />\n<p>Automatically applied effects:</p>\n<ul>\n<li>+2 item bonus to Intimidation checks</li>\n</ul>"
        },
        "equipped": {
            "value": false
        },
        "equippedBulk": {
            "value": ""
        },
        "hardness": {
            "value": 0
        },
        "hp": {
            "value": 0
        },
        "identification": {
            "misidentified": {},
            "status": "identified",
            "unidentified": {
                "data": {
                    "description": {
                        "value": ""
                    }
                },
                "img": "",
                "name": ""
            }
        },
        "invested": {
            "value": false
        },
        "level": {
            "value": 9
        },
        "maxHp": {
            "value": 0
        },
        "negateBulk": {
            "value": "0"
        },
        "preciousMaterial": {
            "value": ""
        },
        "preciousMaterialGrade": {
            "value": ""
        },
        "price": {
            "value": "700 gp"
        },
        "quantity": {
            "value": 1
        },
        "rules": [
            {
                "key": "PF2E.RuleElement.FlatModifier",
                "selector": "intimidation",
                "type": "item",
                "value": 2
            }
        ],
        "schema": {
            "lastMigration": null,
            "version": 0.643
        },
        "size": {
            "value": "med"
        },
        "source": {
            "value": ""
        },
        "stackGroup": {
            "value": ""
        },
        "traits": {
            "custom": "",
            "rarity": {
                "value": "common"
            },
            "value": [
                "auditory",
                "invested",
                "magical",
                "necromancy",
                "negative"
            ]
        },
        "usage": {
            "value": "wornmask"
        },
        "weight": {
            "value": "-"
        }
    },
    "effects": [],
    "flags": {},
    "img": "systems/pf2e/icons/equipment/worn-items/other-worn-items/mask-of-the-banshee.webp",
    "name": "Mask of the Banshee",
    "type": "equipment"
}
