{
    "_id": "b9YHyjOL4sg7tjI4",
    "data": {
        "baseItem": null,
        "brokenThreshold": {
            "value": 0
        },
        "bulkCapacity": {
            "value": ""
        },
        "collapsed": {
            "value": false
        },
        "containerId": {
            "value": ""
        },
        "description": {
            "chat": "",
            "unidentified": "",
            "value": "<p>This silver signet ring changes to match the insignia of a lord or organization you serve (or your own face, if you serve no one else). It grants you a +3 item bonus to Diplomacy checks and lets you cast @Compendium[pf2e.spells-srd.Message]{Message} as an arcane innate spell at will.</p>\n<hr />\n<p><strong>Activate</strong> 1 minute (envision)</p>\n<p><strong>Frequency</strong> once per day</p>\n<p><strong>Effect</strong> The ring casts @Compendium[pf2e.spells-srd.Animal Messenger]{Animal Messenger} to your specification. The animal is a magical creature that springs from the ring, and its appearance suits the iconography or heraldry of the lord or organization represented by the ring.</p>\n<hr />\n<p><strong>Activate</strong> <span class=\"pf2-icon\">T</span> command</p>\n<p><strong>Frequency</strong> once per hour</p>\n<p><strong>Effect</strong> The ring casts @Compendium[pf2e.spells-srd.Sending]{Sending} to your specifications.</p>\n<hr />\n<p>Automatically applied effects:</p>\n<ul>\n<li>+3 item bonus to Diplomacy checks </li>\n</ul>"
        },
        "equipped": {
            "value": false
        },
        "equippedBulk": {
            "value": ""
        },
        "hardness": {
            "value": 0
        },
        "hp": {
            "value": 0
        },
        "identification": {
            "misidentified": {},
            "status": "identified",
            "unidentified": {
                "data": {
                    "description": {
                        "value": ""
                    }
                },
                "img": "",
                "name": ""
            }
        },
        "invested": {
            "value": false
        },
        "level": {
            "value": 17
        },
        "maxHp": {
            "value": 0
        },
        "negateBulk": {
            "value": "0"
        },
        "preciousMaterial": {
            "value": ""
        },
        "preciousMaterialGrade": {
            "value": ""
        },
        "price": {
            "value": "13,500 gp"
        },
        "quantity": {
            "value": 1
        },
        "rules": [
            {
                "key": "PF2E.RuleElement.FlatModifier",
                "selector": "diplomacy",
                "type": "item",
                "value": 3
            }
        ],
        "schema": {
            "lastMigration": null,
            "version": 0.643
        },
        "size": {
            "value": "med"
        },
        "source": {
            "value": ""
        },
        "stackGroup": {
            "value": ""
        },
        "traits": {
            "custom": "",
            "rarity": {
                "value": "common"
            },
            "value": [
                "enchantment",
                "invested",
                "magical"
            ]
        },
        "usage": {
            "value": "worn"
        },
        "weight": {
            "value": "-"
        }
    },
    "effects": [],
    "flags": {},
    "img": "systems/pf2e/icons/equipment/worn-items/other-worn-items/messengers-ring.webp",
    "name": "Messenger's Ring (Greater)",
    "type": "equipment"
}
