{
    "_id": "EKXRigmEZgqmFA62",
    "data": {
        "armor": {
            "value": 2
        },
        "armorType": {
            "value": "shield"
        },
        "baseItem": null,
        "brokenThreshold": {
            "value": 20
        },
        "bulkCapacity": {
            "value": ""
        },
        "check": {
            "value": 0
        },
        "collapsed": {
            "value": false
        },
        "containerId": {
            "value": ""
        },
        "description": {
            "chat": "",
            "unidentified": "",
            "value": "<p>This round shield is often fashioned to resemble the religious symbol of its dual-natured namesake. A Nethysian bulwark is a high-grade cold iron shield (Hardness 10, HP 40, BT 20) that defends the wielder and can explode with retributive force when struck.</p>\n<p><strong>Activate</strong> <span class=\"pf2-icon\">F</span> envision</p>\n<p><strong>Trigger</strong> The shield becomes broken when performing a Shield Block</p>\n<p><strong>Effect</strong> The shield explodes in a burst of bright light and shadowy tendrils, releasing a 15-foot cone of force that must include the attacker if possible. The cone deals [[/r 6d8]] force damage to all creatures in the area (DC 34 basic Reflex save).</p>"
        },
        "dex": {
            "value": 0
        },
        "equipped": {
            "value": false
        },
        "equippedBulk": {
            "value": ""
        },
        "group": {
            "value": null
        },
        "hardness": {
            "value": 10
        },
        "hp": {
            "value": 40
        },
        "identification": {
            "misidentified": {},
            "status": "identified",
            "unidentified": {
                "data": {
                    "description": {
                        "value": ""
                    }
                },
                "img": "",
                "name": ""
            }
        },
        "invested": {
            "value": false
        },
        "level": {
            "value": 16
        },
        "maxHp": {
            "value": 40
        },
        "negateBulk": {
            "value": "0"
        },
        "potencyRune": {
            "value": null
        },
        "preciousMaterial": {
            "value": "coldIron"
        },
        "preciousMaterialGrade": {
            "value": "high"
        },
        "price": {
            "value": "8,000 gp"
        },
        "propertyRune1": {
            "value": ""
        },
        "propertyRune2": {
            "value": ""
        },
        "propertyRune3": {
            "value": ""
        },
        "propertyRune4": {
            "value": ""
        },
        "quantity": {
            "value": 1
        },
        "resiliencyRune": {
            "value": ""
        },
        "rules": [],
        "schema": {
            "lastMigration": null,
            "version": 0.643
        },
        "size": {
            "value": "med"
        },
        "source": {
            "value": "Pathfinder #149: Against the Scarlet Triad"
        },
        "speed": {
            "value": 0
        },
        "stackGroup": {
            "value": ""
        },
        "strength": {
            "value": 0
        },
        "traits": {
            "custom": "",
            "rarity": {
                "value": "uncommon"
            },
            "value": [
                "abjuration",
                "evocation",
                "magical"
            ]
        },
        "usage": {
            "value": "held-in-one-hand"
        },
        "weight": {
            "value": "1"
        }
    },
    "effects": [],
    "flags": {},
    "img": "systems/pf2e/icons/equipment/shields/specific-shields/nethysian-bulwark.webp",
    "name": "Nethysian Bulwark",
    "type": "armor"
}
