{
    "_id": "tBwMPimZ6A93XpHf",
    "data": {
        "baseItem": null,
        "brokenThreshold": {
            "value": 0
        },
        "bulkCapacity": {
            "value": ""
        },
        "collapsed": {
            "value": false
        },
        "containerId": {
            "value": ""
        },
        "description": {
            "chat": "",
            "unidentified": "",
            "value": "<p>This blackened, heavily burned stick smells faintly of bat guano.</p>\n<p><strong>Activate</strong> Cast a Spell</p>\n<p><strong>Frequency</strong> Once per day, plus overcharge</p>\n<p><strong>Effect</strong> You cast @Compendium[pf2e.spells-srd.Fireball]{Fireball} at 9th level.</p>\n<p>Each creature that fails its save takes 4d6 persistent fire damage.</p>\n<p><strong>Craft Requirements</strong> Supply a casting of fireball of the appropriate level.</p>"
        },
        "equipped": {
            "value": false
        },
        "equippedBulk": {
            "value": ""
        },
        "hardness": {
            "value": 0
        },
        "hp": {
            "value": 0
        },
        "identification": {
            "misidentified": {},
            "status": "identified",
            "unidentified": {
                "data": {
                    "description": {
                        "value": ""
                    }
                },
                "img": "",
                "name": ""
            }
        },
        "invested": {
            "value": false
        },
        "level": {
            "value": 20
        },
        "maxHp": {
            "value": 0
        },
        "negateBulk": {
            "value": ""
        },
        "preciousMaterial": {
            "value": ""
        },
        "preciousMaterialGrade": {
            "value": ""
        },
        "price": {
            "value": "70,000 gp"
        },
        "quantity": {
            "value": 1
        },
        "rules": [],
        "schema": {
            "lastMigration": null,
            "version": 0.643
        },
        "size": {
            "value": "med"
        },
        "source": {
            "value": ""
        },
        "stackGroup": {
            "value": ""
        },
        "traits": {
            "custom": "",
            "rarity": {
                "value": "common"
            },
            "usage": {
                "value": "held-in-one-hand"
            },
            "value": [
                "evocation",
                "fire",
                "magical",
                "wand"
            ]
        },
        "usage": {
            "value": "held-in-one-hand"
        },
        "weight": {
            "value": "L"
        }
    },
    "effects": [],
    "flags": {},
    "img": "systems/pf2e/icons/equipment/wands/specialty-wands/wand-of-smoldering-fireballs.webp",
    "name": "Wand of Smoldering Fireballs (9th-Level Spell)",
    "type": "equipment"
}
