{
    "_id": "5V9bgqgQY1CHLd40",
    "data": {
        "baseItem": null,
        "brokenThreshold": {
            "value": 0
        },
        "bulkCapacity": {
            "value": ""
        },
        "collapsed": {
            "value": false
        },
        "containerId": {
            "value": ""
        },
        "description": {
            "chat": "",
            "unidentified": "",
            "value": "<p>This wand increases a spell's duration. Yellow embers spiral over its surface until the spell ends.</p>\n<p><strong>Activate</strong> Cast a Spell; The activation takes <span class=\"pf2-icon\">2</span> if the spell normally takes <span class=\"pf2-icon\">1</span> to cast, or <span class=\"pf2-icon\">3</span> if the spell normally takes <span class=\"pf2-icon\">2</span></p>\n<p><strong>Frequency</strong> Once per day, plus overcharge</p>\n<p><strong>Effect</strong> You Cast the Spell, and its duration is increased by half.</p>\n<hr />\n<p><strong>Craft Requirements</strong> Supply a casting of a spell of the appropriate level. The spell must have a casting time of <span class=\"pf2-icon\">1</span> or <span class=\"pf2-icon\">2</span> and a duration no less than 10 minutes and no greater than 1 hour.</p>"
        },
        "equipped": {
            "value": false
        },
        "equippedBulk": {
            "value": ""
        },
        "hardness": {
            "value": 0
        },
        "hp": {
            "value": 0
        },
        "identification": {
            "misidentified": {},
            "status": "identified",
            "unidentified": {
                "data": {
                    "description": {
                        "value": ""
                    }
                },
                "img": "",
                "name": ""
            }
        },
        "invested": {
            "value": false
        },
        "level": {
            "value": 7
        },
        "maxHp": {
            "value": 0
        },
        "negateBulk": {
            "value": "0"
        },
        "preciousMaterial": {
            "value": ""
        },
        "preciousMaterialGrade": {
            "value": ""
        },
        "price": {
            "value": "360 gp"
        },
        "quantity": {
            "value": 1
        },
        "rules": [],
        "schema": {
            "lastMigration": null,
            "version": 0.643
        },
        "size": {
            "value": "med"
        },
        "source": {
            "value": ""
        },
        "stackGroup": {
            "value": ""
        },
        "traits": {
            "custom": "",
            "rarity": {
                "value": "common"
            },
            "usage": {
                "value": "held-in-one-hand"
            },
            "value": [
                "magical",
                "wand"
            ]
        },
        "usage": {
            "value": "held-in-one-hand"
        },
        "weight": {
            "value": "L"
        }
    },
    "effects": [],
    "flags": {},
    "img": "systems/pf2e/icons/equipment/wands/specialty-wands/wand-of-continuation.webp",
    "name": "Wand of Continuation (2nd-Level Spell)",
    "type": "equipment"
}
