{
    "_id": "NmhKGflbT5NnKduz",
    "data": {
        "baseItem": null,
        "brokenThreshold": {
            "value": 0
        },
        "bulkCapacity": {
            "value": ""
        },
        "collapsed": {
            "value": false
        },
        "containerId": {
            "value": ""
        },
        "description": {
            "chat": "",
            "unidentified": "",
            "value": "<p>This wand is made of two copper plates separated by a ceramic center.</p>\n<p><strong>Activate</strong> Cast a spell;</p>\n<p><strong>Frequency</strong> Once per day, plus overcharge;</p>\n<p><strong>Effect</strong> You cast @Compendium[pf2e.spells-srd.Lightning Bolt]{Lightning Bolt} at 3rd level, but the spell's area is twice as wide (two adjacent and parallel 120-foot lines) and creatures that fail their save are flat-footed for 1 round.</p>\n<p><strong>Craft Requirements</strong> Supply a casting of lightning bolt at 3rd-level.</p>"
        },
        "equipped": {
            "value": false
        },
        "equippedBulk": {
            "value": ""
        },
        "hardness": {
            "value": 0
        },
        "hp": {
            "value": 0
        },
        "identification": {
            "misidentified": {},
            "status": "identified",
            "unidentified": {
                "data": {
                    "description": {
                        "value": ""
                    }
                },
                "img": "",
                "name": ""
            }
        },
        "invested": {
            "value": false
        },
        "level": {
            "value": 8
        },
        "maxHp": {
            "value": 0
        },
        "negateBulk": {
            "value": "0"
        },
        "preciousMaterial": {
            "value": ""
        },
        "preciousMaterialGrade": {
            "value": ""
        },
        "price": {
            "value": "500 gp"
        },
        "quantity": {
            "value": 1
        },
        "rules": [],
        "schema": {
            "lastMigration": null,
            "version": 0.643
        },
        "size": {
            "value": "med"
        },
        "source": {
            "value": ""
        },
        "stackGroup": {
            "value": ""
        },
        "traits": {
            "custom": "",
            "rarity": {
                "value": "common"
            },
            "usage": {
                "value": "held-in-one-hand"
            },
            "value": [
                "electricity",
                "evocation",
                "magical",
                "wand"
            ]
        },
        "usage": {
            "value": "held-in-one-hand"
        },
        "weight": {
            "value": "L"
        }
    },
    "effects": [],
    "flags": {},
    "img": "systems/pf2e/icons/equipment/wands/specialty-wands/wand-of-crackling-lightning.webp",
    "name": "Wand of Crackling Lightning (3rd-Level Spell)",
    "type": "equipment"
}
