{
    "_id": "rn6KT8OMYUi0EuCN",
    "data": {
        "attributes": {
            "ac": {
                "value": 16
            },
            "hardness": 5,
            "hasHealth": true,
            "hp": {
                "details": "",
                "max": 20,
                "temp": 0,
                "tempmax": 0,
                "value": 20
            },
            "stealth": {
                "details": "(trained)",
                "value": 7
            }
        },
        "creatureType": "",
        "details": {
            "description": "A pressure-sensitive floorboard connects to\r\na beam holding up debris in the crawlway's ceiling.",
            "disable": "Thievery DC 15 (trained) on the floorboard before\r\nthe debris falls",
            "isComplex": false,
            "level": {
                "value": 1
            },
            "reset": "",
            "routine": ""
        },
        "recallKnowledgeText": "",
        "saves": {
            "fortitude": {
                "rank": 0,
                "saveDetail": "",
                "value": 8
            },
            "reflex": {
                "rank": 0,
                "saveDetail": "",
                "value": 2
            },
            "will": {
                "rank": 0,
                "saveDetail": "",
                "value": 0
            }
        },
        "schema": {
            "lastMigration": null,
            "version": 0.643
        },
        "source": {
            "value": "Pathfinder Adventure: The Fall of Plaguestone"
        },
        "statusEffects": [],
        "traits": {
            "ci": [],
            "di": {
                "custom": "",
                "selected": {},
                "value": [
                    "critical-hits",
                    "object-immunities",
                    "precision"
                ]
            },
            "dr": [],
            "dv": [],
            "rarity": {
                "value": "common"
            },
            "size": {
                "value": "med"
            },
            "traits": {
                "custom": "",
                "value": [
                    "mechanical"
                ]
            }
        }
    },
    "effects": [],
    "flags": {},
    "img": "systems/pf2e/icons/default-icons/hazard.svg",
    "items": [
        {
            "_id": "HY2Pfqwkwhn3BmVF",
            "data": {
                "actionCategory": {
                    "value": ""
                },
                "actionType": {
                    "value": "reaction"
                },
                "actions": {
                    "value": ""
                },
                "description": {
                    "chat": "",
                    "unidentified": "",
                    "value": "<p><strong>Trigger</strong> Pressure is placed on the floorboard.</p>\n<p><strong>Effect</strong> The ceiling in the crawlway collapses in the square where the passage turns, and also in the two adjacent squares. Anyone in these three squares takes [[/r 3d6 #bludgeoning]] bludgeoning damage and can attempt a <span data-pf2-saving-throw=\"reflex\" data-pf2-dc=\"14\" data-pf2-traits=\"damaging-effect\" data-pf2-label=\"Falling Debris DC\" data-pf2-show-dc=\"gm\">Reflex</span> save to reduce the damage. For the creature in the center square, where the trap is triggered, this is a basic save. Creatures in the two adjacent squares take no damage on a success or critical success as they avoid the falling debris entirely, but take full damage on a failed save, and take double damage on a critical failure. Creatures that take damage from the debris are immobilized, trapped under the crushing weight.</p>\n<p>Clearing out a square of debris requires a successful DC 17 Athletics skill check, with the following effects.</p>\n<p><strong>Critical Success</strong> The square is cleared in 1 minute.</p>\n<p><strong>Success</strong> The square is cleared in 5 minutes.</p>\n<p><strong>Failure</strong> The square is cleared in 10 minutes.</p>\n<p><strong>Critical Failure</strong> The ceiling above the square collapses further, dealing an additional [[/r 2d6 #bludgeoning]] to the character digging out the square and any character trapped in that square. This takes 1 minute and no progress is made.</p>"
                },
                "requirements": {
                    "value": ""
                },
                "rules": [],
                "schema": {
                    "lastMigration": null,
                    "version": 0.643
                },
                "slug": null,
                "source": {
                    "value": ""
                },
                "traits": {
                    "custom": "",
                    "rarity": {
                        "value": "common"
                    },
                    "value": []
                },
                "trigger": {
                    "value": ""
                },
                "weapon": {
                    "value": ""
                }
            },
            "effects": [],
            "flags": {},
            "img": "systems/pf2e/icons/actions/Reaction.webp",
            "name": "Falling Debris",
            "sort": 100000,
            "type": "action"
        }
    ],
    "name": "Falling Debris",
    "token": {
        "actorId": "rn6KT8OMYUi0EuCN",
        "actorLink": false,
        "alpha": 1,
        "bar1": {
            "attribute": null
        },
        "bar2": {
            "attribute": null
        },
        "brightLight": 0,
        "brightSight": 0,
        "dimLight": 0,
        "dimSight": 0,
        "displayBars": 20,
        "displayName": 20,
        "disposition": 0,
        "flags": {},
        "height": 1,
        "img": "systems/pf2e/icons/default-icons/hazard.svg",
        "lightAlpha": 1,
        "lightAngle": 0,
        "lightAnimation": {
            "intensity": 5,
            "speed": 5
        },
        "lockRotation": false,
        "mirrorX": false,
        "mirrorY": false,
        "name": "Falling Debris",
        "randomImg": false,
        "rotation": 0,
        "scale": 1,
        "sightAngle": 0,
        "tint": null,
        "vision": false,
        "width": 1
    },
    "type": "hazard"
}
