{
    "_id": "hbvxQn0T0m4WoAmZ",
    "data": {
        "abilities": {
            "cha": {
                "mod": 6,
                "value": 10
            },
            "con": {
                "mod": 3,
                "value": 10
            },
            "dex": {
                "mod": 5,
                "value": 10
            },
            "int": {
                "mod": -2,
                "value": 10
            },
            "str": {
                "mod": 3,
                "value": 10
            },
            "wis": {
                "mod": 1,
                "value": 10
            }
        },
        "attributes": {
            "ac": {
                "base": 21,
                "check": 0,
                "details": "",
                "dex": 0,
                "value": 10
            },
            "allSaves": {
                "value": ""
            },
            "hp": {
                "details": "",
                "max": 95,
                "temp": 0,
                "value": 95
            },
            "initiative": {
                "ability": "perception"
            },
            "perception": {
                "ability": "wis",
                "value": 12
            },
            "shield": {
                "ac": 0,
                "brokenThreshold": 0,
                "hardness": 0,
                "max": 0,
                "value": 0
            },
            "speed": {
                "otherSpeeds": [
                    {
                        "label": "Fly",
                        "type": "fly",
                        "value": "40"
                    }
                ],
                "value": "10"
            }
        },
        "details": {
            "alignment": {
                "value": "NE"
            },
            "creatureType": "",
            "flavorText": "<p>Karinas-also known as plague birds-are large owl-like creatures with dark red feathers, powerful talons, and unsettling eyes. Their broad wings conceal a pair of wiry humanoid arms that end in clawed fingers, which they use to dig through burial sites in search of corpses. The fell purpose of this is still a mystery, though most believe that karinas make off with these dead bodies to consume them in the safety of their lairs. The difficulty of tracking the beasts, as well as the danger, makes it difficult to know for sure.</p>\n<p>A karina's terrifying appearance suggests that they're not natural creatures. Many legends claim that karinas first flew out of Abaddon to the Material Plane to consume the corpses of the first mortals, while others state that the first karina was born from the soul of the first mortal who partook in cannibalism. The power of good repulses karinas, suggesting an evil or fiendish origin.</p>\n<p>Karinas are plague carriers and intentionally attack creatures to spread their own personal pestilence. The supernatural disease they carry, known as grave blight, causes fever, disorientation, and (at later stages) an innate desire to attack others and spread the disease. Karinas revel in the slow collapse of villages, lurking in the surrounding jungle to observe every miserable moment. As the locals bury their dead, the karinas swoop in to steal the corpses.</p>\n<p>In addition to carrying a terrible disease, karinas also have the ability to mimic voices. They typically repeat phrases they've heard, but twist the voice into a fiendish corruption of the original. Intelligent enough to recognize the friends and family of a possible target, a karina will use the mocking voice of a loved one to frighten them. When terrorizing a village, they generally work together in groups of two or three.</p>",
            "level": {
                "value": 5
            },
            "recallKnowledgeText": "",
            "source": {
                "value": ""
            }
        },
        "saves": {
            "fortitude": {
                "ability": "con",
                "saveDetail": "",
                "value": 12
            },
            "reflex": {
                "ability": "dex",
                "saveDetail": "",
                "value": 15
            },
            "will": {
                "ability": "wis",
                "saveDetail": "",
                "value": 10
            }
        },
        "schema": {
            "lastMigration": null,
            "version": 0.643
        },
        "traits": {
            "ci": [],
            "di": {
                "custom": "",
                "value": []
            },
            "dr": [],
            "dv": [
                {
                    "label": "Good",
                    "type": "good",
                    "value": "5"
                }
            ],
            "languages": {
                "custom": "Can't Speak Any Language",
                "selected": [],
                "value": [
                    "mwangi",
                    "custom"
                ]
            },
            "rarity": {
                "value": "common"
            },
            "senses": {
                "value": "darkvision"
            },
            "size": {
                "value": "lg"
            },
            "traits": {
                "custom": "",
                "value": [
                    "beast",
                    "fiend"
                ]
            }
        }
    },
    "effects": [],
    "flags": {},
    "img": "systems/pf2e/icons/default-icons/npc.svg",
    "items": [
        {
            "_id": "NWjkzN3dNcZGRrg7",
            "data": {
                "attack": {
                    "value": ""
                },
                "attackEffects": {
                    "custom": "",
                    "value": [
                        "grave-blight"
                    ]
                },
                "bonus": {
                    "value": 15
                },
                "damageRolls": {
                    "ug5b59xbsjgfr5axayxx": {
                        "damage": "2d8+7",
                        "damageType": "piercing"
                    }
                },
                "description": {
                    "value": ""
                },
                "rules": [],
                "schema": {
                    "lastMigration": null,
                    "version": 0.643
                },
                "slug": null,
                "source": {
                    "value": ""
                },
                "traits": {
                    "custom": "",
                    "rarity": {
                        "value": "common"
                    },
                    "value": [
                        "magical",
                        "reach-10"
                    ]
                },
                "weaponType": {
                    "value": "melee"
                }
            },
            "effects": [],
            "flags": {},
            "img": "systems/pf2e/icons/default-icons/melee.svg",
            "name": "Beak",
            "sort": 100000,
            "type": "melee"
        },
        {
            "_id": "0lzu6bfck0YarxR5",
            "data": {
                "attack": {
                    "value": ""
                },
                "attackEffects": {
                    "custom": "",
                    "value": [
                        "grave-blight"
                    ]
                },
                "bonus": {
                    "value": 13
                },
                "damageRolls": {
                    "nvsz4kyopbk0s2933sow": {
                        "damage": "2d6+5",
                        "damageType": "slashing"
                    }
                },
                "description": {
                    "value": ""
                },
                "rules": [],
                "schema": {
                    "lastMigration": null,
                    "version": 0.643
                },
                "slug": null,
                "source": {
                    "value": ""
                },
                "traits": {
                    "custom": "",
                    "rarity": {
                        "value": "common"
                    },
                    "value": [
                        "agile",
                        "magical"
                    ]
                },
                "weaponType": {
                    "value": "melee"
                }
            },
            "effects": [],
            "flags": {},
            "img": "systems/pf2e/icons/default-icons/melee.svg",
            "name": "Claws",
            "sort": 200000,
            "type": "melee"
        },
        {
            "_id": "tOyviMr7BziJqKBH",
            "data": {
                "attack": {
                    "value": ""
                },
                "attackEffects": {
                    "custom": "",
                    "value": [
                        "grab"
                    ]
                },
                "bonus": {
                    "value": 15
                },
                "damageRolls": {
                    "5dipoab3mpfm4fneuv6k": {
                        "damage": "1d10+5",
                        "damageType": "piercing"
                    }
                },
                "description": {
                    "value": ""
                },
                "rules": [],
                "schema": {
                    "lastMigration": null,
                    "version": 0.643
                },
                "slug": null,
                "source": {
                    "value": ""
                },
                "traits": {
                    "custom": "",
                    "rarity": {
                        "value": "common"
                    },
                    "value": [
                        "magical"
                    ]
                },
                "weaponType": {
                    "value": "melee"
                }
            },
            "effects": [],
            "flags": {},
            "img": "systems/pf2e/icons/default-icons/melee.svg",
            "name": "Talons",
            "sort": 300000,
            "type": "melee"
        },
        {
            "_id": "xrTsXVD8ANr8DS7x",
            "data": {
                "actionCategory": {
                    "value": "interaction"
                },
                "actionType": {
                    "value": "passive"
                },
                "actions": {
                    "value": ""
                },
                "description": {
                    "chat": "",
                    "unidentified": "",
                    "value": "<p>A monster with darkvision can see perfectly well in areas of darkness and dim light, though such vision is in black and white only. Some forms of magical darkness, such as a 4th-level @Compendium[pf2e.spells-srd.Darkness]{Darkness} spell, block normal darkvision. A monster with @Compendium[pf2e.bestiary-ability-glossary-srd.Greater Darkvision]{Greater Darkvision}, however, can see through even these forms of magical darkness.</p>"
                },
                "requirements": {
                    "value": ""
                },
                "rules": [],
                "schema": {
                    "lastMigration": null,
                    "version": 0.643
                },
                "slug": "darkvision",
                "source": {
                    "value": ""
                },
                "traits": {
                    "custom": "",
                    "rarity": {
                        "value": "common"
                    },
                    "value": []
                },
                "trigger": {
                    "value": ""
                },
                "weapon": {
                    "value": ""
                }
            },
            "effects": [],
            "flags": {
                "core": {
                    "sourceId": "Compendium.pf2e.bestiary-ability-glossary-srd.qCCLZhnp2HhP3Ex6"
                }
            },
            "img": "systems/pf2e/icons/default-icons/action.svg",
            "name": "Darkvision",
            "sort": 400000,
            "type": "action"
        },
        {
            "_id": "GYJ6GHWDxvwvbLki",
            "data": {
                "actionCategory": {
                    "value": "interaction"
                },
                "actionType": {
                    "value": "passive"
                },
                "actions": {
                    "value": ""
                },
                "description": {
                    "value": "<p>A karina who succeeds at a Deception check to Lie can mimic any voice they have heard. They have a +4 circumstance bonus to this check.</p>"
                },
                "requirements": {
                    "value": ""
                },
                "rules": [
                    {
                        "key": "PF2E.RuleElement.FlatModifier",
                        "predicate": {
                            "all": [
                                "action:lie"
                            ]
                        },
                        "selector": "deception",
                        "type": "circumstance",
                        "value": 4
                    }
                ],
                "schema": {
                    "lastMigration": null,
                    "version": 0.643
                },
                "slug": null,
                "source": {
                    "value": ""
                },
                "traits": {
                    "custom": "",
                    "rarity": {
                        "value": "common"
                    },
                    "value": []
                },
                "trigger": {
                    "value": ""
                },
                "weapon": {
                    "value": ""
                }
            },
            "effects": [],
            "flags": {},
            "img": "systems/pf2e/icons/actions/Passive.webp",
            "name": "Sound Imitation",
            "sort": 500000,
            "type": "action"
        },
        {
            "_id": "H1PGojvxkIsvrHqR",
            "data": {
                "actionCategory": {
                    "value": "offensive"
                },
                "actionType": {
                    "value": "passive"
                },
                "actions": {
                    "value": ""
                },
                "description": {
                    "value": "<p><strong>Saving Throw</strong> <span data-pf2-saving-throw=\"fortitude\" data-pf2-traits=\"disease\" data-pf2-label=\"Grave Blight DC\" data-pf2-dc=\"19\" data-pf2-show-dc=\"gm\">Fortitude</span>;</p>\n<div data-visibility=\"gm\">\n<p><strong>Stage 1</strong> carrier with no ill effect (1 day);</p>\n<p><strong>Stage 2</strong> [[/r 1d6 #poison]] poison damage, @Compendium[pf2e.conditionitems.Sickened]{Sickened 1} (1 day);</p>\n<p><strong>Stage 3</strong> [[/r 1d8 #poison]] poison damage, every hour the victim must succeed at another Fortitude save or be @Compendium[pf2e.conditionitems.Confused]{Confused} for 1 minute, @Compendium[pf2e.conditionitems.Sickened]{Sickened 2} (1 day)</p>\n</div>"
                },
                "requirements": {
                    "value": ""
                },
                "rules": [],
                "schema": {
                    "lastMigration": null,
                    "version": 0.643
                },
                "slug": null,
                "source": {
                    "value": ""
                },
                "traits": {
                    "custom": "",
                    "rarity": {
                        "value": "common"
                    },
                    "value": [
                        "disease"
                    ]
                },
                "trigger": {
                    "value": ""
                },
                "weapon": {
                    "value": ""
                }
            },
            "effects": [],
            "flags": {},
            "img": "systems/pf2e/icons/actions/Passive.webp",
            "name": "Grave Blight",
            "sort": 600000,
            "type": "action"
        },
        {
            "_id": "efUGr9NzEDDkHLgh",
            "data": {
                "actionCategory": {
                    "value": "offensive"
                },
                "actionType": {
                    "value": "action"
                },
                "actions": {
                    "value": "1"
                },
                "description": {
                    "value": "<p>The Karina mimics a voice and mocks a creature within 30 feet. They attempt a Deception check to Demoralize the creature.</p>\n<p>Regardless of whether the check succeeds, the target creature is temporarily immune to the Karina's Mocking Cry for 1 hour.</p>"
                },
                "requirements": {
                    "value": ""
                },
                "rules": [],
                "schema": {
                    "lastMigration": null,
                    "version": 0.643
                },
                "slug": null,
                "source": {
                    "value": ""
                },
                "traits": {
                    "custom": "",
                    "rarity": {
                        "value": "common"
                    },
                    "value": [
                        "auditory"
                    ]
                },
                "trigger": {
                    "value": ""
                },
                "weapon": {
                    "value": ""
                }
            },
            "effects": [],
            "flags": {},
            "img": "systems/pf2e/icons/actions/OneAction.webp",
            "name": "Mocking Cry",
            "sort": 700000,
            "type": "action"
        },
        {
            "_id": "SUcSXRslpjPkGsMT",
            "data": {
                "actionCategory": {
                    "value": "offensive"
                },
                "actionType": {
                    "value": "action"
                },
                "actions": {
                    "value": "1"
                },
                "description": {
                    "chat": "",
                    "unidentified": "",
                    "value": "<p><strong>Requirements</strong> The monster's last action was a success with a Strike that lists Grab in its damage entry, or it has a creature grabbed using this action.</p>\n<p><strong>Effect</strong> The monster automatically Grabs the target until the end of the monster's next turn. The creature is @Compendium[pf2e.conditionitems.Grabbed]{Grabbed} by whichever body part the monster attacked with, and that body part can't be used to Strike creatures until the grab is ended. Using Grab extends the duration of the monster's Grab until the end of its next turn for all creatures grabbed by it. A grabbed creature can use the @Compendium[pf2e.actionspf2e.Escape]{Escape} action to get out of the grab, and the Grab ends for a grabbed creatures if the monster moves away from it.</p>"
                },
                "requirements": {
                    "value": ""
                },
                "rules": [],
                "schema": {
                    "lastMigration": null,
                    "version": 0.643
                },
                "slug": "grab",
                "source": {
                    "value": ""
                },
                "traits": {
                    "custom": "",
                    "rarity": {
                        "value": "common"
                    },
                    "value": []
                },
                "trigger": {
                    "value": ""
                },
                "weapon": {
                    "value": ""
                }
            },
            "effects": [],
            "flags": {
                "core": {
                    "sourceId": "Compendium.pf2e.bestiary-ability-glossary-srd.Tkd8sH4pwFIPzqTr"
                }
            },
            "img": "systems/pf2e/icons/actions/OneAction.webp",
            "name": "Grab",
            "sort": 800000,
            "type": "action"
        },
        {
            "_id": "2UfxLBiduVhWxRxa",
            "data": {
                "description": {
                    "value": ""
                },
                "mod": {
                    "value": 13
                },
                "proficient": {
                    "value": 0
                },
                "rules": [],
                "schema": {
                    "lastMigration": null,
                    "version": 0.643
                },
                "slug": null,
                "source": {
                    "value": ""
                },
                "traits": {
                    "custom": "",
                    "rarity": {
                        "value": "common"
                    },
                    "value": []
                }
            },
            "effects": [],
            "flags": {},
            "img": "systems/pf2e/icons/default-icons/lore.svg",
            "name": "Acrobatics",
            "sort": 900000,
            "type": "lore"
        },
        {
            "_id": "tKWOBk2I9mVqgmv1",
            "data": {
                "description": {
                    "value": ""
                },
                "mod": {
                    "value": 12
                },
                "proficient": {
                    "value": 0
                },
                "rules": [],
                "schema": {
                    "lastMigration": null,
                    "version": 0.643
                },
                "slug": null,
                "source": {
                    "value": ""
                },
                "traits": {
                    "custom": "",
                    "rarity": {
                        "value": "common"
                    },
                    "value": []
                }
            },
            "effects": [],
            "flags": {},
            "img": "systems/pf2e/icons/default-icons/lore.svg",
            "name": "Athletics",
            "sort": 1000000,
            "type": "lore"
        },
        {
            "_id": "keB77FJ4WhSl3H49",
            "data": {
                "description": {
                    "value": ""
                },
                "mod": {
                    "value": 12
                },
                "proficient": {
                    "value": 0
                },
                "rules": [],
                "schema": {
                    "lastMigration": null,
                    "version": 0.643
                },
                "slug": null,
                "source": {
                    "value": ""
                },
                "traits": {
                    "custom": "",
                    "rarity": {
                        "value": "common"
                    },
                    "value": []
                }
            },
            "effects": [],
            "flags": {},
            "img": "systems/pf2e/icons/default-icons/lore.svg",
            "name": "Deception",
            "sort": 1100000,
            "type": "lore"
        },
        {
            "_id": "15h0UbzT6wU8NMDY",
            "data": {
                "description": {
                    "value": ""
                },
                "mod": {
                    "value": 15
                },
                "proficient": {
                    "value": 0
                },
                "rules": [],
                "schema": {
                    "lastMigration": null,
                    "version": 0.643
                },
                "slug": null,
                "source": {
                    "value": ""
                },
                "traits": {
                    "custom": "",
                    "rarity": {
                        "value": "common"
                    },
                    "value": []
                }
            },
            "effects": [],
            "flags": {},
            "img": "systems/pf2e/icons/default-icons/lore.svg",
            "name": "Stealth",
            "sort": 1200000,
            "type": "lore"
        }
    ],
    "name": "Karina",
    "token": {
        "actorLink": false,
        "alpha": 1,
        "bar1": {
            "attribute": "attributes.hp"
        },
        "bar2": {
            "attribute": ""
        },
        "brightLight": 0,
        "brightSight": 0,
        "dimLight": 0,
        "dimSight": 0,
        "displayBars": 20,
        "displayName": 20,
        "disposition": -1,
        "elevation": null,
        "flags": {},
        "height": 2,
        "img": "systems/pf2e/icons/default-icons/npc.svg",
        "lightAlpha": 0.25,
        "lightAngle": 0,
        "lightAnimation": {
            "intensity": 5,
            "speed": 5
        },
        "lightColor": null,
        "lockRotation": false,
        "mirrorX": false,
        "mirrorY": false,
        "name": "Karina",
        "randomImg": false,
        "rotation": 0,
        "scale": 1,
        "sightAngle": 0,
        "tint": null,
        "vision": false,
        "width": 2,
        "x": null,
        "y": null
    },
    "type": "npc"
}
