{
    "_id": "RmcCPvmrAeSTx3BR",
    "data": {
        "abilities": {
            "cha": {
                "min": 3,
                "mod": 2,
                "value": 10
            },
            "con": {
                "min": 3,
                "mod": 2,
                "value": 10
            },
            "dex": {
                "min": 3,
                "mod": 2,
                "value": 10
            },
            "int": {
                "min": 3,
                "mod": 0,
                "value": 10
            },
            "str": {
                "min": 3,
                "mod": "+4",
                "value": 10
            },
            "wis": {
                "min": 3,
                "mod": 2,
                "value": 10
            }
        },
        "attributes": {
            "ac": {
                "check": 0,
                "details": "",
                "dex": 0,
                "item": 0,
                "min": 0,
                "value": 23
            },
            "allSaves": {
                "value": ""
            },
            "bonusEncumbranceBulk": 0,
            "bonusLimitBulk": 0,
            "flatbonushp": 0,
            "flatbonussp": 0,
            "hp": {
                "details": "",
                "max": 99,
                "min": 0,
                "temp": 0,
                "tempmax": 0,
                "value": 99
            },
            "init": {
                "bonus": 0,
                "value": 0
            },
            "initiative": {
                "ability": "",
                "circumstance": 0,
                "status": 0
            },
            "levelbonushp": 0,
            "levelbonussp": 0,
            "perception": {
                "ability": "wis",
                "item": 0,
                "rank": 0,
                "value": 13
            },
            "resolve": {
                "value": 0
            },
            "shield": {
                "ac": 0,
                "brokenThreshold": 0,
                "hardness": 0,
                "max": 0,
                "min": 0,
                "value": 0
            },
            "sp": {
                "details": "",
                "max": 0,
                "min": 0,
                "value": 0
            },
            "speed": {
                "otherSpeeds": [],
                "special": "",
                "value": "30"
            }
        },
        "details": {
            "alignment": {
                "value": "NG"
            },
            "ancestry": {
                "value": ""
            },
            "biography": {
                "public": "",
                "value": ""
            },
            "class": {
                "value": ""
            },
            "creatureType": "",
            "deity": {
                "image": "systems/pf2e/assets/sheet/deity.webp",
                "value": ""
            },
            "flavourText": "",
            "heritage": {
                "value": ""
            },
            "keyability": {
                "value": "str"
            },
            "level": {
                "min": 1,
                "value": 6
            },
            "recallKnowledgeText": "",
            "source": {
                "value": "Pathfinder Society: Season 2"
            }
        },
        "saves": {
            "fortitude": {
                "ability": "con",
                "item": 0,
                "rank": 0,
                "saveDetail": "",
                "value": 16
            },
            "reflex": {
                "ability": "dex",
                "item": 0,
                "rank": 0,
                "saveDetail": "",
                "value": 14
            },
            "will": {
                "ability": "wis",
                "item": 0,
                "rank": 0,
                "saveDetail": "",
                "value": 12
            }
        },
        "schema": {
            "lastMigration": null,
            "version": 0.643
        },
        "traits": {
            "attitude": {
                "value": "hostile"
            },
            "ci": [],
            "di": {
                "custom": "",
                "value": []
            },
            "dr": [],
            "dv": [],
            "languages": {
                "custom": "",
                "selected": [],
                "value": [
                    "common",
                    "orcish"
                ]
            },
            "rarity": {
                "value": "uncommon"
            },
            "senses": {
                "value": "darkvision"
            },
            "size": {
                "value": "med"
            },
            "traits": {
                "custom": "",
                "value": [
                    "humanoid",
                    "orc"
                ]
            }
        }
    },
    "effects": [],
    "flags": {},
    "img": "systems/pf2e/icons/default-icons/npc.svg",
    "items": [
        {
            "_id": "JFJN7u66y8eHV87P",
            "data": {
                "MAP": {
                    "value": ""
                },
                "ability": {
                    "value": "str"
                },
                "baseItem": "scimitar",
                "bonus": {
                    "value": 0
                },
                "bonusDamage": {
                    "value": 0
                },
                "brokenThreshold": {
                    "value": 0
                },
                "bulkCapacity": {
                    "value": ""
                },
                "collapsed": {
                    "value": false
                },
                "containerId": {
                    "value": ""
                },
                "damage": {
                    "damageType": "slashing",
                    "dice": 1,
                    "die": "d6",
                    "value": ""
                },
                "description": {
                    "chat": "",
                    "unidentified": "",
                    "value": "<p>This one-handed curved blade is sharp on one side.</p>"
                },
                "equipped": {
                    "value": false
                },
                "equippedBulk": {
                    "value": ""
                },
                "group": {
                    "value": "sword"
                },
                "hands": {
                    "value": ""
                },
                "hardness": {
                    "value": 0
                },
                "hp": {
                    "value": 0
                },
                "identification": {
                    "misidentified": {},
                    "status": "identified",
                    "unidentified": {
                        "data": {
                            "description": {
                                "value": ""
                            }
                        },
                        "img": "",
                        "name": ""
                    }
                },
                "invested": {
                    "value": false
                },
                "level": {
                    "value": 0
                },
                "maxHp": {
                    "value": 0
                },
                "negateBulk": {
                    "value": "0"
                },
                "potencyRune": {
                    "value": 1
                },
                "preciousMaterial": {
                    "value": ""
                },
                "preciousMaterialGrade": {
                    "value": ""
                },
                "price": {
                    "value": "1 gp"
                },
                "property1": {
                    "critDamage": "",
                    "critDamageType": "",
                    "critDice": null,
                    "critDie": "",
                    "criticalConditionType": "",
                    "criticalConditionValue": null,
                    "damageType": "",
                    "dice": null,
                    "die": "",
                    "strikeConditionType": "",
                    "strikeConditionValue": null,
                    "value": ""
                },
                "propertyRune1": {
                    "value": ""
                },
                "propertyRune2": {
                    "value": ""
                },
                "propertyRune3": {
                    "value": ""
                },
                "propertyRune4": {
                    "value": ""
                },
                "quantity": {
                    "value": 1
                },
                "range": {
                    "value": "melee"
                },
                "reload": {
                    "value": ""
                },
                "rules": [],
                "schema": {
                    "lastMigration": null,
                    "version": 0.643
                },
                "size": {
                    "value": "med"
                },
                "slug": "scimitar",
                "source": {
                    "value": ""
                },
                "splashDamage": {
                    "value": 0
                },
                "stackGroup": {
                    "value": ""
                },
                "strikingRune": {
                    "value": ""
                },
                "traits": {
                    "custom": "",
                    "rarity": {
                        "value": "common"
                    },
                    "value": [
                        "forceful",
                        "sweep"
                    ]
                },
                "usage": {
                    "value": "held-in-one-hand"
                },
                "weaponType": {
                    "value": "martial"
                },
                "weight": {
                    "value": "1"
                }
            },
            "effects": [],
            "flags": {
                "core": {
                    "sourceId": "Compendium.pf2e.equipment-srd.grmaV4GdoGD7sKbn"
                }
            },
            "img": "systems/pf2e/icons/equipment/weapons/scimitar.webp",
            "name": "+1 Scimitar",
            "sort": 100000,
            "type": "weapon"
        },
        {
            "_id": "yT4QE9xgjheZsfv0",
            "data": {
                "MAP": {
                    "value": ""
                },
                "ability": {
                    "value": "dex"
                },
                "baseItem": "javelin",
                "bonus": {
                    "value": 0
                },
                "bonusDamage": {
                    "value": 0
                },
                "brokenThreshold": {
                    "value": 0
                },
                "bulkCapacity": {
                    "value": ""
                },
                "collapsed": {
                    "value": false
                },
                "containerId": {
                    "value": ""
                },
                "damage": {
                    "damageType": "piercing",
                    "dice": 1,
                    "die": "d6",
                    "value": ""
                },
                "description": {
                    "chat": "",
                    "unidentified": "",
                    "value": "<p>This thin spear is well balanced for throwing but is not designed for melee use.</p>"
                },
                "equipped": {
                    "value": false
                },
                "equippedBulk": {
                    "value": ""
                },
                "group": {
                    "value": "dart"
                },
                "hands": {
                    "value": ""
                },
                "hardness": {
                    "value": 0
                },
                "hp": {
                    "value": 0
                },
                "identification": {
                    "misidentified": {},
                    "status": "identified",
                    "unidentified": {
                        "data": {
                            "description": {
                                "value": ""
                            }
                        },
                        "img": "",
                        "name": ""
                    }
                },
                "invested": {
                    "value": false
                },
                "level": {
                    "value": 0
                },
                "maxHp": {
                    "value": 0
                },
                "negateBulk": {
                    "value": "0"
                },
                "potencyRune": {
                    "value": null
                },
                "preciousMaterial": {
                    "value": ""
                },
                "preciousMaterialGrade": {
                    "value": ""
                },
                "price": {
                    "value": "1 sp"
                },
                "property1": {
                    "critDamage": "",
                    "critDamageType": "",
                    "critDice": null,
                    "critDie": "",
                    "criticalConditionType": "",
                    "criticalConditionValue": null,
                    "damageType": "",
                    "dice": null,
                    "die": "",
                    "strikeConditionType": "",
                    "strikeConditionValue": null,
                    "value": ""
                },
                "propertyRune1": {
                    "value": ""
                },
                "propertyRune2": {
                    "value": ""
                },
                "propertyRune3": {
                    "value": ""
                },
                "propertyRune4": {
                    "value": ""
                },
                "quantity": {
                    "value": 3
                },
                "range": {
                    "value": "30"
                },
                "reload": {
                    "value": ""
                },
                "rules": [],
                "schema": {
                    "lastMigration": null,
                    "version": 0.643
                },
                "size": {
                    "value": "med"
                },
                "slug": "javelin",
                "source": {
                    "value": ""
                },
                "splashDamage": {
                    "value": 0
                },
                "stackGroup": {
                    "value": ""
                },
                "strikingRune": {
                    "value": ""
                },
                "traits": {
                    "custom": "",
                    "rarity": {
                        "value": "common"
                    },
                    "value": [
                        "thrown-30"
                    ]
                },
                "usage": {
                    "value": "held-in-one-hand"
                },
                "weaponType": {
                    "value": "simple"
                },
                "weight": {
                    "value": "L"
                }
            },
            "effects": [],
            "flags": {
                "core": {
                    "sourceId": "Compendium.pf2e.equipment-srd.JNt7GmLCCVz5BiEI"
                }
            },
            "img": "systems/pf2e/icons/equipment/weapons/javelin.webp",
            "name": "Javelin",
            "sort": 200000,
            "type": "weapon"
        },
        {
            "_id": "FnpQmXPfVboaZA2D",
            "data": {
                "armor": {
                    "value": 3
                },
                "armorType": {
                    "value": "medium"
                },
                "baseItem": "hide-armor",
                "brokenThreshold": {
                    "value": null
                },
                "bulkCapacity": {
                    "value": ""
                },
                "check": {
                    "value": -2
                },
                "collapsed": {
                    "value": false
                },
                "containerId": {
                    "value": ""
                },
                "description": {
                    "chat": "",
                    "unidentified": "",
                    "value": "<p>A mix of furs, sturdy hide, and sometimes molded boiled leather, this armor provides protection due to its layers of leather, though its bulkiness slows the wearer down and decreases mobility.</p>"
                },
                "dex": {
                    "value": 2
                },
                "equipped": {
                    "value": true
                },
                "equippedBulk": {
                    "value": "2"
                },
                "group": {
                    "value": "leather"
                },
                "hardness": {
                    "value": null
                },
                "hp": {
                    "value": null
                },
                "identification": {
                    "misidentified": {},
                    "status": "identified",
                    "unidentified": {
                        "data": {
                            "description": {
                                "value": ""
                            }
                        },
                        "img": "",
                        "name": ""
                    }
                },
                "invested": {
                    "value": false
                },
                "level": {
                    "value": 0
                },
                "maxHp": {
                    "value": null
                },
                "negateBulk": {
                    "value": "0"
                },
                "potency": {},
                "potencyRune": {
                    "value": null
                },
                "preciousMaterial": {
                    "value": ""
                },
                "preciousMaterialGrade": {
                    "value": ""
                },
                "price": {
                    "value": "2 gp"
                },
                "propertyRune1": {
                    "value": ""
                },
                "propertyRune2": {
                    "value": ""
                },
                "propertyRune3": {
                    "value": ""
                },
                "propertyRune4": {
                    "value": ""
                },
                "quantity": {
                    "value": 1
                },
                "resiliencyRune": {
                    "value": ""
                },
                "resilient": {},
                "rules": [
                    {
                        "key": "PF2E.RuleElement.FlatModifier",
                        "predicate": {
                            "not": [
                                "unburdened-iron"
                            ]
                        },
                        "roll-options": [
                            "all"
                        ],
                        "selector": "speed",
                        "type": "untyped",
                        "value": {
                            "brackets": [
                                {
                                    "end": 13,
                                    "value": -5
                                }
                            ],
                            "field": "actor|data.abilities.str.value"
                        }
                    }
                ],
                "schema": {
                    "lastMigration": null,
                    "version": 0.643
                },
                "size": {
                    "value": "med"
                },
                "slug": "hide-armor",
                "source": {
                    "value": ""
                },
                "speed": {
                    "value": -5
                },
                "stackGroup": {
                    "value": ""
                },
                "strength": {
                    "value": 14
                },
                "traits": {
                    "custom": "",
                    "rarity": {
                        "value": "common"
                    },
                    "value": []
                },
                "usage": {
                    "value": "wornarmor"
                },
                "weight": {
                    "value": "3"
                }
            },
            "effects": [],
            "flags": {
                "core": {
                    "sourceId": "Compendium.pf2e.equipment-srd.AnwzlOs0njF9Jqnr"
                }
            },
            "img": "systems/pf2e/icons/equipment/armor/hide.webp",
            "name": "Hide",
            "sort": 300000,
            "type": "armor"
        },
        {
            "_id": "6X8R0dJaQTHsl6Rr",
            "data": {
                "attack": {
                    "value": ""
                },
                "attackEffects": {
                    "value": []
                },
                "bonus": {
                    "value": 15
                },
                "damageRolls": {
                    "bublbng2ak9atu2lbyo8gn": {
                        "damage": "1d6+15",
                        "damageType": "slashing"
                    }
                },
                "description": {
                    "value": ""
                },
                "rules": [],
                "schema": {
                    "lastMigration": null,
                    "version": 0.643
                },
                "slug": null,
                "source": {
                    "value": ""
                },
                "traits": {
                    "custom": "",
                    "rarity": {
                        "value": "common"
                    },
                    "value": [
                        "forceful",
                        "sweep"
                    ]
                },
                "weaponType": {
                    "value": "melee"
                }
            },
            "effects": [],
            "flags": {},
            "img": "systems/pf2e/icons/default-icons/mystery-man.svg",
            "name": "Scimitar",
            "sort": 400000,
            "type": "melee"
        },
        {
            "_id": "vdo9yyrfdLCEeHEG",
            "data": {
                "attack": {
                    "value": ""
                },
                "attackEffects": {
                    "value": []
                },
                "bonus": {
                    "value": 13
                },
                "damageRolls": {
                    "z8udvsl8yznn53wzrxn3j9": {
                        "damage": "1d6+12",
                        "damageType": "piercing"
                    }
                },
                "description": {
                    "value": ""
                },
                "rules": [],
                "schema": {
                    "lastMigration": null,
                    "version": 0.643
                },
                "slug": null,
                "source": {
                    "value": ""
                },
                "traits": {
                    "custom": "",
                    "rarity": {
                        "value": "common"
                    },
                    "value": [
                        "thrown-30"
                    ]
                },
                "weaponType": {
                    "value": "ranged"
                }
            },
            "effects": [],
            "flags": {},
            "img": "systems/pf2e/icons/default-icons/mystery-man.svg",
            "name": "Javelin",
            "sort": 500000,
            "type": "melee"
        },
        {
            "_id": "K35hUq8yf1s3LCWz",
            "data": {
                "actionCategory": {
                    "value": "interaction"
                },
                "actionType": {
                    "value": "passive"
                },
                "actions": {
                    "value": ""
                },
                "description": {
                    "chat": "",
                    "unidentified": "",
                    "value": "<p>A monster with darkvision can see perfectly well in areas of darkness and dim light, though such vision is in black and white only. Some forms of magical darkness, such as a 4th-level @Compendium[pf2e.spells-srd.Darkness]{Darkness} spell, block normal darkvision. A monster with @Compendium[pf2e.bestiary-ability-glossary-srd.Greater Darkvision]{Greater Darkvision}, however, can see through even these forms of magical darkness.</p>"
                },
                "requirements": {
                    "value": ""
                },
                "rules": [],
                "schema": {
                    "lastMigration": null,
                    "version": 0.643
                },
                "slug": "darkvision",
                "source": {
                    "value": ""
                },
                "traits": {
                    "custom": "",
                    "rarity": {
                        "value": "common"
                    },
                    "value": []
                },
                "trigger": {
                    "value": ""
                },
                "weapon": {
                    "value": ""
                }
            },
            "effects": [],
            "flags": {
                "core": {
                    "sourceId": "Compendium.pf2e.bestiary-ability-glossary-srd.qCCLZhnp2HhP3Ex6"
                }
            },
            "img": "systems/pf2e/icons/default-icons/mystery-man.svg",
            "name": "Darkvision",
            "sort": 600000,
            "type": "action"
        },
        {
            "_id": "Jv6WFKrYBHEV5Kuh",
            "data": {
                "actionCategory": {
                    "value": "defensive"
                },
                "actionType": {
                    "value": "reaction"
                },
                "actions": {
                    "value": ""
                },
                "description": {
                    "chat": "",
                    "unidentified": "",
                    "value": "<p><strong>Trigger</strong> A creature within the monster's reach uses a manipulate action or a move action, makes a ranged attack, or leaves a square during a move action it's using.</p>\n<p><strong>Effect</strong> The monster attempts a melee Strike against the triggering creature. If the attack is a critical hit and the trigger was a manipulate action, the monster disrupts that action. This Strike doesn't count toward the monster's multiple attack penalty, and its multiple attack penalty doesn't apply to this Strike.</p>"
                },
                "requirements": {
                    "value": ""
                },
                "rules": [],
                "schema": {
                    "lastMigration": null,
                    "version": 0.643
                },
                "slug": "attack-of-opportunity",
                "source": {
                    "value": ""
                },
                "traits": {
                    "custom": "",
                    "rarity": {
                        "value": "common"
                    },
                    "value": []
                },
                "trigger": {
                    "value": ""
                },
                "weapon": {
                    "value": ""
                }
            },
            "effects": [],
            "flags": {
                "core": {
                    "sourceId": "Compendium.pf2e.bestiary-ability-glossary-srd.hFtNbo1LKYCoDy2O"
                }
            },
            "img": "systems/pf2e/icons/actions/Reaction.webp",
            "name": "Attack of Opportunity",
            "sort": 700000,
            "type": "action"
        },
        {
            "_id": "lRYMSkGJorrjsnnB",
            "data": {
                "actionCategory": {
                    "value": "defensive"
                },
                "actionType": {
                    "value": "reaction"
                },
                "actions": {
                    "value": ""
                },
                "description": {
                    "chat": "",
                    "unidentified": "",
                    "value": "<p><strong>Trigger</strong> The monster is reduced to 0 HP.</p>\n<p><strong>Effect</strong> The monster avoids being knocked out and remains at 1 HP, but its @Compendium[pf2e.conditionitems.Wounded]{Wounded} value increases by 1. When it is Wounded 3, it can no longer use this ability</p>"
                },
                "requirements": {
                    "value": ""
                },
                "rules": [],
                "schema": {
                    "lastMigration": null,
                    "version": 0.643
                },
                "slug": "ferocity",
                "source": {
                    "value": ""
                },
                "traits": {
                    "custom": "",
                    "rarity": {
                        "value": "common"
                    },
                    "value": []
                },
                "trigger": {
                    "value": ""
                },
                "weapon": {
                    "value": ""
                }
            },
            "effects": [],
            "flags": {
                "core": {
                    "sourceId": "Compendium.pf2e.bestiary-ability-glossary-srd.N1kstYbHScxgUQtN"
                }
            },
            "img": "systems/pf2e/icons/actions/Reaction.webp",
            "name": "Ferocity",
            "sort": 800000,
            "type": "action"
        },
        {
            "_id": "1Vggl9sagHmaHxT3",
            "data": {
                "description": {
                    "value": ""
                },
                "item": {
                    "value": 0
                },
                "mod": {
                    "value": 13
                },
                "proficient": {
                    "value": 0
                },
                "rules": [],
                "schema": {
                    "lastMigration": null,
                    "version": 0.643
                },
                "slug": null,
                "source": {
                    "value": ""
                },
                "traits": {
                    "custom": "",
                    "rarity": {
                        "value": "common"
                    },
                    "value": []
                }
            },
            "effects": [],
            "flags": {},
            "img": "systems/pf2e/icons/default-icons/lore.svg",
            "name": "Athletics",
            "sort": 900000,
            "type": "lore"
        },
        {
            "_id": "8oIYVUoCavs0qlkY",
            "data": {
                "description": {
                    "value": ""
                },
                "item": {
                    "value": 0
                },
                "mod": {
                    "value": 14
                },
                "proficient": {
                    "value": 0
                },
                "rules": [],
                "schema": {
                    "lastMigration": null,
                    "version": 0.643
                },
                "slug": null,
                "source": {
                    "value": ""
                },
                "traits": {
                    "custom": "",
                    "rarity": {
                        "value": "common"
                    },
                    "value": []
                }
            },
            "effects": [],
            "flags": {},
            "img": "systems/pf2e/icons/default-icons/lore.svg",
            "name": "Intimidation",
            "sort": 1000000,
            "type": "lore"
        },
        {
            "_id": "EY0LPNq8KgNcc7Hw",
            "data": {
                "description": {
                    "value": ""
                },
                "item": {
                    "value": 0
                },
                "mod": {
                    "value": 11
                },
                "proficient": {
                    "value": 0
                },
                "rules": [],
                "schema": {
                    "lastMigration": null,
                    "version": 0.643
                },
                "slug": null,
                "source": {
                    "value": ""
                },
                "traits": {
                    "custom": "",
                    "rarity": {
                        "value": "common"
                    },
                    "value": []
                }
            },
            "effects": [],
            "flags": {},
            "img": "systems/pf2e/icons/default-icons/lore.svg",
            "name": "Survival",
            "sort": 1100000,
            "type": "lore"
        }
    ],
    "name": "Burning Sun Orc (7-8)",
    "token": {
        "actorId": "RmcCPvmrAeSTx3BR",
        "actorLink": false,
        "alpha": 1,
        "bar1": {
            "attribute": null
        },
        "bar2": {
            "attribute": null
        },
        "brightLight": 0,
        "brightSight": 0,
        "dimLight": 0,
        "dimSight": 0,
        "displayBars": 20,
        "displayName": 20,
        "disposition": -1,
        "flags": {
            "perfect-vision": {
                "_version": 1,
                "monoVisionColor": "",
                "sightLimit": null,
                "visionRules": "default"
            }
        },
        "height": 1,
        "img": "systems/pf2e/icons/default-icons/npc.svg",
        "lightAlpha": 1,
        "lightAngle": 0,
        "lightAnimation": {
            "intensity": 5,
            "speed": 5
        },
        "lightColor": null,
        "lockRotation": false,
        "mirrorX": false,
        "mirrorY": false,
        "name": "Burning Sun Orc",
        "randomImg": false,
        "rotation": 0,
        "scale": 1,
        "sightAngle": 0,
        "tint": null,
        "vision": false,
        "width": 1
    },
    "type": "npc"
}
