{
    "_id": "X951Ow3nHOvBFaFg",
    "data": {
        "abilities": {
            "cha": {
                "mod": 1,
                "value": 10
            },
            "con": {
                "mod": 3,
                "value": 10
            },
            "dex": {
                "mod": 3,
                "value": 10
            },
            "int": {
                "mod": -2,
                "value": 10
            },
            "str": {
                "mod": "+1",
                "value": 10
            },
            "wis": {
                "mod": 1,
                "value": 10
            }
        },
        "attributes": {
            "ac": {
                "base": 21,
                "check": 0,
                "details": "",
                "dex": 0,
                "item": 0,
                "min": 0,
                "value": 18
            },
            "allSaves": {
                "value": ""
            },
            "bonusEncumbranceBulk": 0,
            "bonusLimitBulk": 0,
            "flatbonushp": 0,
            "flatbonussp": 0,
            "hp": {
                "details": "fast healing 2",
                "max": 50,
                "temp": 0,
                "value": 50
            },
            "init": {
                "bonus": 0,
                "value": 0
            },
            "initiative": {
                "ability": "",
                "circumstance": 0,
                "status": 0
            },
            "levelbonushp": 0,
            "levelbonussp": 0,
            "perception": {
                "ability": "wis",
                "base": 12,
                "item": 0,
                "rank": 0,
                "value": 8
            },
            "resolve": {
                "value": 0
            },
            "shield": {
                "ac": 0,
                "brokenThreshold": 0,
                "hardness": 0,
                "max": 0,
                "min": 0,
                "value": 0
            },
            "sp": {
                "details": "",
                "max": 0,
                "min": 0,
                "value": 0
            },
            "speed": {
                "otherSpeeds": [
                    {
                        "label": "Fly",
                        "type": "fly",
                        "value": "25"
                    }
                ],
                "value": "20 ft"
            }
        },
        "details": {
            "alignment": {
                "value": "N"
            },
            "ancestry": {
                "value": ""
            },
            "biography": {
                "public": "",
                "value": ""
            },
            "class": {
                "value": ""
            },
            "creatureType": "",
            "deity": {
                "image": "systems/pf2e/assets/sheet/deity.webp",
                "value": ""
            },
            "flavourText": "",
            "heritage": {
                "value": ""
            },
            "keyability": {
                "value": "str"
            },
            "level": {
                "min": 1,
                "value": 5
            },
            "recallKnowledgeText": "",
            "source": {
                "value": "Pathfinder Society: Season 2"
            }
        },
        "saves": {
            "fortitude": {
                "ability": "con",
                "base": 10,
                "item": 0,
                "rank": 0,
                "saveDetail": "",
                "value": 8
            },
            "reflex": {
                "ability": "dex",
                "base": 12,
                "item": 0,
                "rank": 0,
                "saveDetail": "",
                "value": 10
            },
            "will": {
                "ability": "wis",
                "base": 10,
                "item": 0,
                "rank": 0,
                "saveDetail": "",
                "value": 8
            }
        },
        "schema": {
            "lastMigration": null,
            "version": 0.643
        },
        "traits": {
            "ci": [],
            "di": {
                "custom": "",
                "value": [
                    "paralyzed",
                    "bleed",
                    "poison",
                    "precision",
                    "sleep",
                    "swarm-mind"
                ]
            },
            "dr": [
                {
                    "exceptions": "",
                    "label": "Physical",
                    "type": "physical",
                    "value": "5"
                }
            ],
            "dv": [
                {
                    "label": "Area Damage",
                    "type": "area damage",
                    "value": "5"
                },
                {
                    "label": "Splash Damage",
                    "type": "splash damage",
                    "value": "5"
                }
            ],
            "languages": {
                "custom": "(Varies by Mephit)",
                "selected": [],
                "value": [
                    "aquan",
                    "auran",
                    "ignan",
                    "terran",
                    "custom"
                ]
            },
            "rarity": {
                "value": "uncommon"
            },
            "senses": {
                "value": "darkvision"
            },
            "size": {
                "value": "lg"
            },
            "traits": {
                "custom": "",
                "value": [
                    "air",
                    "earth",
                    "elemental",
                    "fire",
                    "swarm",
                    "water"
                ]
            }
        }
    },
    "effects": [],
    "flags": {},
    "img": "systems/pf2e/icons/default-icons/npc.svg",
    "items": [
        {
            "_id": "wH8ZwKGnvsAD35M5",
            "data": {
                "actionCategory": {
                    "value": "interaction"
                },
                "actionType": {
                    "value": "passive"
                },
                "actions": {
                    "value": ""
                },
                "description": {
                    "chat": "",
                    "unidentified": "",
                    "value": "<p>A monster with darkvision can see perfectly well in areas of darkness and dim light, though such vision is in black and white only. Some forms of magical darkness, such as a 4th-level @Compendium[pf2e.spells-srd.Darkness]{Darkness} spell, block normal darkvision. A monster with @Compendium[pf2e.bestiary-ability-glossary-srd.Greater Darkvision]{Greater Darkvision}, however, can see through even these forms of magical darkness.</p>"
                },
                "requirements": {
                    "value": ""
                },
                "rules": [],
                "schema": {
                    "lastMigration": null,
                    "version": 0.643
                },
                "slug": "darkvision",
                "source": {
                    "value": ""
                },
                "traits": {
                    "custom": "",
                    "rarity": {
                        "value": "common"
                    },
                    "value": []
                },
                "trigger": {
                    "value": ""
                },
                "weapon": {
                    "value": ""
                }
            },
            "effects": [],
            "flags": {
                "core": {
                    "sourceId": "Compendium.pf2e.bestiary-ability-glossary-srd.qCCLZhnp2HhP3Ex6"
                }
            },
            "img": "systems/pf2e/icons/default-icons/action.svg",
            "name": "Darkvision",
            "sort": 100000,
            "type": "action"
        },
        {
            "_id": "3DJgV9UOaUUkNNOm",
            "data": {
                "actionCategory": {
                    "value": "defensive"
                },
                "actionType": {
                    "value": "passive"
                },
                "actions": {
                    "value": ""
                },
                "description": {
                    "chat": "",
                    "unidentified": "",
                    "value": "<p>A monster with this ability regains the given number of Hit Points each round at the beginning of its turn.</p>"
                },
                "requirements": {
                    "value": ""
                },
                "rules": [],
                "schema": {
                    "lastMigration": null,
                    "version": 0.643
                },
                "slug": "fast-healing",
                "source": {
                    "value": ""
                },
                "traits": {
                    "custom": "",
                    "rarity": {
                        "value": "common"
                    },
                    "value": []
                },
                "trigger": {
                    "value": ""
                },
                "weapon": {
                    "value": ""
                }
            },
            "effects": [],
            "flags": {
                "core": {
                    "sourceId": "Compendium.pf2e.bestiary-ability-glossary-srd.fJSNOw4zHGbIm4bZ"
                }
            },
            "img": "systems/pf2e/icons/actions/Passive.webp",
            "name": "Fast Healing 2",
            "sort": 200000,
            "type": "action"
        },
        {
            "_id": "JtdcV9EPkv8cTFzY",
            "data": {
                "actionCategory": {
                    "value": ""
                },
                "actionType": {
                    "value": "action"
                },
                "actions": {
                    "value": "2"
                },
                "description": {
                    "value": "<p>The mephit swarm breathes energy in a 15-foot cone that deals [[/r 1d10 #acid]] acid damage, [[/r 1d10 #cold]] cold damage, [[/r 1d10 #electric]] electric damage, and [[/r 1d10 #fire]] fire damage to each creature within the area (<span data-pf2-saving-throw=\"reflex\" data-pf2-traits=\"acid,arcane,air,cold,earth,electricity,fire,damaging-effect\" data-pf2-label=\"Breath Weapon DC\" data-pf2-dc=\"22\" data-pf2-show-dc=\"gm\">basic Reflex</span> save).</p>\n<p>The mephit swarm can’t use again for [[/br 1d4 #rounds]] rounds.</p>"
                },
                "requirements": {
                    "value": ""
                },
                "rules": [],
                "schema": {
                    "lastMigration": null,
                    "version": 0.643
                },
                "slug": null,
                "source": {
                    "value": ""
                },
                "traits": {
                    "custom": "",
                    "rarity": {
                        "value": "common"
                    },
                    "value": [
                        "acid",
                        "air",
                        "arcane",
                        "cold",
                        "earth",
                        "electricity",
                        "fire"
                    ]
                },
                "trigger": {
                    "value": ""
                },
                "weapon": {
                    "value": ""
                }
            },
            "effects": [],
            "flags": {},
            "img": "systems/pf2e/icons/actions/TwoActions.webp",
            "name": "Breath Weapon",
            "sort": 300000,
            "type": "action"
        },
        {
            "_id": "rYtJhqdRrOJV1p7g",
            "data": {
                "actionCategory": {
                    "value": ""
                },
                "actionType": {
                    "value": "action"
                },
                "actions": {
                    "value": "1"
                },
                "description": {
                    "value": "<p>Each enemy in the swarm’s space takes [[/r 3d6 #piercing]] piercing damage (<span data-pf2-saving-throw=\"reflex\" data-pf2-traits=\"damaging-effect\" data-pf2-label=\"Swarming Claws DC\" data-pf2-dc=\"22\" data-pf2-show-dc=\"gm\">basic Reflex</span> save).</p>"
                },
                "requirements": {
                    "value": ""
                },
                "rules": [],
                "schema": {
                    "lastMigration": null,
                    "version": 0.643
                },
                "slug": null,
                "source": {
                    "value": ""
                },
                "traits": {
                    "custom": "",
                    "rarity": {
                        "value": "common"
                    },
                    "value": []
                },
                "trigger": {
                    "value": ""
                },
                "weapon": {
                    "value": ""
                }
            },
            "effects": [],
            "flags": {},
            "img": "systems/pf2e/icons/actions/OneAction.webp",
            "name": "Swarming Claws",
            "sort": 400000,
            "type": "action"
        },
        {
            "_id": "pJN3yS0UoP0fhHK3",
            "data": {
                "description": {
                    "value": ""
                },
                "item": {
                    "value": 0
                },
                "mod": {
                    "value": 12
                },
                "proficient": {
                    "value": 0
                },
                "rules": [],
                "schema": {
                    "lastMigration": null,
                    "version": 0.643
                },
                "slug": null,
                "source": {
                    "value": ""
                },
                "traits": {
                    "custom": "",
                    "rarity": {
                        "value": "common"
                    },
                    "value": []
                }
            },
            "effects": [],
            "flags": {},
            "img": "icons/svg/item-bag.svg",
            "name": "Acrobatics",
            "sort": 500000,
            "type": "lore"
        },
        {
            "_id": "COacau7ml2zG05Vp",
            "data": {
                "description": {
                    "value": ""
                },
                "item": {
                    "value": 0
                },
                "mod": {
                    "value": 10
                },
                "proficient": {
                    "value": 0
                },
                "rules": [],
                "schema": {
                    "lastMigration": null,
                    "version": 0.643
                },
                "slug": null,
                "source": {
                    "value": ""
                },
                "traits": {
                    "custom": "",
                    "rarity": {
                        "value": "common"
                    },
                    "value": []
                }
            },
            "effects": [],
            "flags": {},
            "img": "icons/svg/item-bag.svg",
            "name": "Athletics",
            "sort": 600000,
            "type": "lore"
        },
        {
            "_id": "7SgQ1qU05Q7hexK2",
            "data": {
                "description": {
                    "value": ""
                },
                "item": {
                    "value": 0
                },
                "mod": {
                    "value": 10
                },
                "proficient": {
                    "value": 0
                },
                "rules": [],
                "schema": {
                    "lastMigration": null,
                    "version": 0.643
                },
                "slug": null,
                "source": {
                    "value": ""
                },
                "traits": {
                    "custom": "",
                    "rarity": {
                        "value": "common"
                    },
                    "value": []
                }
            },
            "effects": [],
            "flags": {},
            "img": "icons/svg/item-bag.svg",
            "name": "Deception",
            "sort": 700000,
            "type": "lore"
        }
    ],
    "name": "Mephit Swarm (7-8)",
    "token": {
        "actorId": "X951Ow3nHOvBFaFg",
        "actorLink": false,
        "alpha": 1,
        "bar1": {
            "attribute": null
        },
        "bar2": {
            "attribute": null
        },
        "brightLight": 0,
        "brightSight": 0,
        "dimLight": 0,
        "dimSight": 0,
        "displayBars": 20,
        "displayName": 20,
        "disposition": -1,
        "flags": {},
        "height": 2,
        "img": "systems/pf2e/icons/default-icons/npc.svg",
        "lightAlpha": 1,
        "lightAngle": 0,
        "lightAnimation": {
            "intensity": 5,
            "speed": 5
        },
        "lightColor": null,
        "lockRotation": false,
        "mirrorX": false,
        "mirrorY": false,
        "name": "Mephit Swarm",
        "randomImg": false,
        "rotation": 0,
        "scale": 1,
        "sightAngle": 0,
        "tint": null,
        "vision": false,
        "width": 2
    },
    "type": "npc"
}
