{
    "_id": "zdJHl3xMY7n2Lwlf",
    "data": {
        "attributes": {
            "ac": {
                "value": 30
            },
            "hardness": 18,
            "hasHealth": true,
            "hp": {
                "details": "",
                "max": 72,
                "temp": 0,
                "tempmax": 0,
                "value": 72
            },
            "stealth": {
                "details": "Expert; DC 29 to notice the line of cord running from the lathe's trigger toward the door to area A2.",
                "value": 19
            }
        },
        "creatureType": "",
        "details": {
            "description": "The powered lathe's springs have been critically overwound so that when jostled or triggered, the lathe unwinds violently, hurling blades, gears, and sharp shards of metal around the room.",
            "disable": "Thievery DC 31 (expert) on the lathe releases the tension on its springs without unleashing its blades and gears.",
            "isComplex": true,
            "level": {
                "value": 10
            },
            "reset": "",
            "routine": "(4 actions) The lathe attempts four sharpened fragment attacks against creatures in the room, selecting a target randomly from all available targets in area A1. The trap does not take multiple attack penalties for any of its attacks. The trap loses 1 action each turn as its springs wind down, and becomes disabled when it has 0 actions."
        },
        "recallKnowledgeText": "",
        "saves": {
            "fortitude": {
                "rank": 0,
                "saveDetail": "",
                "value": 22
            },
            "reflex": {
                "rank": 0,
                "saveDetail": "",
                "value": 14
            },
            "will": {
                "rank": 0,
                "saveDetail": "",
                "value": null
            }
        },
        "schema": {
            "lastMigration": null,
            "version": 0.643
        },
        "source": {
            "value": ""
        },
        "statusEffects": [],
        "traits": {
            "ci": [],
            "di": {
                "custom": "",
                "selected": {},
                "value": [
                    "critical-hits",
                    "object-immunities",
                    "precision"
                ]
            },
            "dr": [],
            "dv": [],
            "rarity": {
                "value": "common"
            },
            "size": {
                "value": "med"
            },
            "traits": {
                "custom": "",
                "value": [
                    "mechanical"
                ]
            }
        }
    },
    "effects": [],
    "flags": {},
    "img": "systems/pf2e/icons/default-icons/hazard.svg",
    "items": [
        {
            "_id": "Da7jV5DGeFRpV5qb",
            "data": {
                "actionCategory": {
                    "value": ""
                },
                "actionType": {
                    "value": "reaction"
                },
                "actions": {
                    "value": ""
                },
                "description": {
                    "chat": "",
                    "unidentified": "",
                    "value": "<p><strong>Trigger</strong>: The lathe is jostled or damaged, or its trigger is remotely pulled.</p>\n<p><strong>Effect</strong>: The trap makes a sharpened fragment @Compendium[pf2e.actionspf2e.Strike]{Strike} against a random target in area A1, then rolls for initiative.</p>"
                },
                "requirements": {
                    "value": ""
                },
                "rules": [],
                "schema": {
                    "lastMigration": null,
                    "version": 0.643
                },
                "slug": null,
                "source": {
                    "value": ""
                },
                "traits": {
                    "custom": "",
                    "rarity": {
                        "value": "common"
                    },
                    "selected": {},
                    "value": []
                },
                "trigger": {
                    "value": ""
                },
                "weapon": {
                    "value": ""
                }
            },
            "effects": [],
            "flags": {},
            "img": "systems/pf2e/icons/actions/Reaction.webp",
            "name": "Unleash Fragments",
            "sort": 100000,
            "type": "action"
        },
        {
            "_id": "zVCalXk0BtUnOMfM",
            "data": {
                "attack": {
                    "value": ""
                },
                "attackEffects": {
                    "custom": "",
                    "value": [
                        "Persistent Bleed Critical"
                    ]
                },
                "bonus": {
                    "value": 26
                },
                "damageRolls": {
                    "1etp12wxjv4icdxijeeq6": {
                        "damage": "2d6+8",
                        "damageType": "slashing"
                    }
                },
                "description": {
                    "chat": "",
                    "unidentified": "",
                    "value": ""
                },
                "rules": [],
                "schema": {
                    "lastMigration": null,
                    "version": 0.643
                },
                "slug": null,
                "source": {
                    "value": ""
                },
                "traits": {
                    "custom": "",
                    "rarity": {
                        "value": "common"
                    },
                    "selected": {},
                    "value": []
                },
                "weaponType": {
                    "value": "ranged"
                }
            },
            "effects": [],
            "flags": {},
            "img": "systems/pf2e/icons/default-icons/melee.svg",
            "name": "Sharpened Fragment",
            "sort": 200000,
            "type": "melee"
        },
        {
            "_id": "USQ16Z86qZYqJDkV",
            "data": {
                "actionCategory": {
                    "value": ""
                },
                "actionType": {
                    "value": "passive"
                },
                "actions": {
                    "value": ""
                },
                "description": {
                    "chat": "",
                    "unidentified": "",
                    "value": "<p>The sharpened fragments deal [[/r 1d8 #persistent bleed]] persistent bleed damage on a critical hit.</p>"
                },
                "requirements": {
                    "value": ""
                },
                "rules": [],
                "schema": {
                    "lastMigration": null,
                    "version": 0.643
                },
                "slug": null,
                "source": {
                    "value": ""
                },
                "traits": {
                    "custom": "",
                    "rarity": {
                        "value": "common"
                    },
                    "selected": {},
                    "value": []
                },
                "trigger": {
                    "value": ""
                },
                "weapon": {
                    "value": ""
                }
            },
            "effects": [],
            "flags": {},
            "img": "systems/pf2e/icons/default-icons/action.svg",
            "name": "Persistent Bleed Critical",
            "sort": 300000,
            "type": "action"
        }
    ],
    "name": "Trapped Lathe",
    "token": {
        "actorId": "zdJHl3xMY7n2Lwlf",
        "actorLink": false,
        "alpha": 1,
        "bar1": {
            "attribute": null
        },
        "bar2": {
            "attribute": null
        },
        "brightLight": 0,
        "brightSight": 0,
        "dimLight": 0,
        "dimSight": 0,
        "displayBars": 20,
        "displayName": 20,
        "disposition": 0,
        "flags": {},
        "height": 1,
        "img": "systems/pf2e/icons/default-icons/hazard.svg",
        "lightAlpha": 1,
        "lightAngle": 0,
        "lightAnimation": {
            "intensity": 5,
            "speed": 5
        },
        "lockRotation": false,
        "mirrorX": false,
        "mirrorY": false,
        "name": "Trapped Lathe",
        "randomImg": false,
        "rotation": 0,
        "scale": 1,
        "sightAngle": 0,
        "tint": null,
        "vision": false,
        "width": 1
    },
    "type": "hazard"
}
