{
    "_id": "mk6rzaAzsBBRGJnh",
    "data": {
        "actionCategory": {
            "value": ""
        },
        "actionType": {
            "value": "reaction"
        },
        "actions": {
            "value": ""
        },
        "description": {
            "chat": "",
            "unidentified": "",
            "value": "<p><strong>Trigger</strong> You attempt an attack roll, skill check, or saving throw while performing the course of action from your @Compendium[pf2e.spells-srd.Augury]{Augury}, but you haven't rolled yet</p>\n<hr />\n<p>You gain a +1 status bonus to the triggering check, or a +2 status bonus if the result of the augury was \"woe\" and you proceeded anyway.</p>"
        },
        "requirements": {
            "value": ""
        },
        "rules": [],
        "schema": {
            "lastMigration": null,
            "version": 0.643
        },
        "source": {
            "value": ""
        },
        "traits": {
            "custom": "",
            "rarity": {
                "value": "common"
            },
            "selected": {
                "concentrate": "Concentrate"
            },
            "value": [
                "concentrate"
            ]
        },
        "trigger": {
            "value": ""
        },
        "weapon": {
            "value": ""
        }
    },
    "effects": [],
    "flags": {},
    "img": "systems/pf2e/icons/actions/Reaction.webp",
    "name": "Call Upon the Brightness",
    "type": "action"
}
