{
    "_id": "uS3qDAgOkZ7b8ERL",
    "data": {
        "actionCategory": {
            "value": "interaction"
        },
        "actionType": {
            "value": "action"
        },
        "actions": {
            "value": "1"
        },
        "description": {
            "value": "<p><strong>Requirements</strong> You are piloting a vehicle. You pilot your vehicle to move.</p>\n<p>Decide how many actions you intend to spend before you begin Driving. The effects depend on the number of actions you spend. You can't Drive through spaces occupied by creatures, even if they are allies.</p>\n<p><span class=\"pf2-icon\">1</span> Attempt a piloting check. On a success, the vehicle moves up to its Speed and can turn normally. On a failure, the vehicle moves its Speed in a straight line. On a critical failure, the vehicle moves its Speed in a straight line and becomes uncontrolled</p>\n<p><span class=\"pf2-icon\">2 </span>(reckless) The vehicle moves up to twice its Speed in a straight line at the vehicle's current heading.</p>\n<p><span class=\"pf2-icon\">3</span> (reckless) You take a –5 penalty on your piloting check to maintain control of the vehicle. The vehicle moves up to three times its Speed in a straight line at the vehicle's current heading.</p>"
        },
        "requirements": {
            "value": ""
        },
        "rules": [],
        "schema": {
            "lastMigration": null,
            "version": 0.643
        },
        "source": {
            "value": ""
        },
        "traits": {
            "custom": "",
            "rarity": {
                "value": "common"
            },
            "value": [
                "move"
            ]
        },
        "trigger": {
            "value": ""
        },
        "weapon": {
            "value": ""
        }
    },
    "effects": [],
    "flags": {},
    "img": "systems/pf2e/icons/actions/OneAction.webp",
    "name": "Drive",
    "type": "action"
}
