{
    "_id": "M8RCbthRhB4bxO9t",
    "data": {
        "actionCategory": {
            "value": ""
        },
        "actionType": {
            "value": "reaction"
        },
        "actions": {
            "value": ""
        },
        "description": {
            "chat": "",
            "unidentified": "",
            "value": "<p><strong>Trigger</strong> An enemy within 15 feet damages you</p>\n<hr />\n<p>You put an impertinent foe who dared harm you in their proper place. You command your enemy to kneel before you in obedience. If they dare to refuse, they must pay the price in pain and anguish. The foe must choose one of the following options.</p>\n<ul>\n<li>The enemy kneels, dropping @Compendium[pf2e.conditionitems.Prone]{Prone} as a free action.</li>\n<li>The enemy refuses, and you deal <a class=\"inline-roll roll\" title=\"mental\" data-mode=\"roll\" data-flavor=\"mental\" data-formula=\"1d6\"> 1d6</a> mental damage to it. This damage increases to <a class=\"inline-roll roll\" title=\"mental\" data-mode=\"roll\" data-flavor=\"mental\" data-formula=\"2d6\"> 2d6</a> at 5th level, <a class=\"inline-roll roll\" title=\"mental\" data-mode=\"roll\" data-flavor=\"mental\" data-formula=\"3d6\"> 3d6</a> at 9th level, <a class=\"inline-roll roll\" title=\"mental\" data-mode=\"roll\" data-flavor=\"mental\" data-formula=\"4d6\"> 4d6</a> at 12th level, <a class=\"inline-roll roll\" title=\"mental\" data-mode=\"roll\" data-flavor=\"mental\" data-formula=\"5d6\"> 5d6</a> at 16th level, and <a class=\"inline-roll roll\" title=\"mental\" data-mode=\"roll\" data-flavor=\"mental\" data-formula=\"6d6\"> 6d6</a> at 19th level.</li>\n</ul>\n<p>In addition, your @Compendium[pf2e.actionspf2e.Strike]{Strikes} against the triggering creature deal <a class=\"inline-roll roll\" title=\"1\" data-mode=\"roll\" data-flavor=\"\" data-formula=\"1\"> 1</a> extra damage until the end of your next turn. You choose whether the damage type is evil or negative each time you use this reaction. This extra damage increases to <a class=\"inline-roll roll\" title=\"2\" data-mode=\"roll\" data-flavor=\"\" data-formula=\"2\"> 2</a> at 9th level and <a class=\"inline-roll roll\" title=\"3\" data-mode=\"roll\" data-flavor=\"\" data-formula=\"3\"> 3</a> at 16th level.</p>"
        },
        "requirements": {
            "value": ""
        },
        "rules": [],
        "schema": {
            "lastMigration": null,
            "version": 0.643
        },
        "source": {
            "value": ""
        },
        "traits": {
            "custom": "",
            "rarity": {
                "value": "common"
            },
            "value": [
                "champion",
                "divine",
                "emotion",
                "enchantment",
                "mental"
            ]
        },
        "trigger": {
            "value": ""
        },
        "weapon": {
            "value": ""
        }
    },
    "effects": [],
    "flags": {},
    "img": "systems/pf2e/icons/actions/Reaction.webp",
    "name": "Iron Command",
    "type": "action"
}
