{
    "_id": "On5CQjX4euWqToly",
    "data": {
        "actionCategory": {
            "value": ""
        },
        "actionType": {
            "value": "reaction"
        },
        "actions": {
            "value": ""
        },
        "description": {
            "chat": "",
            "unidentified": "",
            "value": "<p><strong>Trigger</strong> You attempt a saving throw against a magical effect but haven't rolled yet</p>\n<hr />\n<p>Your ancestral resistance to magic protects you. You gain a +1 circumstance bonus to the triggering saving throw. If the triggering effect is arcane, you gain a +2 circumstance bonus instead.</p>"
        },
        "requirements": {
            "value": ""
        },
        "rules": [],
        "schema": {
            "lastMigration": null,
            "version": 0.643
        },
        "source": {
            "value": ""
        },
        "traits": {
            "custom": "",
            "rarity": {
                "value": "common"
            },
            "value": []
        },
        "trigger": {
            "value": ""
        },
        "weapon": {
            "value": ""
        }
    },
    "effects": [],
    "flags": {},
    "img": "systems/pf2e/icons/actions/Reaction.webp",
    "name": "Resist Elf Magic",
    "type": "action"
}
