{
    "_id": "7blmbDrQFNfdT731",
    "data": {
        "actionCategory": {
            "value": ""
        },
        "actionType": {
            "value": "action"
        },
        "actions": {
            "value": "1"
        },
        "description": {
            "chat": "",
            "unidentified": "",
            "value": "<p><strong>Requirements</strong> You have at least one hand free. The target can't be more than one size larger than you</p>\n<hr />\n<p>You push a creature away from you. Attempt an <span data-pf2-action=\"shove\" data-pf2-glyph=\"A\">Athletics</span> check against your target's Fortitude DC.</p>\n<hr />\n<p><strong>Critical Success</strong> You push your target up to 10 feet away from you. You can @Compendium[pf2e.actionspf2e.Stride]{Stride} after it, but you must move the same distance and in the same direction.</p>\n<p><strong>Success</strong> You push your target back 5 feet. You can Stride after it, but you must move the same distance and in the same direction.</p>\n<p><strong>Critical Failure</strong> You lose your balance, fall, and land @Compendium[pf2e.conditionitems.Prone]{Prone}.</p>"
        },
        "requirements": {
            "value": ""
        },
        "rules": [],
        "schema": {
            "lastMigration": null,
            "version": 0.643
        },
        "source": {
            "value": ""
        },
        "traits": {
            "custom": "",
            "rarity": {
                "value": "common"
            },
            "value": [
                "attack",
                "skill"
            ]
        },
        "trigger": {
            "value": ""
        },
        "weapon": {
            "value": ""
        }
    },
    "effects": [],
    "flags": {},
    "img": "systems/pf2e/icons/actions/OneAction.webp",
    "name": "Shove",
    "type": "action"
}
