{
    "_id": "49y9Ec4bDii8pcD3",
    "data": {
        "actionCategory": {
            "value": ""
        },
        "actionType": {
            "value": "passive"
        },
        "actions": {
            "value": ""
        },
        "description": {
            "chat": "",
            "unidentified": "",
            "value": "<p>You try to provide food and shelter for yourself, and possibly others as well, with a standard of living. The GM determines the DC based on the nature of the place where you're trying to Subsist. You might need a minimum proficiency rank to Subsist in particularly strange environments. Unlike most downtime activities, you can Subsist after 8 hours or less of exploration, but if you do, you take a -5 penalty.</p>\n<hr />\n<p><strong>Critical Success</strong> You either provide a subsistence living for yourself and one additional creature, or you improve your own food and shelter, granting yourself a comfortable living.</p>\n<p><strong>Success</strong> You find enough food and shelter with basic protection from the elements to provide you a subsistence living.</p>\n<p><strong>Failure</strong> You're exposed to the elements and don't get enough food, becoming @Compendium[pf2e.conditionitems.Fatigued]{Fatigued} until you attain sufficient food and shelter.</p>\n<p><strong>Critical Failure</strong> You attract trouble, eat something you shouldn't, or otherwise worsen your situation. You take a -2 circumstance penalty to checks to Subsist for 1 week. You don't find any food at all; if you don't have any stored up, you're in danger of starving or dying of thirst if you continue failing.</p><h2 class=\"title\">Sample Subsist Tasks</h2>\n<ul>\n<li><strong>Untrained</strong> lush forest with calm weather or large city with plentiful resources</li>\n<li><strong>Trained</strong> typical hillside or village</li>\n<li><strong>Expert</strong> typical mountains or insular hamlet</li>\n<li><strong>Master</strong> typical desert or city under siege</li>\n<li><strong>Legendary</strong> barren wasteland or city of undead</li>\n</ul>"
        },
        "requirements": {
            "value": ""
        },
        "rules": [],
        "schema": {
            "lastMigration": null,
            "version": 0.643
        },
        "source": {
            "value": ""
        },
        "traits": {
            "custom": "",
            "rarity": {
                "value": "common"
            },
            "value": [
                "skill",
                "downtime"
            ]
        },
        "trigger": {
            "value": ""
        },
        "weapon": {
            "value": ""
        }
    },
    "effects": [],
    "flags": {},
    "img": "systems/pf2e/icons/default-icons/mystery-man.svg",
    "name": "Subsist",
    "type": "action"
}
