{
    "_id": "5KXsyN9J78glG25I",
    "data": {
        "description": {
            "value": "<p>You gain resistance 10 to mental damage and a +2 status bonus to saves against emotion effects.</p>\n\n<ul>\n<li>Resistance to mental damage not implemented</li>\n</ul>"
        },
        "duration": {
            "expiry": "turn-start",
            "sustained": false,
            "unit": "unlimited",
            "value": -1
        },
        "level": {
            "value": 1
        },
        "rules": [
            {
                "key": "PF2E.RuleElement.FlatModifier",
                "predicate": {
                    "all": [
                        "emotion"
                    ]
                },
                "selector": "saving-throw",
                "type": "status",
                "value": 2
            }
        ],
        "schema": {
            "lastMigration": null,
            "version": 0.643
        },
        "source": {
            "value": ""
        },
        "start": {
            "initiative": null,
            "value": 0
        },
        "target": null,
        "traits": {
            "custom": "",
            "rarity": {
                "value": "common"
            },
            "value": []
        }
    },
    "effects": [],
    "flags": {},
    "img": "systems/pf2e/icons/default-icons/effect.svg",
    "name": "Effect: Ochre Fulcrum Lens",
    "type": "effect"
}
