{
    "_id": "3O5lvuX4VHqtpCkU",
    "data": {
        "description": {
            "chat": "",
            "unidentified": "",
            "value": "<p>Granted by activating @Compendium[pf2e.equipment-srd.Lover's Gloves]{Lover's Gloves}</p>\n<hr />\n<p>Automatically applied effects:</p>\n<ul>\n<li>+1 status bonus to saving throws</li>\n<li>gain 10 temporary Hit Points </li>\n</ul>"
        },
        "duration": {
            "expiry": "turn-start",
            "sustained": false,
            "unit": "minutes",
            "value": 10
        },
        "level": {
            "value": 8
        },
        "rules": [
            {
                "key": "PF2E.RuleElement.FlatModifier",
                "selector": "saving-throw",
                "type": "status",
                "value": 1
            },
            {
                "key": "PF2E.RuleElement.TempHP",
                "value": 10
            },
            {
                "key": "PF2E.RuleElement.TokenEffectIcon"
            }
        ],
        "schema": {
            "lastMigration": null,
            "version": 0.643
        },
        "source": {
            "value": ""
        },
        "start": {
            "initiative": null,
            "value": 0
        },
        "traits": {
            "custom": "",
            "rarity": {
                "value": "common"
            },
            "value": []
        }
    },
    "effects": [],
    "flags": {},
    "img": "systems/pf2e/icons/equipment/worn-items/other-worn-items/lovers-gloves.webp",
    "name": "Effect: Lover's Gloves",
    "type": "effect"
}
