{
    "_id": "EDeiF3PNtXUeBU6P",
    "data": {
        "attributes": {
            "ac": {
                "value": 35
            },
            "hardness": 0,
            "hasHealth": true,
            "hp": {
                "details": "",
                "max": 220,
                "temp": 0,
                "value": 220
            },
            "stealth": {
                "details": "<p>(master) to notice the sudden breeze in the theater</p>",
                "value": 22
            }
        },
        "creatureType": "",
        "details": {
            "description": "<p>A portal to the Plane of Air rips open onstage, causing roaring winds to tear through the opera house</p>",
            "disable": "<p><span data-pf2-skill-check=\"arcana\" data-pf2-traits=\"hazard,environmental,magical,air\" data-pf2-label=\"Air Rift Arcana DC\" data-pf2-dc=\"38\" data-pf2-show-dc=\"gm\">Arcana</span> (master) to sew the magical threads of the rift shut, <span data-pf2-skill-check=\"nature\" data-pf2-traits=\"hazard,environmental,magical,air\" data-pf2-label=\"Air Rift Nature DC\" data-pf2-dc=\"40\" data-pf2-show-dc=\"gm\">Nature</span> or <span data-pf2-skill-check=\"survival\" data-pf2-traits=\"hazard,environmental,magical,air\" data-pf2-label=\"Air Rift Survival DC\" data-pf2-dc=\"40\" data-pf2-show-dc=\"gm\">Survival</span> (legendary) to open enough windows and doors to reduce its intensity, or @Compendium[pf2e.spells-srd.Dispel Magic]{Dispel Magic} (7th level; counteract DC 34) to counteract the air rift</p>",
            "isComplex": true,
            "level": {
                "value": 14
            },
            "reset": "",
            "routine": "<p>(1 action) Winds blow through the area in a random direction, causing creatures and objects within 50 feet of the air rift to float up, down, north, south, east, or west (roll a d6 to determine which direction). Creatures and objects in the area must attempt a <span data-pf2-saving-throw=\"fortitude\" data-pf2-traits=\"damaging-effect,air, environmental,magical,hazard\" data-pf2-label=\"Air Rift DC\" data-pf2-dc=\"37\" data-pf2-show-dc=\"gm\">Fortitude</span> save. If a creature is pushed into a solid object or another creature by this effect, both take [[/r 3d8+15 # bludgeoning damage]]{3d8+15 bludgeoning damage} on impact.</p>\n<hr />\n<p><strong>Critical Success</strong> The creature is unaffected.</p>\n<p><strong>Success</strong> The creature is pushed 10 feet, but takes only half damage from impact.</p>\n<p><strong>Failure</strong> The creature is pushed 20 feet, falls prone, and takes full damage from impact.</p>\n<p><strong>Critical Failure</strong> The creature is pushed 40 feet, falls prone, and takes double damage from impact.</p>"
        },
        "recallKnowledgeText": "",
        "saves": {
            "fortitude": {
                "rank": 0,
                "saveDetail": "",
                "value": 30
            },
            "reflex": {
                "rank": 0,
                "saveDetail": "",
                "value": null
            },
            "will": {
                "rank": 0,
                "saveDetail": "",
                "value": null
            }
        },
        "schema": {
            "lastMigration": null,
            "version": 0.643
        },
        "source": {
            "value": "Pathfinder #167: Ready? Fight!"
        },
        "statusEffects": [],
        "traits": {
            "ci": [],
            "di": {
                "custom": "",
                "selected": {},
                "value": []
            },
            "dr": [],
            "dv": [],
            "rarity": {
                "value": "common"
            },
            "size": {
                "value": "med"
            },
            "traits": {
                "custom": "",
                "value": [
                    "environmental",
                    "magical"
                ]
            }
        }
    },
    "effects": [],
    "flags": {},
    "img": "systems/pf2e/icons/default-icons/hazard.svg",
    "items": [
        {
            "_id": "kk1MskNbJzxZTiUb",
            "data": {
                "actionCategory": {
                    "value": "defensive"
                },
                "actionType": {
                    "value": "passive"
                },
                "actions": {
                    "value": ""
                },
                "description": {
                    "value": ""
                },
                "requirements": {
                    "value": ""
                },
                "rules": [],
                "schema": {
                    "lastMigration": null,
                    "version": 0.643
                },
                "slug": null,
                "source": {
                    "value": ""
                },
                "traits": {
                    "custom": "",
                    "rarity": {
                        "value": "common"
                    },
                    "value": []
                },
                "trigger": {
                    "value": ""
                },
                "weapon": {
                    "value": ""
                }
            },
            "effects": [],
            "flags": {},
            "img": "systems/pf2e/icons/actions/Passive.webp",
            "name": "AC 40 vs. Reactions and Ranged Weapon Attacks",
            "sort": 0,
            "type": "action"
        },
        {
            "_id": "3vRlGmy1BbFY0bJW",
            "data": {
                "actionCategory": {
                    "value": "defensive"
                },
                "actionType": {
                    "value": "passive"
                },
                "actions": {
                    "value": ""
                },
                "description": {
                    "value": "<p>The Elemental Plane of Air is opposed by the Plane of Earth. Any spell or magical effect with the earth trait that targets a creature or area within 50 feet of the rift deals 10 damage to the rift per spell levels (or per 2 levels for magic items, feats, and so forth). For example, a 3rd-level @Compendium[pf2e.spells-srd.Earthbind]{Earthbind} spell cast on a creature near the air rift deals 30 points of damage to the rift</p>"
                },
                "requirements": {
                    "value": ""
                },
                "rules": [],
                "schema": {
                    "lastMigration": null,
                    "version": 0.643
                },
                "slug": null,
                "source": {
                    "value": ""
                },
                "traits": {
                    "custom": "",
                    "rarity": {
                        "value": "common"
                    },
                    "value": []
                },
                "trigger": {
                    "value": ""
                },
                "weapon": {
                    "value": ""
                }
            },
            "effects": [],
            "flags": {},
            "img": "systems/pf2e/icons/actions/Passive.webp",
            "name": "Earth Vulnerability",
            "sort": 0,
            "type": "action"
        },
        {
            "_id": "3Z7QykHo25ouKv1W",
            "data": {
                "actionCategory": {
                    "value": "offensive"
                },
                "actionType": {
                    "value": "reaction"
                },
                "actions": {
                    "value": ""
                },
                "description": {
                    "value": "<p><strong>Trigger</strong> A creature comes within 50 feet of the rift;</p>\n<p><strong>Effect</strong> The air rift creates a shroud of subjective gravity around the creature for 1 minute. The creature can use a free action, which has the concentrate trait, to choose any direction they wish for gravity to pull them. This allows a creature to Stride along any surface or Fly in a straight line by choosing a direction into midair. For unattended objects and mindless creatures, this is microgravity: they float in place unless pushed off a surface.</p>"
                },
                "requirements": {
                    "value": ""
                },
                "rules": [],
                "schema": {
                    "lastMigration": null,
                    "version": 0.643
                },
                "slug": null,
                "source": {
                    "value": ""
                },
                "traits": {
                    "custom": "",
                    "rarity": {
                        "value": "common"
                    },
                    "value": []
                },
                "trigger": {
                    "value": ""
                },
                "weapon": {
                    "value": ""
                }
            },
            "effects": [],
            "flags": {},
            "img": "systems/pf2e/icons/actions/Reaction.webp",
            "name": "Weightlessness",
            "sort": 0,
            "type": "action"
        }
    ],
    "name": "Air Rift",
    "token": {
        "actorLink": false,
        "alpha": 1,
        "bar1": {
            "attribute": "attributes.hp"
        },
        "bar2": {
            "attribute": null
        },
        "brightLight": 0,
        "brightSight": 0,
        "dimLight": 0,
        "dimSight": 0,
        "displayBars": 20,
        "displayName": 20,
        "disposition": 0,
        "flags": {},
        "height": 1,
        "img": "systems/pf2e/icons/default-icons/hazard.svg",
        "lightAlpha": 0.25,
        "lightAngle": 0,
        "lightAnimation": {
            "intensity": 5,
            "speed": 5
        },
        "lockRotation": false,
        "mirrorX": false,
        "mirrorY": false,
        "name": "Air Rift",
        "randomImg": false,
        "rotation": 0,
        "scale": 1,
        "sightAngle": 0,
        "vision": false,
        "width": 1
    },
    "type": "hazard"
}
