{
    "_id": "Fwjqlg5gsZwx1FuC",
    "data": {
        "attributes": {
            "ac": {
                "value": 10
            },
            "hardness": 0,
            "hasHealth": true,
            "hp": {
                "details": "",
                "max": 10,
                "temp": 0,
                "value": 10
            },
            "stealth": {
                "details": "<p>DC 10</p>",
                "value": 0
            }
        },
        "creatureType": "",
        "details": {
            "description": "<p>Mogaru's steady footsteps pick up speed, causing the earth around him to tremble as though from a powerful earthquake.</p>",
            "disable": "<p>three <span data-pf2-skill-check=\"athletics\" data-pf2-traits=\"\" data-pf2-label=\"\" data-pf2-dc=\"39\" data-pf2-show-dc=\"gm\">Athletics</span> (trained), <span data-pf2-skill-check=\"crafting\" data-pf2-traits=\"\" data-pf2-label=\"\" data-pf2-dc=\"39\" data-pf2-show-dc=\"gm\">Crafting</span>(trained), or <span data-pf2-skill-check=\"engineering\" data-pf2-traits=\"\" data-pf2-label=\"\" data-pf2-dc=\"39\" data-pf2-show-dc=\"gm\">Engineering Lore</span> (trained) checks to brace a small structure or surface to cancel the effects of the quake in that area; <span data-pf2-skill-check=\"performance\" data-pf2-traits=\"\" data-pf2-label=\"\" data-pf2-dc=\"41\" data-pf2-show-dc=\"gm\">Performance</span> (legendary) to calm Mogaru momentarily</p>",
            "isComplex": false,
            "level": {
                "value": 14
            },
            "reset": "<p>Mogaru doesn't rush this way again for [[/r 1d4]] rounds.</p>",
            "routine": ""
        },
        "recallKnowledgeText": "",
        "saves": {
            "fortitude": {
                "rank": 0,
                "saveDetail": "",
                "value": null
            },
            "reflex": {
                "rank": 0,
                "saveDetail": "",
                "value": null
            },
            "will": {
                "rank": 0,
                "saveDetail": "",
                "value": null
            }
        },
        "schema": {
            "lastMigration": null,
            "version": 0.643
        },
        "source": {
            "value": "Pathfinder #167: Ready? Fight!"
        },
        "statusEffects": [],
        "traits": {
            "ci": [],
            "di": {
                "custom": "",
                "selected": {},
                "value": []
            },
            "dr": [],
            "dv": [],
            "rarity": {
                "value": "common"
            },
            "size": {
                "value": "med"
            },
            "traits": {
                "custom": "",
                "value": [
                    "environmental"
                ]
            }
        }
    },
    "effects": [],
    "flags": {},
    "img": "systems/pf2e/icons/default-icons/hazard.svg",
    "items": [
        {
            "_id": "0NiOsqio8Wx4X3Mb",
            "data": {
                "actionCategory": {
                    "value": "offensive"
                },
                "actionType": {
                    "value": "reaction"
                },
                "actions": {
                    "value": ""
                },
                "description": {
                    "value": "<p><strong>Trigger</strong> Mogaru moves at least 60 feet;</p>\n<p><strong>Effect</strong> The ground shakes in a 120-foot emanation from Mogaru's space. This creates a variety of effects, depending on where the player characters are at the time of the quake.</p>\n<p>In most parts of the city, the ground becomes difficult terrain, and creatures on it are @Compendium[pf2e.conditionitems.Clumsy]{Clumsy 2} for 1 round.</p>\n<p>In parts of the city with existing underground spaces (like sewers, sinkholes, or catacombs), fissures open up in the ground. Creatures in the area tumble into the resulting 40-foot-deep hole unless they succeed at a <span data-pf2-saving-throw=\"reflex\" data-pf2-traits=\"\" data-pf2-label=\"\" data-pf2-dc=\"40\" data-pf2-show-dc=\"gm\">Reflex</span> save.</p>\n<p>In bays, on beaches, and in other relatively substantial but shallow bodies of water, Mogaru's movement creates dangerous waves. Creatures in the water or within 60 feet of the waterline are struck by waves that deal [[/r 3d8 # bludgeoning damage]]{3d8 bludgeoning damage} (<span data-pf2-saving-throw=\"reflex\" data-pf2-traits=\"damaging-effect\" data-pf2-label=\"\" data-pf2-dc=\"35\" data-pf2-show-dc=\"gm\">basic Reflex</span> save). On a critically failed save, a creature is instantly swept 60 feet out to sea and 60 feet under the water's surface.</p>"
                },
                "requirements": {
                    "value": ""
                },
                "rules": [],
                "schema": {
                    "lastMigration": null,
                    "version": 0.643
                },
                "slug": null,
                "source": {
                    "value": ""
                },
                "traits": {
                    "custom": "",
                    "rarity": {
                        "value": "common"
                    },
                    "value": []
                },
                "trigger": {
                    "value": ""
                },
                "weapon": {
                    "value": ""
                }
            },
            "effects": [],
            "flags": {},
            "img": "systems/pf2e/icons/actions/Reaction.webp",
            "name": "Quake",
            "sort": 0,
            "type": "action"
        }
    ],
    "name": "Quaking Footfall",
    "token": {
        "actorLink": false,
        "alpha": 1,
        "bar1": {
            "attribute": "attributes.hp"
        },
        "bar2": {
            "attribute": null
        },
        "brightLight": 0,
        "brightSight": 0,
        "dimLight": 0,
        "dimSight": 0,
        "displayBars": 20,
        "displayName": 20,
        "disposition": 0,
        "flags": {},
        "height": 1,
        "img": "systems/pf2e/icons/default-icons/hazard.svg",
        "lightAlpha": 0.25,
        "lightAngle": 0,
        "lightAnimation": {
            "intensity": 5,
            "speed": 5
        },
        "lockRotation": false,
        "mirrorX": false,
        "mirrorY": false,
        "name": "Quaking Footfall",
        "randomImg": false,
        "rotation": 0,
        "scale": 1,
        "sightAngle": 0,
        "vision": false,
        "width": 1
    },
    "type": "hazard"
}
