{
    "_id": "sVXMz65SI2rla17T",
    "data": {
        "attributes": {
            "ac": {
                "value": 10
            },
            "hardness": 0,
            "hasHealth": true,
            "hp": {
                "details": "",
                "max": 10,
                "temp": 0,
                "value": 10
            },
            "stealth": {
                "details": "<p>(trained)</p>",
                "value": 23
            }
        },
        "creatureType": "",
        "details": {
            "description": "<p>Buffeting winds swirl sharp grains of sand about the room.</p>",
            "disable": "<p><span data-pf2-skill-check=\"religon\" data-pf2-traits=\"haunt\" data-pf2-label=\"\" data-pf2-dc=\"38\" data-pf2-show-dc=\"gm\">Religion</span> (expert) to state an Iroran koan about being complete only upon recognizing one&rsquo;s incompleteness, or <span data-pf2-skill-check=\"occultism\" data-pf2-traits=\"haunt\" data-pf2-label=\"\" data-pf2-dc=\"41\" data-pf2-show-dc=\"gm\">Occultism</span> (master) to create a ward against future hauntings</p>",
            "isComplex": true,
            "level": {
                "value": 1
            },
            "reset": "<p>The haunt deactivates after 1 minute and re-forms after 1 hour. The haunt is disabled and doesn't re-form if at least two creatures spend 1 minute to create an image with the sand. Creating the image requires a successful <span data-pf2-skill-check=\"crafting\" data-pf2-traits=\"\" data-pf2-label=\"\" data-pf2-dc=\"30\" data-pf2-show-dc=\"gm\">Crafting</span> or <span data-pf2-skill-check=\"thievery\" data-pf2-traits=\"\" data-pf2-label=\"\" data-pf2-dc=\"30\" data-pf2-show-dc=\"gm\">Thievery</span>check.</p>",
            "routine": "<p>(1 action) The haunt's violent winds savagely buffet everyone in the room, dealing [[/r 6d10+30 # bludgeoning damage]]{6d10+30 bludgeoning damage} to living creatures (<span data-pf2-saving-throw=\"reflex\" data-pf2-traits=\"haunt\" data-pf2-label=\"\" data-pf2-dc=\"34\" data-pf2-show-dc=\"gm\">basic Reflex</span>). On a critically failed save, a creature is also @Compendium[pf2e.conditionitems.Blinded]{Blinded} for 1 minute.</p>"
        },
        "recallKnowledgeText": "",
        "saves": {
            "fortitude": {
                "rank": 0,
                "saveDetail": "",
                "value": null
            },
            "reflex": {
                "rank": 0,
                "saveDetail": "",
                "value": null
            },
            "will": {
                "rank": 0,
                "saveDetail": "",
                "value": null
            }
        },
        "schema": {
            "lastMigration": null,
            "version": 0.643
        },
        "source": {
            "value": "Pathfinder #166: Despair on Danger Island"
        },
        "statusEffects": [],
        "traits": {
            "ci": [],
            "di": {
                "custom": "",
                "selected": {},
                "value": []
            },
            "dr": [],
            "dv": [],
            "rarity": {
                "value": "common"
            },
            "size": {
                "value": "med"
            },
            "traits": {
                "custom": "",
                "value": []
            }
        }
    },
    "effects": [],
    "flags": {},
    "img": "systems/pf2e/icons/default-icons/hazard.svg",
    "items": [],
    "name": "Sand Whirlwind",
    "token": {
        "actorLink": false,
        "alpha": 1,
        "bar1": {
            "attribute": "attributes.hp"
        },
        "bar2": {
            "attribute": null
        },
        "brightLight": 0,
        "brightSight": 0,
        "dimLight": 0,
        "dimSight": 0,
        "displayBars": 20,
        "displayName": 20,
        "disposition": 0,
        "effects": [],
        "flags": {},
        "height": 1,
        "img": "systems/pf2e/icons/default-icons/hazard.svg",
        "lightAlpha": 0.25,
        "lightAngle": 0,
        "lightAnimation": {
            "intensity": 5,
            "speed": 5
        },
        "lockRotation": false,
        "mirrorX": false,
        "mirrorY": false,
        "name": "Sand Whirlwind",
        "randomImg": false,
        "rotation": 0,
        "scale": 1,
        "sightAngle": 0,
        "vision": false,
        "width": 1
    },
    "type": "hazard"
}
