{
    "_id": "v7zE3tKQb9G6PaYU",
    "data": {
        "description": {
            "chat": "",
            "unidentified": "",
            "value": "<p>Your familiar is your criminal associate. Despite being a minion, your familiar gains 1 reaction at the start of its turns, which it can use only to Aid you on a Deception or Thievery skill check (it still has to prepare to help you as normal for the Aid reaction). It automatically succeeds at its check to Aid you with those skills or automatically critically succeeds if you're a master of the skill in question.</p>"
        },
        "duration": {
            "expiry": "turn-start",
            "sustained": false,
            "unit": "unlimited",
            "value": -1
        },
        "level": {
            "value": 1
        },
        "rules": [],
        "schema": {
            "lastMigration": null,
            "version": 0.643
        },
        "source": {
            "value": ""
        },
        "start": {
            "initiative": null,
            "value": 0
        },
        "target": null,
        "tokenIcon": {
            "show": false
        },
        "traits": {
            "custom": "",
            "rarity": {
                "value": "common"
            },
            "value": []
        }
    },
    "effects": [],
    "flags": {},
    "img": "systems/pf2e/icons/default-icons/mystery-man.svg",
    "name": "Partner in Crime",
    "type": "effect"
}
