{
    "_id": "XCqYnlVbLGqEGPeX",
    "data": {
        "description": {
            "chat": "",
            "unidentified": "",
            "value": "<p>Your familiar can telepathically communicate with you via touch. If it also has the speech ability, it can telepathically communicate via touch with any creature if they share a language.</p>"
        },
        "duration": {
            "expiry": "turn-start",
            "sustained": false,
            "unit": "unlimited",
            "value": -1
        },
        "level": {
            "value": 1
        },
        "rules": [],
        "schema": {
            "lastMigration": null,
            "version": 0.643
        },
        "source": {
            "value": ""
        },
        "start": {
            "initiative": null,
            "value": 0
        },
        "target": null,
        "tokenIcon": {
            "show": false
        },
        "traits": {
            "custom": "",
            "rarity": {
                "value": "common"
            },
            "value": []
        }
    },
    "effects": [],
    "flags": {},
    "img": "systems/pf2e/icons/default-icons/mystery-man.svg",
    "name": "Touch Telepathy",
    "type": "effect"
}
