{
    "_id": "MCny5ohCGf09a7Wl",
    "data": {
        "description": {
            "chat": "",
            "unidentified": "",
            "value": "<p>Granted by @Compendium[pf2e.equipment-srd.Salve of Slipperiness]{Salve of Slipperiness}</p>\n<hr />\n<p>Automatically applied effects:</p>\n<ul>\n<li>+2 item bonus to Acrobatics checks to Escape or Squeeze</li>\n</ul>"
        },
        "duration": {
            "expiry": "turn-start",
            "sustained": false,
            "unit": "hours",
            "value": 8
        },
        "level": {
            "value": 5
        },
        "rules": [
            {
                "key": "PF2E.RuleElement.FlatModifier",
                "label": "Salve of Slipperiness (Escape or Squeeze",
                "predicate": {
                    "any": [
                        "action:escape",
                        "action:squeeze"
                    ]
                },
                "selector": "acrobatics",
                "type": "item",
                "value": 2
            },
            {
                "key": "PF2E.RuleElement.TokenEffectIcon"
            }
        ],
        "schema": {
            "lastMigration": null,
            "version": 0.643
        },
        "source": {
            "value": ""
        },
        "start": {
            "initiative": null,
            "value": 0
        },
        "target": null,
        "traits": {
            "custom": "",
            "rarity": {
                "value": "common"
            },
            "value": []
        }
    },
    "effects": [],
    "flags": {},
    "img": "systems/pf2e/icons/equipment/consumables/oils/salve-of-slipperiness.webp",
    "name": "Effect: Salve of Slipperiness",
    "type": "effect"
}
