{
    "_id": "tTBJ33UGtzXjWOJp",
    "data": {
        "description": {
            "chat": "",
            "unidentified": "",
            "value": "<p>Granted by @Compendium[pf2e.equipment-srd.Applereed Mutagen (Greater)]{Applereed Mutagen (Greater)}</p>\n<p>Implemented effects:</p>\n<ul>\n<li>+4 item bonus to Athletics checks</li>\n<li>+20 foot status bonus to Speed</li>\n<li>You grow one size category larger</li>\n<li>-1 penalty to AC</li>\n<li>-2 to penalty Reflex saves</li>\n</ul>"
        },
        "duration": {
            "expiry": "turn-start",
            "sustained": false,
            "unit": "hours",
            "value": 1
        },
        "level": {
            "value": 18
        },
        "rules": [
            {
                "key": "PF2E.RuleElement.FlatModifier",
                "label": "Applereed Mutagen (Greater)",
                "selector": "athletics",
                "type": "item",
                "value": 4
            },
            {
                "key": "PF2E.RuleElement.FlatModifier",
                "label": "Applereed Mutagen (Greater)",
                "selector": "ac",
                "type": "untyped",
                "value": -1
            },
            {
                "key": "PF2E.RuleElement.FlatModifier",
                "label": "Applereed Mutagen (Greater)",
                "selector": "reflex",
                "type": "untyped",
                "value": -2
            },
            {
                "key": "PF2E.RuleElement.TokenEffectIcon"
            },
            {
                "key": "PF2E.RuleElement.TokenSize",
                "value": "large"
            }
        ],
        "schema": {
            "lastMigration": null,
            "version": 0.643
        },
        "source": {
            "value": ""
        },
        "start": {
            "initiative": null,
            "value": 0
        },
        "traits": {
            "custom": "",
            "rarity": {
                "value": "common"
            },
            "value": []
        }
    },
    "effects": [],
    "flags": {},
    "img": "systems/pf2e/icons/equipment/alchemical-items/alchemical-elixirs/applereed-mutagen.webp",
    "name": "Effect: Applereed Mutagen (Greater)",
    "type": "effect"
}
