{
    "_id": "VPtsrpbP0AE642al",
    "data": {
        "description": {
            "chat": "",
            "unidentified": "",
            "value": "<p>Granted by @Compendium[pf2e.equipment-srd.Quicksilver Mutagen (Moderate)]{Quicksilver Mutagen (Moderate)}</p>\n<p>Implemented effects:</p>\n<ul>\n<li>+2 item bonus to Acrobatics, Stealth and Thievery checks</li>\n<li>+2 item bonus to Reflex saves</li>\n<li>+2 item bonus to Dexterity-based attack rolls</li>\n<li>+10 foot status bonus to Speed</li>\n<li>-2 penalty to Fortitude saves</li>\n</ul>\n<p>Unimplemented effects:</p>\n<ul>\n<li>You take damage equal to twice your level; you can't recover Hit Points lost this way by any means while the mutagen lasts</li>\n</ul>"
        },
        "duration": {
            "expiry": "turn-start",
            "sustained": false,
            "unit": "minutes",
            "value": 10
        },
        "level": {
            "value": 3
        },
        "rules": [
            {
                "key": "PF2E.RuleElement.FlatModifier",
                "label": "Quicksilver Mutagen (Moderate)",
                "selector": "acrobatics",
                "type": "item",
                "value": 2
            },
            {
                "key": "PF2E.RuleElement.FlatModifier",
                "label": "Quicksilver Mutagen (Moderate)",
                "selector": "stealth",
                "type": "item",
                "value": 2
            },
            {
                "key": "PF2E.RuleElement.FlatModifier",
                "label": "Quicksilver Mutagen (Moderate)",
                "selector": "thievery",
                "type": "item",
                "value": 2
            },
            {
                "key": "PF2E.RuleElement.FlatModifier",
                "label": "Quicksilver Mutagen (Moderate)",
                "selector": "fortitude",
                "type": "untyped",
                "value": -2
            },
            {
                "key": "PF2E.RuleElement.FlatModifier",
                "label": "Quicksilver Mutagen (Dexterity-based attacks)",
                "predicate": {
                    "any": [
                        "dex-attack"
                    ]
                },
                "selector": "attack",
                "type": "item",
                "value": 2
            },
            {
                "key": "PF2E.RuleElement.TokenEffectIcon"
            },
            {
                "key": "PF2E.RuleElement.FlatModifier",
                "selector": "speed",
                "type": "status",
                "value": 10
            },
            {
                "key": "PF2E.RuleElement.FlatModifier",
                "selector": "reflex",
                "type": "item",
                "value": 2
            }
        ],
        "schema": {
            "lastMigration": null,
            "version": 0.643
        },
        "source": {
            "value": ""
        },
        "start": {
            "initiative": null,
            "value": 0
        },
        "traits": {
            "custom": "",
            "rarity": {
                "value": "common"
            },
            "value": []
        }
    },
    "effects": [],
    "flags": {},
    "img": "systems/pf2e/icons/equipment/alchemical-items/alchemical-elixirs/quicksilver-mutagen.webp",
    "name": "Effect: Quicksilver Mutagen (Moderate)",
    "type": "effect"
}
