{
    "_id": "MI5OCkF9IXmD2lPF",
    "data": {
        "description": {
            "chat": "",
            "unidentified": "",
            "value": "<p>Granted by @Compendium[pf2e.equipment-srd.Bloodhound Mask (Greater)]{Bloodhound Mask (Greater)}</p>\n<p>Automatically applied effects:</p>\n<ul>\n<li>Gain imprecise sense, with a range of 60 feet</li>\n<li>+3 item bonus to Survival checks to track</li>\n</ul>"
        },
        "duration": {
            "expiry": "turn-start",
            "sustained": false,
            "unit": "hours",
            "value": 8
        },
        "level": {
            "value": 11
        },
        "rules": [
            {
                "acuity": "imprecise",
                "key": "PF2E.RuleElement.Sense",
                "label": "PF2E.SensesScent",
                "range": 60,
                "selector": "scent"
            },
            {
                "key": "PF2E.RuleElement.FlatModifier",
                "label": "Bloodhound Mask (Track by scent)",
                "predicate": {
                    "all": [
                        "action:track",
                        "scent"
                    ]
                },
                "selector": "survival",
                "type": "item",
                "value": 3
            },
            {
                "key": "PF2E.RuleElement.TokenEffectIcon"
            }
        ],
        "schema": {
            "lastMigration": null,
            "version": 0.643
        },
        "source": {
            "value": ""
        },
        "start": {
            "initiative": null,
            "value": 0
        },
        "target": null,
        "traits": {
            "custom": "",
            "rarity": {
                "value": "common"
            },
            "value": []
        }
    },
    "effects": [],
    "flags": {},
    "img": "systems/pf2e/icons/equipment/alchemical-items/alchemical-tools/bloodhound-mask.webp",
    "name": "Effect: Bloodhound Mask (Greater)",
    "type": "effect"
}
