{
    "_id": "aFygWxgSv82WyCsl",
    "data": {
        "actionCategory": {
            "value": ""
        },
        "actionType": {
            "value": "passive"
        },
        "actions": {
            "value": ""
        },
        "description": {
            "chat": "",
            "unidentified": "",
            "value": "<p>You become an expert in Acrobatics. At 7th level, you become a master in Acrobatics, and at 15th level, you become legendary in Acrobatics.</p>\n<p>Whenever you critically succeed at an Acrobatics check to @Compendium[pf2e.actionspf2e.Tumble Through]{Tumble Through} an enemy's space, you don't treat the enemy's space as difficult terrain.</p>\n<p><strong>Special</strong> You can't select another dedication feat until you have gained two other feats from the acrobat archetype.</p>"
        },
        "featType": {
            "value": "archetype"
        },
        "level": {
            "value": 2
        },
        "prerequisites": {
            "value": [
                {
                    "value": "trained in Acrobatics"
                }
            ]
        },
        "rules": [],
        "schema": {
            "lastMigration": null,
            "version": 0.643
        },
        "source": {
            "value": ""
        },
        "traits": {
            "custom": "",
            "rarity": {
                "value": "common"
            },
            "value": [
                "archetype",
                "dedication"
            ]
        }
    },
    "effects": [],
    "flags": {},
    "img": "systems/pf2e/icons/features/feats/feats.webp",
    "name": "Acrobat Dedication",
    "type": "feat"
}
