{
    "_id": "pKnX7MGZayqZui0Z",
    "data": {
        "actionCategory": {
            "value": ""
        },
        "actionType": {
            "value": "passive"
        },
        "actions": {
            "value": ""
        },
        "description": {
            "chat": "",
            "unidentified": "",
            "value": "<p>You move with grace in flight and can perform amazing aerial stunts.</p>\n<p>You gain a +2 circumstance bonus to Acrobatics checks to @Compendium[pf2e.actionspf2e.Maneuver in Flight]{Maneuver in Flight} and can combine two maneuvers into a single action, such as reversing direction while making a steep ascent or descent or hovering in gale-force winds. The DC of the Acrobatics check is equal to the DC of the most difficult maneuver + 5.</p>\n<p>If you're legendary in Acrobatics, you can combine three such maneuvers into a single action; the DC of the Acrobatics check is equal to the DC of the most difficult maneuver + 10. Regardless of the combination, these maneuvers rarely allow you to move farther than your @Compendium[pf2e.actionspf2e.Fly]{Fly} Speed.</p>"
        },
        "featType": {
            "value": "skill"
        },
        "level": {
            "value": 7
        },
        "location": "",
        "prerequisites": {
            "value": [
                {
                    "value": "master in Acrobatics"
                }
            ]
        },
        "rules": [
            {
                "key": "PF2E.RuleElement.FlatModifier",
                "label": "Aerobatics Mastery (Maneuver in Flight)",
                "predicate": {
                    "all": [
                        "action:maneuver-in-flight"
                    ]
                },
                "selector": "acrobatics",
                "type": "circumstance",
                "value": 2
            }
        ],
        "schema": {
            "lastMigration": null,
            "version": 0.643
        },
        "source": {
            "value": ""
        },
        "traits": {
            "custom": "",
            "rarity": {
                "value": "common"
            },
            "value": [
                "general",
                "skill"
            ]
        }
    },
    "effects": [],
    "flags": {},
    "img": "systems/pf2e/icons/features/feats/feats.webp",
    "name": "Aerobatics Mastery",
    "type": "feat"
}
