{
    "_id": "19OLlTrxvEtDAOHc",
    "data": {
        "actionCategory": {
            "value": ""
        },
        "actionType": {
            "value": "free"
        },
        "actions": {
            "value": ""
        },
        "description": {
            "chat": "",
            "unidentified": "",
            "value": "<p><strong>Trigger</strong> You use the Shield Block reaction, and the opponent that triggered Shield Block is adjacent to you and is your size or smaller.</p>\n<hr />\n<p>You push back as you block, knocking your foe away or off balance.</p>\n<p>You use your shield to push the triggering creature, either automatically @Compendium[pf2e.actionspf2e.Shove]{Shoving} it 5 feet or causing it to become @Compendium[pf2e.conditionitems.Flat-Footed]{Flat-Footed} until the start of your next turn.</p>\n<p>The triggering creature chooses whether to be moved or become flat-footed. If it chooses to be moved, you choose the direction. If the Shove would cause it to hit a solid object, enter a square of difficult terrain, or enter another creature's space, it must become flat-footed instead of being moved.</p>"
        },
        "featType": {
            "value": "class"
        },
        "level": {
            "value": 2
        },
        "prerequisites": {
            "value": []
        },
        "rules": [],
        "schema": {
            "lastMigration": null,
            "version": 0.643
        },
        "source": {
            "value": ""
        },
        "traits": {
            "custom": "",
            "rarity": {
                "value": "common"
            },
            "value": [
                "fighter"
            ]
        }
    },
    "effects": [],
    "flags": {},
    "img": "systems/pf2e/icons/features/feats/feats.webp",
    "name": "Aggressive Block",
    "type": "feat"
}
