{
    "_id": "Tu1hOEr6Ko9Df54L",
    "data": {
        "actionCategory": {
            "value": ""
        },
        "actionType": {
            "value": "passive"
        },
        "actions": {
            "value": ""
        },
        "description": {
            "chat": "",
            "unidentified": "",
            "value": "<p>You know how to calculatedly manipulate joints and body weight. In addition to using @Compendium[pf2e.actionspf2e.Devise a Stratagem]{Devise a Strategem} to modify a Strike, you can use it to modify a @Compendium[pf2e.actionspf2e.Disarm]{Disarm}, @Compendium[pf2e.actionspf2e.Grapple]{Grapple}, @Compendium[pf2e.actionspf2e.Shove]{Shove}, or @Compendium[pf2e.actionspf2e.Trip]{Trip} attempt, substituting your Devise a Stratagem roll for the Athletics check. You must apply the substitution to the first eligible attack you make, whether it's a @Compendium[pf2e.actionspf2e.Strike]{Strike} or one of the Athletics actions.</p>\n<p>You can also use your Intelligence modifier instead of Strength for the Athletics check when you substitute your Devise a Stratagem roll, unless you're using a weapon for the maneuver and the weapon doesn't fit the restrictions for using Intelligence with a stratagem.</p>"
        },
        "featType": {
            "value": "class"
        },
        "level": {
            "value": 2
        },
        "location": "",
        "prerequisites": {
            "value": [
                {
                    "value": "trained in Athletics"
                }
            ]
        },
        "rules": [
            {
                "key": "PF2E.RuleElement.FlatModifier",
                "predicate": {
                    "all": [
                        "devise-a-stratagem"
                    ],
                    "any": [
                        "action:disarm",
                        "action:grapple",
                        "action:shove",
                        "action:trip"
                    ]
                },
                "roll-options": [
                    "all"
                ],
                "selector": "athletics",
                "type": "ability",
                "value": "@abilities.int.mod"
            }
        ],
        "schema": {
            "lastMigration": null,
            "version": 0.643
        },
        "source": {
            "value": ""
        },
        "traits": {
            "custom": "",
            "rarity": {
                "value": "common"
            },
            "value": [
                "investigator"
            ]
        }
    },
    "effects": [],
    "flags": {},
    "img": "systems/pf2e/icons/features/feats/feats.webp",
    "name": "Athletic Strategist",
    "type": "feat"
}
