{
    "_id": "Y5ompgSd1JGSHt0C",
    "data": {
        "actionCategory": {
            "value": ""
        },
        "actionType": {
            "value": "action"
        },
        "actions": {
            "value": "1"
        },
        "description": {
            "chat": "",
            "unidentified": "",
            "value": "<p>You open vestigial eyes, unfurl tympanic flaps of skin, or otherwise enhance your senses. Until the start of your next turn, you gain the following benefits: you can’t be flanked; when you Seek for creatures, you can scan a 60-foot cone or a 30-foot burst instead of the normal area; and when you Seek for hidden objects, you can search a 15-foot square instead of the normal area.</p>"
        },
        "featType": {
            "value": "ancestry"
        },
        "level": {
            "value": 13
        },
        "location": "",
        "prerequisites": {
            "value": []
        },
        "rules": [],
        "schema": {
            "lastMigration": null,
            "version": 0.643
        },
        "source": {
            "value": ""
        },
        "traits": {
            "custom": "",
            "rarity": {
                "value": "common"
            },
            "value": [
                "fleshwarp"
            ]
        }
    },
    "effects": [],
    "flags": {},
    "img": "systems/pf2e/icons/features/feats/feats.webp",
    "name": "Augment Senses",
    "type": "feat"
}
