{
    "_id": "s6wXcQYmHbew14gC",
    "data": {
        "actionCategory": {
            "value": ""
        },
        "actionType": {
            "value": "passive"
        },
        "actions": {
            "value": ""
        },
        "description": {
            "chat": "",
            "unidentified": "",
            "value": "<p>You are particularly skilled at using a shield in combat. You gain the @Compendium[pf2e.feats-srd.Reactive Shield]{Reactive Shield} feat. This fulfills any prerequisites requiring Reactive Shield as normal.</p>\n<p><strong>Special</strong> You can't select another dedication feat until you have gained two other feats from the bastion archetype.</p>"
        },
        "featType": {
            "value": "archetype"
        },
        "level": {
            "value": 2
        },
        "prerequisites": {
            "value": [
                {
                    "value": "Shield Block"
                }
            ]
        },
        "rules": [],
        "schema": {
            "lastMigration": null,
            "version": 0.643
        },
        "source": {
            "value": ""
        },
        "traits": {
            "custom": "",
            "rarity": {
                "value": "common"
            },
            "value": [
                "archetype",
                "dedication"
            ]
        }
    },
    "effects": [],
    "flags": {},
    "img": "systems/pf2e/icons/features/feats/feats.webp",
    "name": "Bastion Dedication",
    "type": "feat"
}
