{
    "_id": "dxujgA0NgiEvA0H8",
    "data": {
        "actionCategory": {
            "value": ""
        },
        "actionType": {
            "value": "action"
        },
        "actions": {
            "value": "1"
        },
        "description": {
            "chat": "",
            "unidentified": "",
            "value": "<p>Your blow inflicts profuse bleeding. Make a slashing or piercing Strike with a weapon or unarmed attack that allows you to add your precise strike damage.</p>\n<p>If you hit, the target also takes @Compendium[pf2e.conditionitems.Persistent Damage]{Persistent Bleed Damage} equal to your precise strike finisher damage.</p>"
        },
        "featType": {
            "value": "class"
        },
        "level": {
            "value": 8
        },
        "location": "",
        "prerequisites": {
            "value": []
        },
        "rules": [],
        "schema": {
            "lastMigration": null,
            "version": 0.643
        },
        "source": {
            "value": ""
        },
        "traits": {
            "custom": "",
            "rarity": {
                "value": "common"
            },
            "value": [
                "finisher",
                "swashbuckler"
            ]
        }
    },
    "effects": [],
    "flags": {},
    "img": "systems/pf2e/icons/features/feats/feats.webp",
    "name": "Bleeding Finisher",
    "type": "feat"
}
