{
    "_id": "dz1rHYk3n9pUFfgm",
    "data": {
        "actionCategory": {
            "value": ""
        },
        "actionType": {
            "value": "passive"
        },
        "actions": {
            "value": ""
        },
        "description": {
            "chat": "",
            "unidentified": "",
            "value": "<p>You pour negative energy into toxins you create to further debilitate your targets. When you @Compendium[pf2e.actionspf2e.Craft]{Craft} an alchemical poison (rather than create it with advanced alchemy, Quick Alchemy, or another means), it becomes a blessed alchemical poison and gains the negative trait. When a creature is afflicted with a blessed alchemical poison, for 1 round, any Hit Points it would regain from a positive effect are reduced by 5, or by 10 if you are legendary in Crafting.</p>"
        },
        "featType": {
            "value": "skill"
        },
        "level": {
            "value": 7
        },
        "prerequisites": {
            "value": [
                {
                    "value": "master in Crafting"
                },
                {
                    "value": "deity who grants harm divine font"
                }
            ]
        },
        "rules": [],
        "schema": {
            "lastMigration": null,
            "version": 0.643
        },
        "source": {
            "value": ""
        },
        "traits": {
            "custom": "",
            "rarity": {
                "value": "common"
            },
            "value": [
                "general",
                "skill",
                "negative"
            ]
        }
    },
    "effects": [],
    "flags": {},
    "img": "systems/pf2e/icons/features/feats/feats.webp",
    "name": "Bless Toxin",
    "type": "feat"
}
