{
    "_id": "UHyoXbp8O6idQ6ee",
    "data": {
        "actionCategory": {
            "value": ""
        },
        "actionType": {
            "value": "passive"
        },
        "actions": {
            "value": ""
        },
        "description": {
            "chat": "",
            "unidentified": "",
            "value": "<p>You channel positive energy into restoratives that ward against harm. When you @Compendium[pf2e.actionspf2e.Craft]{Craft} an alchemical item that restores Hit Points (rather than create it with advanced alchemy, Quick Alchemy, or another means), it becomes a blessed alchemical item and gains the positive trait. For example, an @Compendium[pf2e.equipment-srd.Elixir of Life (Minor)]{Elixir of Life} would become a blessed elixir of life. When a creature regains Hit Points using a blessed alchemical item, the overflowing energy grants them negative resistance 5 for 1 round, or negative resistance 10 if you are legendary in Crafting.</p>"
        },
        "featType": {
            "value": "skill"
        },
        "level": {
            "value": 7
        },
        "prerequisites": {
            "value": [
                {
                    "value": "master in Crafting"
                },
                {
                    "value": "deity who grants heal divine font"
                }
            ]
        },
        "rules": [],
        "schema": {
            "lastMigration": null,
            "version": 0.643
        },
        "source": {
            "value": ""
        },
        "traits": {
            "custom": "",
            "rarity": {
                "value": "common"
            },
            "value": [
                "general",
                "skill",
                "positive"
            ]
        }
    },
    "effects": [],
    "flags": {},
    "img": "systems/pf2e/icons/features/feats/feats.webp",
    "name": "Bless Tonic",
    "type": "feat"
}
