{
    "_id": "ZvPgibovxwiN8Wse",
    "data": {
        "actionCategory": {
            "value": ""
        },
        "actionType": {
            "value": "passive"
        },
        "actions": {
            "value": ""
        },
        "description": {
            "chat": "",
            "unidentified": "",
            "value": "<p>You call upon the creatures of nature to come to your aid. You can spend 10 minutes in concert with nature to replace one of the spells you've prepared in one of your druid spell slots with a @Compendium[pf2e.spells-srd.Summon Animal]{Summon Animal} or @Compendium[pf2e.spells-srd.Summon Plant or Fungus]{Summon Plant or Fungus} spell of the same level.</p>"
        },
        "featType": {
            "value": "class"
        },
        "level": {
            "value": 2
        },
        "location": "",
        "prerequisites": {
            "value": []
        },
        "rules": [],
        "schema": {
            "lastMigration": null,
            "version": 0.643
        },
        "source": {
            "value": ""
        },
        "traits": {
            "custom": "",
            "rarity": {
                "value": "common"
            },
            "value": [
                "druid"
            ]
        }
    },
    "effects": [],
    "flags": {},
    "img": "systems/pf2e/icons/features/feats/feats.webp",
    "name": "Call of the Wild",
    "type": "feat"
}
