{
    "_id": "KL3Pk10ReItAHTw9",
    "data": {
        "actionCategory": {
            "value": ""
        },
        "actionType": {
            "value": "passive"
        },
        "actions": {
            "value": ""
        },
        "description": {
            "chat": "",
            "unidentified": "",
            "value": "<p>You can call forth a holy word from the celestial realms to punish your foes. Once per day, you can cast @Compendium[pf2e.spells-srd.Divine Decree]{Divine Decree} as a 7th-level divine innate spell.</p>\n<p>You must choose good for the spell's alignment, and you can Cast the Spell regardless of whether you worship a deity or what their alignment is.</p>"
        },
        "featType": {
            "value": "ancestry"
        },
        "level": {
            "value": 17
        },
        "prerequisites": {
            "value": []
        },
        "rules": [],
        "schema": {
            "lastMigration": null,
            "version": 0.643
        },
        "source": {
            "value": ""
        },
        "traits": {
            "custom": "",
            "rarity": {
                "value": "common"
            },
            "value": [
                "aasimar"
            ]
        }
    },
    "effects": [],
    "flags": {},
    "img": "systems/pf2e/icons/features/feats/feats.webp",
    "name": "Celestial Word",
    "type": "feat"
}
