{
    "_id": "a2wXdQHiIoj3lHoe",
    "data": {
        "actionCategory": {
            "value": ""
        },
        "actionType": {
            "value": "action"
        },
        "actions": {
            "value": "1"
        },
        "description": {
            "chat": "",
            "unidentified": "",
            "value": "<p><strong>Frequency</strong> once per round</p>\n<hr />\n<p>Choose one spell with a sustained duration that one of your allies has in effect. You must be within 30 feet of the chosen ally. The ally can Sustain the Spell once as a free action, triggered at the start of their next turn.</p>"
        },
        "featType": {
            "value": "archetype"
        },
        "level": {
            "value": 12
        },
        "prerequisites": {
            "value": [
                {
                    "value": "Spellmaster Dedication"
                }
            ]
        },
        "rules": [],
        "schema": {
            "lastMigration": null,
            "version": 0.643
        },
        "source": {
            "value": ""
        },
        "traits": {
            "custom": "",
            "rarity": {
                "value": "common"
            },
            "value": [
                "archetype"
            ]
        }
    },
    "effects": [],
    "flags": {},
    "img": "systems/pf2e/icons/features/feats/feats.webp",
    "name": "Communal Sustain",
    "type": "feat"
}
