{
    "_id": "d8yggbcJsKKyHip7",
    "data": {
        "actionCategory": {
            "value": ""
        },
        "actionType": {
            "value": "passive"
        },
        "actions": {
            "value": ""
        },
        "description": {
            "chat": "",
            "unidentified": "",
            "value": "<p>When you successfully @Compendium[pf2e.feats-srd.Counterspell (Spontaneous)]{Counterspell} a spell of the tradition that matches your bloodline, you consume it, replenishing yourself with its energy.</p>\n<p>When you do, you are nourished as if you had eaten a meal and regain Hit Points equal to twice the level of the counteracted spell.</p>"
        },
        "featType": {
            "value": "class"
        },
        "level": {
            "value": 14
        },
        "location": "",
        "prerequisites": {
            "value": [
                {
                    "value": "Counterspell"
                }
            ]
        },
        "rules": [],
        "schema": {
            "lastMigration": null,
            "version": 0.643
        },
        "source": {
            "value": ""
        },
        "traits": {
            "custom": "",
            "rarity": {
                "value": "common"
            },
            "value": [
                "sorcerer"
            ]
        }
    },
    "effects": [],
    "flags": {},
    "img": "systems/pf2e/icons/features/feats/feats.webp",
    "name": "Consume Spell",
    "type": "feat"
}
