{
    "_id": "bSXcyu7ExWq9qUzG",
    "data": {
        "actionCategory": {
            "value": ""
        },
        "actionType": {
            "value": "reaction"
        },
        "actions": {
            "value": ""
        },
        "description": {
            "chat": "",
            "unidentified": "",
            "value": "<p><strong>Trigger</strong> A creature succeeded, but didn't critically succeed, at a Perception check or Will save to disbelieve an illusion from a spell that you cast.</p>\n<p><strong>Requirements</strong> You are within 30 feet of the observer and <br />the illusion.</p>\n<hr />\n<p>You use your deceptive skills to make your illusions seem even more real. Attempt a Deception check against the target's Perception DC. If you succeed, the target fails to disbelieve the illusion.</p>"
        },
        "featType": {
            "value": "class"
        },
        "level": {
            "value": 6
        },
        "prerequisites": {
            "value": [
                {
                    "value": "expert in Deception"
                }
            ]
        },
        "rules": [],
        "schema": {
            "lastMigration": null,
            "version": 0.643
        },
        "source": {
            "value": ""
        },
        "traits": {
            "custom": "",
            "rarity": {
                "value": "common"
            },
            "value": [
                "illusion",
                "wizard"
            ]
        }
    },
    "effects": [],
    "flags": {},
    "img": "systems/pf2e/icons/features/feats/feats.webp",
    "name": "Convincing Illusion",
    "type": "feat"
}
