{
    "_id": "PsLne80WUsD4IFa6",
    "data": {
        "actionCategory": {
            "value": "interaction"
        },
        "actionType": {
            "value": "passive"
        },
        "actions": {
            "value": "2"
        },
        "description": {
            "chat": "",
            "unidentified": "",
            "value": "<p><strong>Requirements</strong> You are standing on dirt, sand, snow, or similar particulate material.<br /></p>\n<hr />\n<p>Your hands work as effectively as shovels when you need to dig a quick hole. You dig a shallow pit in the square you currently occupy, turning the square into difficult terrain (including for you). In addition, you also kick up a cloud of grit in a direction of your choice. The cloud extinguishes small, unattended, non-magical fires and helps smother the flames on burning creatures located within the cone; creatures in this cone that are taking @Compendium[pf2e.conditionitems.Persistent Damage]{Persistent fire Damage} can immediately attempt an additional flat DC 15 check to end the persistent damage.</p>"
        },
        "featType": {
            "value": "ancestry"
        },
        "level": {
            "value": 1
        },
        "prerequisites": {
            "value": []
        },
        "rules": [],
        "schema": {
            "lastMigration": null,
            "version": 0.643
        },
        "source": {
            "value": "Pathfinder #153: Life's Long Shadows"
        },
        "traits": {
            "custom": "",
            "rarity": {
                "value": "common"
            },
            "value": [
                "manipulate",
                "shoony"
            ]
        }
    },
    "effects": [],
    "flags": {},
    "img": "systems/pf2e/icons/features/feats/feats.webp",
    "name": "Dig Quickly",
    "type": "feat"
}
