{
    "_id": "1p5ErCp33nGOzEsk",
    "data": {
        "actionCategory": {
            "value": ""
        },
        "actionType": {
            "value": "action"
        },
        "actions": {
            "value": "1"
        },
        "description": {
            "chat": "",
            "unidentified": "",
            "value": "<p><strong>Requirements</strong> You are wielding only a single one-handed melee weapon and have your other hand or hands free.</p>\n<hr />\n<p>You adopt a fencing stance that improves your control over your weapon.</p>\n<p>While you are in this stance, you gain a +1 circumstance bonus to Athletics checks to @Compendium[pf2e.actionspf2e.Disarm]{Disarm} and a +2 circumstance bonus to your Reflex DC when defending against checks to Disarm you. In addition, you can attempt to Disarm creatures up to two sizes larger than you.</p>\n<p>@Compendium[pf2e.feat-effects.Stance: Disarming Stance]{Stance: Disarming Stance}</p>"
        },
        "featType": {
            "value": "class"
        },
        "level": {
            "value": 6
        },
        "location": "",
        "prerequisites": {
            "value": [
                {
                    "value": "trained in Athletics"
                }
            ]
        },
        "rules": [],
        "schema": {
            "lastMigration": null,
            "version": 0.643
        },
        "source": {
            "value": ""
        },
        "traits": {
            "custom": "",
            "rarity": {
                "value": "common"
            },
            "value": [
                "fighter",
                "stance"
            ]
        }
    },
    "effects": [],
    "flags": {},
    "img": "systems/pf2e/icons/features/feats/feats.webp",
    "name": "Disarming Stance",
    "type": "feat"
}
