{
    "_id": "OjvE7gaQgWiBqOhY",
    "data": {
        "actionCategory": {
            "value": ""
        },
        "actionType": {
            "value": "action"
        },
        "actions": {
            "value": "1"
        },
        "description": {
            "chat": "",
            "unidentified": "",
            "value": "<p><strong>Requirements</strong> You have successfully identified the target with Recall Knowledge during this combat.</p>\n<hr />\n<p>Identifying a creature is the first step in finding its weaknesses. Attempt a Strike against the target; if successful, you deal an additional [[/r 1d6 #precision]] precision damage. If you have succeeded on a Recall Knowledge check against the target during this combat and their creature type was previously recorded using @Compendium[pf2e.feats-srd.Thorough Reports]{Thorough Reports}, you also deal [[/r 1 #persistent bleed]] point of persistent bleed damage. The creature is then temporarily immune to Discerning Strike for 1 day.</p>"
        },
        "featType": {
            "value": "archetype"
        },
        "level": {
            "value": 6
        },
        "prerequisites": {
            "value": [
                {
                    "value": "Pathfinder Agent Dedication"
                },
                {
                    "value": "Thorough Reports"
                }
            ]
        },
        "rules": [],
        "schema": {
            "lastMigration": null,
            "version": 0.643
        },
        "source": {
            "value": ""
        },
        "traits": {
            "custom": "",
            "rarity": {
                "value": "common"
            },
            "value": [
                "archetype"
            ]
        }
    },
    "effects": [],
    "flags": {},
    "img": "systems/pf2e/icons/features/feats/feats.webp",
    "name": "Discerning Strike",
    "type": "feat"
}
