{
    "_id": "3WUL8ExEkZDRYeBu",
    "data": {
        "actionCategory": {
            "value": ""
        },
        "actionType": {
            "value": "passive"
        },
        "actions": {
            "value": ""
        },
        "description": {
            "chat": "",
            "unidentified": "",
            "value": "<p>You sense magical dangers. When using the @Compendium[pf2e.actionspf2e.Detect Magic]{Detect Magic} exploration activity, you can roll initiative twice and use the better result so long as at least one opponent has a magical effect or magic item and is in range of your Detect Magic.</p>"
        },
        "featType": {
            "value": "class"
        },
        "level": {
            "value": 12
        },
        "prerequisites": {
            "value": []
        },
        "rules": [],
        "schema": {
            "lastMigration": null,
            "version": 0.643
        },
        "source": {
            "value": ""
        },
        "traits": {
            "custom": "",
            "rarity": {
                "value": "common"
            },
            "value": [
                "divination",
                "fortune",
                "wizard"
            ]
        }
    },
    "effects": [],
    "flags": {},
    "img": "systems/pf2e/icons/features/feats/feats.webp",
    "name": "Diviner Sense",
    "type": "feat"
}
