{
    "_id": "kqnFdIhToKTnOpMl",
    "data": {
        "actionCategory": {
            "value": ""
        },
        "actionType": {
            "value": "passive"
        },
        "actions": {
            "value": ""
        },
        "description": {
            "chat": "",
            "unidentified": "",
            "value": "<p>You are the child of a night hag, making one of your eyes violet or even black. Your mother's powers over sleep and dreams have given you a degree of resistance to those effects, granting you a +2 circumstance bonus to all saving throws against sleep effects and effects that cause or alter dreams.</p>\n<p>In addition, sleep is more restorative for you. You regain HP equal to your Constitution modifier times double your level instead of just times your level, and you reduce any drained and doomed conditions you have by 2 instead of by 1.</p>"
        },
        "featType": {
            "value": "ancestry"
        },
        "level": {
            "value": 1
        },
        "prerequisites": {
            "value": []
        },
        "rules": [],
        "schema": {
            "lastMigration": null,
            "version": 0.643
        },
        "source": {
            "value": ""
        },
        "traits": {
            "custom": "",
            "rarity": {
                "value": "common"
            },
            "value": [
                "changeling",
                "lineage"
            ]
        }
    },
    "effects": [],
    "flags": {},
    "img": "systems/pf2e/icons/features/feats/feats.webp",
    "name": "Dream May",
    "type": "feat"
}
