{
    "_id": "9cHQua33V35JPE3U",
    "data": {
        "actionCategory": {
            "value": ""
        },
        "actionType": {
            "value": "reaction"
        },
        "actions": {
            "value": ""
        },
        "description": {
            "chat": "",
            "unidentified": "",
            "value": "<p><strong>Trigger</strong> An ally benefiting from one of your composition spells is subject to an effect with the auditory, illusion, linguistic, sonic, or visual trait.</p>\n<hr />\n<p>You tweak the properties of your composition spell to convey a bit of your defensive knowledge.</p>\n<p>All allies affected by your composition spell gain your +1 circumstance bonus from Well-Versed until the start of your next turn. @Compendium[pf2e.feat-effects.Effect: Educate Allies (Ally)]{Effect: Educate Allies (Ally)}</p>\n<p>Teaching your allies also bolsters your own skills; your personal circumstance bonus from Well-Versed also increases to +2 until the start of your next turn. @Compendium[pf2e.feat-effects.Effect: Educate Allies (Self)]{Effect: Educate Allies (Self)}</p>"
        },
        "featType": {
            "value": "class"
        },
        "level": {
            "value": 6
        },
        "location": "",
        "prerequisites": {
            "value": [
                {
                    "value": "Well-Versed"
                }
            ]
        },
        "rules": [],
        "schema": {
            "lastMigration": null,
            "version": 0.643
        },
        "source": {
            "value": ""
        },
        "traits": {
            "custom": "",
            "rarity": {
                "value": "common"
            },
            "value": [
                "abjuration",
                "bard",
                "concentrate"
            ]
        }
    },
    "effects": [],
    "flags": {},
    "img": "systems/pf2e/icons/features/feats/feats.webp",
    "name": "Educate Allies",
    "type": "feat"
}
