{
    "_id": "RJClD7YYsAFutxNs",
    "data": {
        "actionCategory": {
            "value": ""
        },
        "actionType": {
            "value": "passive"
        },
        "actions": {
            "value": ""
        },
        "description": {
            "chat": "",
            "unidentified": "",
            "value": "<p>You’ve devoted yourself to researching the secrets of the Inner Sphere. You gain the trained proficiency in your choice of Survival and either Arcana or Nature. If you would automatically become trained in Survival (from your background or class, for example), you instead become trained in a skill of your choice. You also become trained in the Lore associated with your Elemental Plane of origin (such as Plane of Fire Lore).</p>"
        },
        "featType": {
            "value": "ancestry"
        },
        "level": {
            "value": 1
        },
        "location": "",
        "prerequisites": {
            "value": []
        },
        "rules": [],
        "schema": {
            "lastMigration": null,
            "version": 0.643
        },
        "source": {
            "value": ""
        },
        "traits": {
            "custom": "",
            "rarity": {
                "value": "common"
            },
            "value": [
                "ifrit",
                "oread",
                "suli",
                "sylph",
                "undine"
            ]
        }
    },
    "effects": [],
    "flags": {},
    "img": "systems/pf2e/icons/features/feats/feats.webp",
    "name": "Elemental Lore",
    "type": "feat"
}
