{
    "_id": "eD3KZJV8ACLt2xns",
    "data": {
        "actionCategory": {
            "value": ""
        },
        "actionType": {
            "value": "passive"
        },
        "actions": {
            "value": ""
        },
        "description": {
            "chat": "",
            "unidentified": "",
            "value": "<p>While all elves are immune to the paralyzing touch of ghouls, you can shake off flesh-numbing magic of all kinds. You gain a +1 circumstance bonus to saves against effects that would impose the @Compendium[pf2e.conditionitems.Immobilized]{Immobilized},@Compendium[pf2e.conditionitems.Paralyzed]{Paralyzed}, or @Compendium[pf2e.conditionitems.Slowed]{Slowed}conditions. When you would be immobilized, paralyzed, or slowed for at least 2 rounds, reduce that duration by 1 round.</p>"
        },
        "featType": {
            "value": "ancestry"
        },
        "level": {
            "value": 1
        },
        "location": "",
        "prerequisites": {
            "value": []
        },
        "rules": [
            {
                "key": "PF2E.RuleElement.FlatModifier",
                "label": "Against effects that would make you Immobilized, Paralyzed, or Slowed",
                "predicate": {
                    "any": [
                        "effect:slowed",
                        "effect:immobilized",
                        "effect:paralyzed"
                    ]
                },
                "selector": "saving-throw",
                "type": "circumstance",
                "value": 1
            }
        ],
        "schema": {
            "lastMigration": null,
            "version": 0.643
        },
        "source": {
            "value": ""
        },
        "traits": {
            "custom": "",
            "rarity": {
                "value": "common"
            },
            "value": [
                "elf"
            ]
        }
    },
    "effects": [],
    "flags": {},
    "img": "systems/pf2e/icons/features/feats/feats.webp",
    "name": "Elven Verve",
    "type": "feat"
}
