{
    "_id": "Y8sKn8NH1wC7Mrui",
    "data": {
        "actionCategory": {
            "value": ""
        },
        "actionType": {
            "value": "passive"
        },
        "actions": {
            "value": ""
        },
        "description": {
            "chat": "",
            "unidentified": "",
            "value": "<p>Your incisors have grown into true fangs: long, sharp, and well-suited to drawing blood.</p>\n<p>You gain a fangs unarmed attack that deals <a class=\"inline-roll roll\" data-mode=\"roll\" data-flavor=\"piercing\" data-formula=\"1d6\" title=\"piercing\"><i class=\"fas fa-dice-d20\"></i> 1d6</a> piercing damage. Your fangs are in the brawling group and have the grapple and unarmed traits.</p>"
        },
        "featType": {
            "value": "ancestry"
        },
        "level": {
            "value": 1
        },
        "prerequisites": {
            "value": []
        },
        "rules": [],
        "schema": {
            "lastMigration": null,
            "version": 0.643
        },
        "source": {
            "value": ""
        },
        "traits": {
            "custom": "",
            "rarity": {
                "value": "common"
            },
            "value": [
                "dhampir"
            ]
        }
    },
    "effects": [],
    "flags": {},
    "img": "systems/pf2e/icons/features/feats/feats.webp",
    "name": "Fangs",
    "type": "feat"
}
