{
    "_id": "xjE123p2rPTsz1eV",
    "data": {
        "actionCategory": {
            "value": ""
        },
        "actionType": {
            "value": "passive"
        },
        "actions": {
            "value": ""
        },
        "description": {
            "chat": "",
            "unidentified": "",
            "value": "<p>Your festering connection to the forces of evil infuses your weapons with debilitating malevolence, tearing down creatures of good with every attack.</p>\n<p>All your weapon and unarmed @Compendium[pf2e.actionspf2e.Strike]{Strikes} deal [[/r 1 #evil]] additional evil damage and have the evil and magical traits.</p>"
        },
        "featType": {
            "value": "ancestry"
        },
        "level": {
            "value": 13
        },
        "prerequisites": {
            "value": []
        },
        "rules": [],
        "schema": {
            "lastMigration": null,
            "version": 0.643
        },
        "source": {
            "value": ""
        },
        "traits": {
            "custom": "",
            "rarity": {
                "value": "common"
            },
            "value": [
                "tiefling"
            ]
        }
    },
    "effects": [],
    "flags": {},
    "img": "systems/pf2e/icons/features/feats/feats.webp",
    "name": "Fiendish Strikes",
    "type": "feat"
}
