{
    "_id": "cmuvvPJvt2R16vGe",
    "data": {
        "actionCategory": {
            "value": ""
        },
        "actionType": {
            "value": "passive"
        },
        "actions": {
            "value": ""
        },
        "description": {
            "chat": "",
            "unidentified": "",
            "value": "<p>When using @Compendium[pf2e.feats-srd.Natural Medicine]{Natural Medicine} to @Compendium[pf2e.actionspf2e.Treat Wounds]{Treat Wounds}, you can spend a batch of herbs to gain the +2 circumstance bonus from having fresh ingredients, even if not in wilderness. If you spend a batch of herbs in wilderness, you gain a +4 circumstance bonus instead.</p>"
        },
        "featType": {
            "value": "skill"
        },
        "level": {
            "value": 2
        },
        "prerequisites": {
            "value": [
                {
                    "value": "Herbalist Dedication"
                },
                {
                    "value": "expert in Nature"
                }
            ]
        },
        "rules": [],
        "schema": {
            "lastMigration": null,
            "version": 0.643
        },
        "source": {
            "value": ""
        },
        "traits": {
            "custom": "",
            "rarity": {
                "value": "common"
            },
            "value": [
                "archetype",
                "skill"
            ]
        }
    },
    "effects": [],
    "flags": {},
    "img": "systems/pf2e/icons/features/feats/feats.webp",
    "name": "Fresh Ingredients",
    "type": "feat"
}
