{
    "_id": "scA2b141swxUPw8M",
    "data": {
        "actionCategory": {
            "value": ""
        },
        "actionType": {
            "value": "passive"
        },
        "actions": {
            "value": ""
        },
        "description": {
            "value": "<p>Garudas' marksmanship and magic are second nature to you. Whenever you critically hit using a bow, you apply the weapon's critical specialization effect.</p>"
        },
        "featType": {
            "value": "ancestry"
        },
        "level": {
            "value": 5
        },
        "location": "",
        "prerequisites": {
            "value": [
                {
                    "value": "Plumekith"
                }
            ]
        },
        "rules": [
            {
                "key": "PF2E.RuleElement.Note",
                "outcome": [
                    "criticalSuccess"
                ],
                "selector": "bow-weapon-group-damage",
                "text": "<p class='compact-text'><strong>Critical Specialization</strong>: If the target of the critical hit is adjacent to a surface, it gets stuck to that surface by the missile. The target is @Compendium[pf2e.conditionitems.Immobilized]{Immobilized} and must spend an Interact action to attempt a DC 10 Athletics check to pull the missile free; it can’t move from its space until it succeeds. The creature doesn’t become stuck if it is incorporeal, is liquid (like a water elemental or some oozes), or could otherwise escape without effort.</p>"
            }
        ],
        "schema": {
            "lastMigration": null,
            "version": 0.643
        },
        "source": {
            "value": ""
        },
        "traits": {
            "custom": "",
            "rarity": {
                "value": "common"
            },
            "value": [
                "aasimar",
                "lineage"
            ]
        }
    },
    "effects": [],
    "flags": {},
    "img": "systems/pf2e/icons/features/feats/feats.webp",
    "name": "Garuda's Squall",
    "type": "feat"
}
