{
    "_id": "3zr5Gt5LgHsMNpSO",
    "data": {
        "actionCategory": {
            "value": ""
        },
        "actionType": {
            "value": "passive"
        },
        "actions": {
            "value": ""
        },
        "description": {
            "chat": "",
            "unidentified": "",
            "value": "<p>You favor unusual weapons tied to your people, such as blades with curved and peculiar shapes. You are trained with the @Compendium[pf2e.equipment-srd.Glaive]{Glaive} and @Compendium[pf2e.equipment-srd.Kukri]{Kukri}.</p>\n<p>In addition, you gain access to kukris and all uncommon gnome weapons. For the purpose of determining your proficiency, martial gnome weapons are simple weapons and advanced gnome weapons are martial weapons.</p>"
        },
        "featType": {
            "value": "ancestry"
        },
        "level": {
            "value": 1
        },
        "location": "",
        "prerequisites": {
            "value": []
        },
        "rules": [],
        "schema": {
            "lastMigration": null,
            "version": 0.643
        },
        "source": {
            "value": ""
        },
        "traits": {
            "custom": "",
            "rarity": {
                "value": "common"
            },
            "value": [
                "gnome"
            ]
        }
    },
    "effects": [
        {
            "_id": "rhOGSMJhHsInXUTw",
            "changes": [
                {
                    "key": "data.martial.weapon-base-glaive.rank",
                    "mode": 4,
                    "value": "1"
                },
                {
                    "key": "data.martial.weapon-base-kukri.rank",
                    "mode": 4,
                    "value": "1"
                },
                {
                    "key": "data.martial.martial.familiarity",
                    "mode": 5,
                    "value": "{ \"trait\": \"gnome\", \"category\": \"advanced\" }"
                },
                {
                    "key": "data.martial.simple.familiarity",
                    "mode": 5,
                    "value": "{ \"trait\": \"gnome\", \"category\": \"martial\" }"
                }
            ],
            "disabled": false,
            "duration": {
                "startTime": null
            },
            "flags": {},
            "icon": "systems/pf2e/icons/features/feats/feats.webp",
            "label": "Gnome Weapon Familiarity",
            "origin": "",
            "tint": null,
            "transfer": true
        }
    ],
    "flags": {},
    "img": "systems/pf2e/icons/features/feats/feats.webp",
    "name": "Gnome Weapon Familiarity",
    "type": "feat"
}
