{
    "_id": "LDv6RVuDXJ9nOfhj",
    "data": {
        "actionCategory": {
            "value": ""
        },
        "actionType": {
            "value": "passive"
        },
        "actions": {
            "value": ""
        },
        "description": {
            "chat": "",
            "unidentified": "",
            "value": "<p>You refine your halcyon magic. You gain two common 4th-level halcyon spells and two 5th-level halcyon spells. You also gain a 4th-level halcyon spell slot and a 5th-level halcyon spell slot. Your proficiency rank in either arcane or primal spell DCs and spell attack rolls advances from trained to expert.</p>"
        },
        "featType": {
            "value": "archetype"
        },
        "level": {
            "value": 14
        },
        "prerequisites": {
            "value": [
                {
                    "value": "Halcyon Spellcasting Initiate"
                },
                {
                    "value": "master in either Arcana or Nature and expert in the other"
                }
            ]
        },
        "rules": [],
        "schema": {
            "lastMigration": null,
            "version": 0.643
        },
        "source": {
            "value": ""
        },
        "traits": {
            "custom": "",
            "rarity": {
                "value": "common"
            },
            "value": [
                "archetype"
            ]
        }
    },
    "effects": [],
    "flags": {},
    "img": "systems/pf2e/icons/features/feats/feats.webp",
    "name": "Halcyon Spellcasting Adept",
    "type": "feat"
}
