{
    "_id": "PGVXjbAi1Fa4uTmD",
    "data": {
        "actionCategory": {
            "value": ""
        },
        "actionType": {
            "value": "passive"
        },
        "actions": {
            "value": ""
        },
        "description": {
            "chat": "",
            "unidentified": "",
            "value": "<p>You are surrounded by a halo of light and goodness at all times.</p>\n<p>Your halo sheds light with the effects of a divine @Compendium[pf2e.spells-srd.Light]{Light} cantrip. A cantrip is heightened to a spell level equal to half your level rounded up.</p>\n<p>You can suppress or reestablish the halo with a single action, which has the concentrate trait.</p>"
        },
        "featType": {
            "value": "ancestry"
        },
        "level": {
            "value": 1
        },
        "prerequisites": {
            "value": []
        },
        "rules": [],
        "schema": {
            "lastMigration": null,
            "version": 0.643
        },
        "source": {
            "value": ""
        },
        "traits": {
            "custom": "",
            "rarity": {
                "value": "common"
            },
            "value": [
                "aasimar"
            ]
        }
    },
    "effects": [],
    "flags": {},
    "img": "systems/pf2e/icons/features/feats/feats.webp",
    "name": "Halo",
    "type": "feat"
}
