{
    "_id": "WVm2dxPOI4tK2wsJ",
    "data": {
        "actionCategory": {
            "value": ""
        },
        "actionType": {
            "value": "action"
        },
        "actions": {
            "value": "3"
        },
        "description": {
            "chat": "",
            "unidentified": "",
            "value": "<p><strong>Requirements</strong> You are wielding a ranged weapon with the volley trait and reload 0</p>\n<hr />\n<p>You fire a volley at all foes in an area. Make one Strike with a -2 penalty against each enemy within a 10-foot-radius burst centered at or beyond your weapon's volley range. Roll the damage only once for all targets.</p>\n<p>Each attack counts toward your multiple attack penalty, but do not increase your penalty until you have made all your attacks.</>"
        },
        "featType": {
            "value": "archetype"
        },
        "level": {
            "value": 20
        },
        "location": "",
        "prerequisites": {
            "value": []
        },
        "rules": [
            {
                "key": "PF2E.RuleElement.FlatModifier",
                "label": "Impossible Volley",
                "predicate": {
                    "all": [
                        "ranged",
                        "impossible-volley",
                        "volley-30",
                        "reload-0"
                    ]
                },
                "roll-options": [
                    "all"
                ],
                "selector": "attack",
                "value": -2
            }
        ],
        "schema": {
            "lastMigration": null,
            "version": 0.643
        },
        "source": {
            "value": ""
        },
        "traits": {
            "custom": "",
            "rarity": {
                "value": "common"
            },
            "value": [
                "flourish",
                "open"
            ]
        }
    },
    "effects": [],
    "flags": {},
    "img": "systems/pf2e/icons/features/feats/feats.webp",
    "name": "Impossible Volley (Eldritch Archer)",
    "type": "feat"
}
