{
    "_id": "FSxugo3zTgRhW7Og",
    "data": {
        "actionCategory": {
            "value": ""
        },
        "actionType": {
            "value": "action"
        },
        "actions": {
            "value": "1"
        },
        "description": {
            "chat": "",
            "unidentified": "",
            "value": "<p><strong>Requirements</strong> You are wielding an improvised weapon.</p>\n<hr />\n<p>You make a @Compendium[pf2e.actionspf2e.Strike]{Strike} with your wielded improvised weapon. You gain a +1 item bonus to the attack roll, and the Strike deals two weapon damage dice if it would have dealt fewer.</p>\n<p>If the attack is a critical hit, in addition to the effect of the critical hit, the improvised weapon breaks. If the item has a Hardness greater than your level, or if it's an artifact, cursed item, or other item that's difficult to break or destroy, the item doesn't break and the attack is a hit instead of a critical hit.</p>\n<p>At 12th level, your item bonus to the attack roll increases to +2 instead of +1, and at 16th level, the Strike deals three weapon damage dice if it would have dealt fewer, instead of two.</p>"
        },
        "featType": {
            "value": "archetype"
        },
        "level": {
            "value": 4
        },
        "prerequisites": {
            "value": [
                {
                    "value": "Weapon Improviser Dedication"
                }
            ]
        },
        "rules": [],
        "schema": {
            "lastMigration": null,
            "version": 0.643
        },
        "source": {
            "value": ""
        },
        "traits": {
            "custom": "",
            "rarity": {
                "value": "common"
            },
            "value": [
                "archetype"
            ]
        }
    },
    "effects": [],
    "flags": {},
    "img": "systems/pf2e/icons/features/feats/feats.webp",
    "name": "Improvised Pummel",
    "type": "feat"
}
