{
    "_id": "wGzKq2cx1b2Ycl4u",
    "data": {
        "actionCategory": {
            "value": ""
        },
        "actionType": {
            "value": "passive"
        },
        "actions": {
            "value": ""
        },
        "description": {
            "chat": "",
            "unidentified": "",
            "value": "<p><strong>Access</strong> Vahird ethnicity</p>\n<hr />\n<p>Your ancestors' defiance of magic and your people's strictly egalitarian mindset mean that certain forms of magic have little effect on you. When you use your @Compendium[pf2e.actionspf2e.Call on Ancient Blood]{Call on Ancient Blood} reaction against a divine spell and roll a critical failure on the saving throw against that spell, you get a failure instead.</p>"
        },
        "featType": {
            "value": "ancestry"
        },
        "level": {
            "value": 9
        },
        "prerequisites": {
            "value": [
                {
                    "value": "ancient-blooded dwarf heritage"
                }
            ]
        },
        "rules": [],
        "schema": {
            "lastMigration": null,
            "version": 0.643
        },
        "source": {
            "value": ""
        },
        "traits": {
            "custom": "",
            "rarity": {
                "value": "common"
            },
            "value": [
                "dwarf"
            ]
        }
    },
    "effects": [],
    "flags": {},
    "img": "systems/pf2e/icons/features/feats/feats.webp",
    "name": "Kneel for No God",
    "type": "feat"
}
