{
    "_id": "V5Y9r31BCTaCiNzi",
    "data": {
        "actionCategory": {
            "value": ""
        },
        "actionType": {
            "value": "passive"
        },
        "actions": {
            "value": ""
        },
        "description": {
            "chat": "",
            "unidentified": "",
            "value": "<p>You use your shield to protect your allies, not just yourself, especially against the undead. When you have a shield raised, you can use your @Compendium[pf2e.feats-srd.Shield Block]{Shield Block} reaction when an attack is made against an ally adjacent to you, in addition to its usual trigger. If you do, the shield prevents that ally from taking damage instead of you, following the normal rules for a Shield Block.<br /><br />If an undead makes an attack against an ally within 10 feet, you can Step to become adjacent to your ally and then use Shield Block as part of the same reaction.</p>"
        },
        "featType": {
            "value": "archetype"
        },
        "level": {
            "value": 10
        },
        "prerequisites": {
            "value": [
                {
                    "value": "Lastwall Sentry Dedication"
                }
            ]
        },
        "rules": [],
        "schema": {
            "lastMigration": null,
            "version": 0.643
        },
        "source": {
            "value": ""
        },
        "traits": {
            "custom": "",
            "rarity": {
                "value": "common"
            },
            "value": [
                "archetype"
            ]
        }
    },
    "effects": [],
    "flags": {},
    "img": "systems/pf2e/icons/features/feats/feats.webp",
    "name": "Lastwall Warden",
    "type": "feat"
}
