{
    "_id": "Zf4yiLDdxHPovEQI",
    "data": {
        "actionCategory": {
            "value": ""
        },
        "actionType": {
            "value": "passive"
        },
        "actions": {
            "value": ""
        },
        "description": {
            "chat": "",
            "unidentified": "",
            "value": "<p>Your skill with languages and codes is so great that you can decipher information with little more than a quick read through a text.</p>\n<p>You can Decipher Writing using Society while reading at normal speed.</p>\n<p>If you slow down and spend the full amount of time that's ordinarily required and roll a success, you get a critical success; if you critically succeed while spending the normal amount of time, you gain a nearly word-for-word understanding of the document.</p>"
        },
        "featType": {
            "value": "skill"
        },
        "level": {
            "value": 15
        },
        "location": "",
        "prerequisites": {
            "value": [
                {
                    "value": "legendary in Society"
                }
            ]
        },
        "rules": [
            {
                "key": "PF2E.RuleElement.Note",
                "predicate": {
                    "all": [
                        "action:decipher-writing"
                    ]
                },
                "selector": "society",
                "text": "<p class='compact-text'><strong>{item|name}</strong> If you Decipher Writing at the normal rate, and you roll a success, you get a critical success;  if you critically succeed while spending the normal amount of time, you gain a nearly word-for-word understanding of the document.</p>"
            }
        ],
        "schema": {
            "lastMigration": null,
            "version": 0.643
        },
        "source": {
            "value": ""
        },
        "traits": {
            "custom": "",
            "rarity": {
                "value": "common"
            },
            "value": [
                "general",
                "skill"
            ]
        }
    },
    "effects": [],
    "flags": {},
    "img": "systems/pf2e/icons/features/feats/feats.webp",
    "name": "Legendary Codebreaker",
    "type": "feat"
}
