{
    "_id": "ByqxxJkJiNFtjghh",
    "data": {
        "actionCategory": {
            "value": ""
        },
        "actionType": {
            "value": "reaction"
        },
        "actions": {
            "value": ""
        },
        "description": {
            "chat": "",
            "unidentified": "",
            "value": "<p><strong>Trigger</strong> You succeed at a Demoralize check.</p>\n<hr />\n<p><strong>Requirements</strong> You’re wearing your <em>warmask</em>.Your mask has grown into a manifestation of your pain, which you can release. The creature you successfully Demoralized takes [[/r 2d6 #mental]] mental damage, or [[/r 4d6 #mental]] mental damage if you’re legendary in Intimidation. The target is then temporarily immune to additional damage from Mask of Pain for 24 hours.</p>"
        },
        "featType": {
            "value": "ancestry"
        },
        "level": {
            "value": 9
        },
        "location": "",
        "prerequisites": {
            "value": [
                {
                    "value": "expert in Intimidation"
                },
                {
                    "value": "Orc Warmask"
                }
            ]
        },
        "rules": [],
        "schema": {
            "lastMigration": null,
            "version": 0.643
        },
        "source": {
            "value": ""
        },
        "traits": {
            "custom": "",
            "rarity": {
                "value": "common"
            },
            "value": [
                "orc"
            ]
        }
    },
    "effects": [],
    "flags": {},
    "img": "systems/pf2e/icons/features/feats/feats.webp",
    "name": "Mask Of Pain",
    "type": "feat"
}
