{
    "_id": "AwxJcaIrutqMcUC8",
    "data": {
        "actionCategory": {
            "value": ""
        },
        "actionType": {
            "value": "passive"
        },
        "actions": {
            "value": ""
        },
        "description": {
            "chat": "",
            "unidentified": "",
            "value": "<p>Your animal companion shares your incredible hunting skills, allowing it to take down your shared prey with ease. When you @Compendium[pf2e.actionspf2e.Hunt Prey]{Hunt Prey}, your animal companion gains the @Compendium[pf2e.classfeatures.Masterful Hunter]{Masterful Hunter} benefit associated with your hunter's edge, rather than just your original hunter's edge benefit.</p>\n<ul>\n<li>@Compendium[pf2e.feat-effects.Effect: Masterful Hunter's Edge, Flurry]{Effect: Masterful Hunter's Edge, Flurry}</li>\n<li>@Compendium[pf2e.feat-effects.Effect: Masterful Hunter's Edge, Outwit]{Effect: Masterful Hunter's Edge, Outwit}</li>\n<li>@Compendium[pf2e.feat-effects.Effect: Masterful Hunter's Edge, Precision]{Effect: Masterful Hunter's Edge, Precision}</li>\n</ul>"
        },
        "featType": {
            "value": "class"
        },
        "level": {
            "value": 18
        },
        "location": "",
        "prerequisites": {
            "value": [
                {
                    "value": "masterful hunter"
                },
                {
                    "value": "Animal Companion"
                }
            ]
        },
        "rules": [],
        "schema": {
            "lastMigration": null,
            "version": 0.643
        },
        "source": {
            "value": ""
        },
        "traits": {
            "custom": "",
            "rarity": {
                "value": "common"
            },
            "value": [
                "ranger"
            ]
        }
    },
    "effects": [],
    "flags": {},
    "img": "systems/pf2e/icons/features/feats/feats.webp",
    "name": "Masterful Companion",
    "type": "feat"
}
