{
    "_id": "TNV1cs1VFqdj4D2M",
    "data": {
        "actionCategory": {
            "value": ""
        },
        "actionType": {
            "value": "passive"
        },
        "actions": {
            "value": ""
        },
        "description": {
            "chat": "",
            "unidentified": "",
            "value": "<p>You've mastered the art of deceiving others about your area of study. When you gain this feat, choose one skill with the Recall Knowledge action in which you have attained master proficiency. You can attempt to deceive others about the truth of facts and knowledge related to that skill-such as by pretending to know something that you don't, planting false information, or the like-using the Lie action of the Deception skill. When you Lie in this way, attempt your skill check using the skill you selected when you gained this feat instead of Deception, applying all bonuses or penalties related from the selected skill to the check. While it's easier to convince someone who knows nothing about your chosen false information, on a critical success, you can even convince someone who has heard something contradictory, unless they have reason to be certain from direct experience. For instance, you might say, \"I know you may have heard to use silver weapons against vampires, but that's a misconception based on conflating them with werewolves. According to all credible scholars, cold iron will do the trick.\" Once a creature realizes you've used masterful obfuscation to Lie to them, either from a failed check or due to later discovering the falsehood, you can't use this feat against them again, as it relies on blind trust in your superior knowledge. However, you can still Lie to them normally.</p>"
        },
        "featType": {
            "value": "archetype"
        },
        "level": {
            "value": 10
        },
        "prerequisites": {
            "value": [
                {
                    "value": "Scrollmaster Dedication"
                },
                {
                    "value": "master in a skill with the Recall Knowledge action"
                }
            ]
        },
        "rules": [],
        "schema": {
            "lastMigration": null,
            "version": 0.643
        },
        "source": {
            "value": ""
        },
        "traits": {
            "custom": "",
            "rarity": {
                "value": "common"
            },
            "value": [
                "archetype"
            ]
        }
    },
    "effects": [],
    "flags": {},
    "img": "systems/pf2e/icons/features/feats/feats.webp",
    "name": "Masterful Obfuscation",
    "type": "feat"
}
