{
    "_id": "rAbfuZ1mc3lUYH41",
    "data": {
        "actionCategory": {
            "value": ""
        },
        "actionType": {
            "value": "passive"
        },
        "actions": {
            "value": ""
        },
        "description": {
            "chat": "",
            "unidentified": "",
            "value": "<p>When you are in your social identity, you can also grant a social identity to an animal companion, familiar, or other minion you gained from a class feature.</p>\n<p>When changing to your social identity, you also change your minion's appearance to that of a socially acceptable creature of its type, such as grooming a wolf to appear as a large dog or disguising a familiar to appear as an exotic pet.</p>\n<p>Commanding your minion to use unusual magical or combat abilities it gained from your class features or feats while in this social identity risks exposing your vigilante identity.</p>"
        },
        "featType": {
            "value": "skill"
        },
        "level": {
            "value": 4
        },
        "prerequisites": {
            "value": [
                {
                    "value": "animal companion or familiar"
                },
                {
                    "value": "expert in Deception"
                },
                {
                    "value": "Vigilante Dedication"
                }
            ]
        },
        "rules": [],
        "schema": {
            "lastMigration": null,
            "version": 0.643
        },
        "source": {
            "value": ""
        },
        "traits": {
            "custom": "",
            "rarity": {
                "value": "common"
            },
            "value": [
                "archetype",
                "skill",
                "social"
            ]
        }
    },
    "effects": [],
    "flags": {},
    "img": "systems/pf2e/icons/features/feats/feats.webp",
    "name": "Minion Guise",
    "type": "feat"
}
