{
    "_id": "iRpVW1DPKVxlzIzt",
    "data": {
        "actionCategory": {
            "value": ""
        },
        "actionType": {
            "value": "passive"
        },
        "actions": {
            "value": ""
        },
        "description": {
            "chat": "",
            "unidentified": "",
            "value": "<p>You can tap into the magic that runs through your blood. You gain @Compendium[pf2e.spells-srd.Animal Form]{Animal Form} (wolf only, using the statistics for a canine) and @Compendium[pf2e.spells-srd.Obscuring Mist]{Obscuring Mist} as 2nd-level divine innate spells. You can cast each of these spells once per day.</p>"
        },
        "featType": {
            "value": "ancestry"
        },
        "level": {
            "value": 9
        },
        "prerequisites": {
            "value": []
        },
        "rules": [],
        "schema": {
            "lastMigration": null,
            "version": 0.643
        },
        "source": {
            "value": ""
        },
        "traits": {
            "custom": "",
            "rarity": {
                "value": "common"
            },
            "value": [
                "dhampir"
            ]
        }
    },
    "effects": [],
    "flags": {},
    "img": "systems/pf2e/icons/features/feats/feats.webp",
    "name": "Night Magic",
    "type": "feat"
}
