{
    "_id": "gfMP2aMs3YGONVeB",
    "data": {
        "actionCategory": {
            "value": ""
        },
        "actionType": {
            "value": "passive"
        },
        "actions": {
            "value": ""
        },
        "description": {
            "chat": "",
            "unidentified": "",
            "value": "<p><strong>Frequency</strong> once per day</p>\n<hr />\n<p>Your past has left you numb to death's call. The first time each day that you regain Hit Points while you are @Compendium[pf2e.conditionitems.Dying]{Dying}, you regain additional Hit Points equal to your level, and you neither gain the @Compendium[pf2e.conditionitems.Wounded]{Wounded} condition nor increase the value of this condition.</p>"
        },
        "featType": {
            "value": "general"
        },
        "level": {
            "value": 7
        },
        "location": "",
        "prerequisites": {
            "value": [
                {
                    "value": "Diehard"
                },
                {
                    "value": "You have died at least once"
                }
            ]
        },
        "rules": [],
        "schema": {
            "lastMigration": null,
            "version": 0.643
        },
        "source": {
            "value": ""
        },
        "traits": {
            "custom": "",
            "rarity": {
                "value": "common"
            },
            "value": [
                "general"
            ]
        }
    },
    "effects": [],
    "flags": {},
    "img": "systems/pf2e/icons/features/feats/feats.webp",
    "name": "Numb to Death",
    "type": "feat"
}
