{
    "_id": "fMAUsLdBd5SDoHBz",
    "data": {
        "actionCategory": {
            "value": ""
        },
        "actionType": {
            "value": "passive"
        },
        "actions": {
            "value": ""
        },
        "description": {
            "chat": "",
            "unidentified": "",
            "value": "<p>The truest depths of your divine mystery are fathomless and contradictory, granting you changing powers that even you can barely begin to fathom. Each day during your daily preparations, choose one basic or advanced domain spell from any domain from the <em>Core Rulebook</em> or another domain to which you have access, or any initial or advanced revelation spell from another mystery. You gain that spell as a revelation spell until your next daily preparations, and it has the cursebound trait.</p>"
        },
        "featType": {
            "value": "class"
        },
        "level": {
            "value": 20
        },
        "prerequisites": {
            "value": [
                {
                    "value": "Greater Revelation"
                }
            ]
        },
        "rules": [],
        "schema": {
            "lastMigration": null,
            "version": 0.643
        },
        "source": {
            "value": ""
        },
        "traits": {
            "custom": "",
            "rarity": {
                "value": "common"
            },
            "value": [
                "oracle"
            ]
        }
    },
    "effects": [],
    "flags": {},
    "img": "systems/pf2e/icons/features/feats/feats.webp",
    "name": "Paradoxical Mystery",
    "type": "feat"
}
