{
    "_id": "tBMMKWYfzD2OMD30",
    "data": {
        "actionCategory": {
            "value": ""
        },
        "actionType": {
            "value": "action"
        },
        "actions": {
            "value": "2"
        },
        "description": {
            "chat": "",
            "unidentified": "",
            "value": "<p><strong>Requirements</strong> You are wielding a ranged or thrown weapon <br />that deals piercing damage.</p>\n<hr />\n<p>Your projectiles are unhindered by flesh and bone. Make a ranged Strike against each creature in a 30-foot line. These attacks ignore lesser cover, cover, and greater cover granted by creatures. Roll damage only once and apply it to each creature you hit.</p>\n<p>Each attack counts toward your multiple attack penalty, but don't increase your penalty until you have made all your attacks.</p>"
        },
        "featType": {
            "value": "class"
        },
        "level": {
            "value": 16
        },
        "prerequisites": {
            "value": []
        },
        "rules": [],
        "schema": {
            "lastMigration": null,
            "version": 0.643
        },
        "source": {
            "value": ""
        },
        "traits": {
            "custom": "",
            "rarity": {
                "value": "common"
            },
            "value": [
                "barbarian",
                "flourish",
                "rage"
            ]
        }
    },
    "effects": [],
    "flags": {},
    "img": "systems/pf2e/icons/features/feats/feats.webp",
    "name": "Penetrating Projectile",
    "type": "feat"
}
