{
    "_id": "AtpMrGXaMPJtDIDR",
    "data": {
        "actionCategory": {
            "value": ""
        },
        "actionType": {
            "value": "action"
        },
        "actions": {
            "value": "1"
        },
        "description": {
            "chat": "",
            "unidentified": "",
            "value": "<p><strong>Requirements</strong> You are wielding a @Compendium[pf2e.equipment-srd.Sawtooth Saber]{Sawtooth Saber} in each hand.</p>\n<hr />\n<p>You've mastered the signature assassination style of the Red Mantis. Attempt to @Compendium[pf2e.actionspf2e.Feint]{Feint} an enemy within 30 feet. If your Feint is successful, when you use Prayer Attack on subsequent turns you automatically make the target flat-footed against your melee attacks for that turn without rolling a check to Feint, so as long as you remain visible to the target and the target remains within 30 feet of you. If you use your Prayer Attack against a different target, you must attempt to Feint the target normally.</p>\n<p>When you use Prayer Attack, your next successful Strike with a sawtooth saber that turn deals 2d6 persistent bleed damage to the target.</p>"
        },
        "featType": {
            "value": "archetype"
        },
        "level": {
            "value": 14
        },
        "prerequisites": {
            "value": []
        },
        "rules": [],
        "schema": {
            "lastMigration": null,
            "version": 0.643
        },
        "source": {
            "value": ""
        },
        "traits": {
            "custom": "",
            "rarity": {
                "value": "common"
            },
            "selected": {
                "archetype": "Archetype",
                "concentrate": "Concentrate"
            },
            "value": [
                "archetype",
                "concentrate"
            ]
        }
    },
    "effects": [],
    "flags": {},
    "img": "systems/pf2e/icons/features/feats/feats.webp",
    "name": "Prayer Attack",
    "type": "feat"
}
