{
    "_id": "ThoOsKjn5xCuZUqM",
    "data": {
        "actionCategory": {
            "value": ""
        },
        "actionType": {
            "value": "passive"
        },
        "actions": {
            "value": ""
        },
        "description": {
            "chat": "",
            "unidentified": "",
            "value": "<p>You know where to go, who to talk to, and how to make new connections, fast. Upon entering a new settlement, spending 1 day of downtime allows you to build enough connections to make use of the Connections or Underworld Connections feats. If you're legendary in Society, you can form the required connections within 1 hour of entering a new settlement.</p>"
        },
        "featType": {
            "value": "skill"
        },
        "level": {
            "value": 2
        },
        "prerequisites": {
            "value": [
                {
                    "value": "expert in Society"
                },
                {
                    "value": "Connections or Underworld Connections"
                }
            ]
        },
        "rules": [],
        "schema": {
            "lastMigration": null,
            "version": 0.643
        },
        "source": {
            "value": ""
        },
        "traits": {
            "custom": "",
            "rarity": {
                "value": "common"
            },
            "value": [
                "general",
                "skill"
            ]
        }
    },
    "effects": [],
    "flags": {},
    "img": "systems/pf2e/icons/features/feats/feats.webp",
    "name": "Quick Contacts",
    "type": "feat"
}
