{
    "_id": "7GmXKrkzmInkFyEr",
    "data": {
        "actionCategory": {
            "value": ""
        },
        "actionType": {
            "value": "passive"
        },
        "actions": {
            "value": ""
        },
        "description": {
            "chat": "",
            "unidentified": "",
            "value": "<p>You can Pick a Lock using 1 action instead of 2.</p>"
        },
        "featType": {
            "value": "skill"
        },
        "level": {
            "value": 7
        },
        "prerequisites": {
            "value": [
                {
                    "value": "master in Thievery"
                }
            ]
        },
        "rules": [],
        "schema": {
            "lastMigration": null,
            "version": 0.643
        },
        "source": {
            "value": ""
        },
        "traits": {
            "custom": "",
            "rarity": {
                "value": "common"
            },
            "value": [
                "general",
                "skill"
            ]
        }
    },
    "effects": [],
    "flags": {},
    "img": "systems/pf2e/icons/features/feats/feats.webp",
    "name": "Quick Unlock",
    "type": "feat"
}
