{
    "_id": "aLJsBBZzlUK3G8MW",
    "data": {
        "actionCategory": {
            "value": ""
        },
        "actionType": {
            "value": "passive"
        },
        "actions": {
            "value": ""
        },
        "description": {
            "chat": "",
            "unidentified": "",
            "value": "<p>During your daily preparations, you can study a particular subject to gain the trained proficiency rank in one Lore skill of your choice. You must have interacted with that subject in some way on the previous day, whether by reading about it, talking to someone knowledgeable on the topic, or experiencing it yourself.</p>\n<p>Alternatively, you can reference your notes to instead choose a Lore skill you've prepared before with Quick Study. This proficiency lasts until you prepare again. Since this proficiency is temporary, you can't use it as a prerequisite for a skill increase or a permanent character option like a feat.</p>"
        },
        "featType": {
            "value": "archetype"
        },
        "level": {
            "value": 4
        },
        "prerequisites": {
            "value": [
                {
                    "value": "Loremaster Dedication"
                }
            ]
        },
        "rules": [],
        "schema": {
            "lastMigration": null,
            "version": 0.643
        },
        "source": {
            "value": ""
        },
        "traits": {
            "custom": "",
            "rarity": {
                "value": "common"
            },
            "value": [
                "archetype"
            ]
        }
    },
    "effects": [],
    "flags": {},
    "img": "systems/pf2e/icons/features/feats/feats.webp",
    "name": "Quick Study",
    "type": "feat"
}
