{
    "_id": "jYEMVfrXJLpXS6aC",
    "data": {
        "actionCategory": {
            "value": ""
        },
        "actionType": {
            "value": "passive"
        },
        "actions": {
            "value": ""
        },
        "description": {
            "chat": "",
            "unidentified": "",
            "value": "<p>Your divine ally turns your chosen weapon into a paragon of its type.</p>\n<p>When you choose the weapon for your blade divine ally during your preparations, add the following property runes to the list of effects you can choose from: @Compendium[pf2e.equipment-srd.Dancing]{Dancing}, @Compendium[pf2e.feat-effects.Effect: Blade Ally Disrupting Rune (Greater)]{Effect: Blade Ally Disrupting Rune (Greater)}, and @Compendium[pf2e.feat-effects.Effect: Blade Ally Keen Rune]{Effect: Blade Ally Keen Rune}.</p>"
        },
        "featType": {
            "value": "class"
        },
        "level": {
            "value": 20
        },
        "location": "",
        "prerequisites": {
            "value": [
                {
                    "value": "divine ally (blade)"
                },
                {
                    "value": "Radiant Blade Spirit"
                }
            ]
        },
        "rules": [],
        "schema": {
            "lastMigration": null,
            "version": 0.643
        },
        "source": {
            "value": ""
        },
        "traits": {
            "custom": "",
            "rarity": {
                "value": "common"
            },
            "value": [
                "champion"
            ]
        }
    },
    "effects": [],
    "flags": {},
    "img": "systems/pf2e/icons/features/feats/feats.webp",
    "name": "Radiant Blade Master",
    "type": "feat"
}
