{
    "_id": "9eL7W4rvs4sjhWFT",
    "data": {
        "actionCategory": {
            "value": ""
        },
        "actionType": {
            "value": "action"
        },
        "actions": {
            "value": "2"
        },
        "description": {
            "chat": "",
            "unidentified": "",
            "value": "<p><strong>Frequency</strong> once per day</p>\n<hr />\n<p>Your skin glows with intensity. Creatures within 10 feet who can see you must succeed at a Fortitude save against your class DC or spell DC, whichever is higher.</p>\n<hr />\n<p><strong>Critical Success</strong> The creature is unaffected.</p>\n<p><strong>Success</strong> The creature is @Compendium[pf2e.conditionitems.Dazzled]{Dazzled} for 1 round.</p>\n<p><strong>Failure</strong> The creature is @Compendium[pf2e.conditionitems.Blinded]{Blinded} for 1 round and dazzled for 4 rounds.</p>\n<p><strong>Critical Failure</strong> The creature is blinded for 4 rounds and dazzled for 10 minutes.</p>"
        },
        "featType": {
            "value": "ancestry"
        },
        "level": {
            "value": 13
        },
        "location": "",
        "prerequisites": {
            "value": []
        },
        "rules": [],
        "schema": {
            "lastMigration": null,
            "version": 0.643
        },
        "source": {
            "value": ""
        },
        "traits": {
            "custom": "",
            "rarity": {
                "value": "common"
            },
            "value": [
                "fire",
                "ifrit",
                "incapacitation",
                "light",
                "visual"
            ]
        }
    },
    "effects": [],
    "flags": {},
    "img": "systems/pf2e/icons/features/feats/feats.webp",
    "name": "Radiant Burst",
    "type": "feat"
}
