{
    "_id": "nobsCgNmsDX6aKR5",
    "data": {
        "actionCategory": {
            "value": ""
        },
        "actionType": {
            "value": "action"
        },
        "actions": {
            "value": "2"
        },
        "description": {
            "chat": "",
            "unidentified": "",
            "value": "<p>You surround yourself in a mantle of Rain-Scribe magic and Stride twice; difficult terrain does not reduce your Speed, even if the difficult terrain has been manipulated by magic. Your magic clears the difficult terrain in each square you entered; until your next turn, those squares aren't difficult terrain for any creature walking through them (or are normal difficult terrain if they were previously greater difficult terrain).</p>"
        },
        "featType": {
            "value": "archetype"
        },
        "level": {
            "value": 10
        },
        "prerequisites": {
            "value": [
                {
                    "value": "Magaambyan Attendant Dedication"
                },
                {
                    "value": "Rain-Scribes affiliation"
                }
            ]
        },
        "rules": [],
        "schema": {
            "lastMigration": null,
            "version": 0.643
        },
        "source": {
            "value": ""
        },
        "traits": {
            "custom": "",
            "rarity": {
                "value": "common"
            },
            "value": [
                "archetype"
            ]
        }
    },
    "effects": [],
    "flags": {},
    "img": "systems/pf2e/icons/features/feats/feats.webp",
    "name": "Rain-Scribe Mobility",
    "type": "feat"
}
