{
    "_id": "df4cBV3qZn3qNUmP",
    "data": {
        "actionCategory": {
            "value": ""
        },
        "actionType": {
            "value": "action"
        },
        "actions": {
            "value": "2"
        },
        "description": {
            "chat": "",
            "unidentified": "",
            "value": "<p>Your fearless charge into battle reinvigorates your allies to carry on the fight.</p>\n<p>You @Compendium[pf2e.actionspf2e.Stride]{Stride} up to your Speed and make a melee @Compendium[pf2e.actionspf2e.Strike]{Strike}. If your Strike hits and damages an enemy, each ally within 60 feet who saw you hit gains temporary Hit Points equal to your Charisma modifier. These temporary Hit Points last until the start of your next turn.</p>"
        },
        "featType": {
            "value": "archetype"
        },
        "level": {
            "value": 6
        },
        "prerequisites": {
            "value": [
                {
                    "value": "Marshal Dedication"
                }
            ]
        },
        "rules": [],
        "schema": {
            "lastMigration": null,
            "version": 0.643
        },
        "source": {
            "value": ""
        },
        "traits": {
            "custom": "",
            "rarity": {
                "value": "common"
            },
            "value": [
                "archetype",
                "open",
                "visual"
            ]
        }
    },
    "effects": [],
    "flags": {},
    "img": "systems/pf2e/icons/features/feats/feats.webp",
    "name": "Rallying Charge",
    "type": "feat"
}
