{
    "_id": "Zl6vDXJEM7Lbp8JQ",
    "data": {
        "actionCategory": {
            "value": ""
        },
        "actionType": {
            "value": "passive"
        },
        "actions": {
            "value": ""
        },
        "description": {
            "chat": "",
            "unidentified": "",
            "value": "<p>Once per day, when you Change Shape into a fox, you can instead gain the effects of both the canine form of 5th-level @Compendium[pf2e.spells-srd.Animal Form]{Animal Form} and 7th-level @Compendium[pf2e.spells-srd.Fiery Body]{Fiery Body} for 1 minute or until you shift back, whichever comes first. You can cast @Compendium[pf2e.spells-srd.Produce Flame]{Produce Flame} from the <em>fiery body</em> effect even though you’re in a battle form.</p>\n<hr />\n<p><strong>Special</strong> If you are a frozen wind kitsune, your form is ice instead of fire. This changes the immunity and damage from the <em>fiery body</em> effect to cold, changes the weakness to fire, and changes produce flame to @Compendium[pf2e.spells-srd.Ray of Frost]{Ray of Frost}.</p>"
        },
        "featType": {
            "value": "ancestry"
        },
        "level": {
            "value": 17
        },
        "location": "",
        "prerequisites": {
            "value": [
                {
                    "value": "Change Shape with a fox alternate form"
                }
            ]
        },
        "rules": [],
        "schema": {
            "lastMigration": null,
            "version": 0.643
        },
        "source": {
            "value": ""
        },
        "traits": {
            "custom": "",
            "rarity": {
                "value": "common"
            },
            "value": [
                "kitsune"
            ]
        }
    },
    "effects": [],
    "flags": {},
    "img": "systems/pf2e/icons/features/feats/feats.webp",
    "name": "Rampaging Form",
    "type": "feat"
}
