{
    "_id": "VcnOEAM3UR7oS0D5",
    "data": {
        "actionCategory": {
            "value": ""
        },
        "actionType": {
            "value": "free"
        },
        "actions": {
            "value": ""
        },
        "description": {
            "chat": "",
            "unidentified": "",
            "value": "<p><strong>Frequency</strong> once per hour<br /><strong>Trigger</strong> You @Compendium[pf2e.conditionitems.Blinded]{Blind} or @Compendium[pf2e.conditionitems.Dazzled]{Dazzle} a creature.</p>\n<hr />\n<p>You've spent considerable time practicing the manipulation of light, weaponizing your blade's reflection or bolstering the luminosity of magical displays to unconventional heights.</p>\n<p>Extend the duration of the blinded or dazzled condition you give the target by 1 round.</p>"
        },
        "featType": {
            "value": "ancestry"
        },
        "level": {
            "value": 1
        },
        "prerequisites": {
            "value": []
        },
        "rules": [],
        "schema": {
            "lastMigration": null,
            "version": 0.643
        },
        "source": {
            "value": ""
        },
        "traits": {
            "custom": "",
            "rarity": {
                "value": "common"
            },
            "value": [
                "gnome"
            ]
        }
    },
    "effects": [],
    "flags": {},
    "img": "systems/pf2e/icons/features/feats/feats.webp",
    "name": "Razzle-Dazzle",
    "type": "feat"
}
