{
    "_id": "dHUoQVzDa9Cf4QCG",
    "data": {
        "actionCategory": {
            "value": ""
        },
        "actionType": {
            "value": "passive"
        },
        "actions": {
            "value": ""
        },
        "description": {
            "chat": "",
            "unidentified": "",
            "value": "<p>You can use your shield to fend off the worst of area effects and other damage.</p>\n<p>When you @Compendium[pf2e.actionspf2e.Raise a Shield]{Raise your Shield}, you gain your shield's circumstance bonus to Reflex saves. If you have the @Compendium[pf2e.feats-srd.Shield Block]{Shield Block} reaction, damage you take as a result of a Reflex save can trigger that reaction, even if the damage isn't physical damage.</p>\n<p>@Compendium[pf2e.feat-effects.Effect: Reflexive Shield]{Effect: Reflexive Shield}</p>"
        },
        "featType": {
            "value": "class"
        },
        "level": {
            "value": 6
        },
        "location": "",
        "prerequisites": {
            "value": []
        },
        "rules": [],
        "schema": {
            "lastMigration": null,
            "version": 0.643
        },
        "source": {
            "value": ""
        },
        "traits": {
            "custom": "",
            "rarity": {
                "value": "common"
            },
            "value": [
                "fighter"
            ]
        }
    },
    "effects": [],
    "flags": {},
    "img": "systems/pf2e/icons/features/feats/feats.webp",
    "name": "Reflexive Shield",
    "type": "feat"
}
