{
    "_id": "zpQEOqMDoujexNfA",
    "data": {
        "actionCategory": {
            "value": ""
        },
        "actionType": {
            "value": "passive"
        },
        "actions": {
            "value": ""
        },
        "description": {
            "value": "<p>You draw life from the water around you. If you submerge in water and rest for 10 minutes, you regain Hit Points equal to your <a class=\"inline-roll roll\" title=\"Replenishing Hydration\" data-mode=\"roll\" data-flavor=\"Replenishing Hydration\" data-formula=\"(floor(@details.level.value/2))*(@abilities.con.mod)\"> Constitution modifier × half your level </a>.</p>"
        },
        "featType": {
            "value": "ancestry"
        },
        "level": {
            "value": 9
        },
        "location": "",
        "prerequisites": {
            "value": []
        },
        "rules": [],
        "schema": {
            "lastMigration": {
                "datetime": "2021-07-13T16:05:15.797+01:00",
                "version": {
                    "foundry": "0.8.8",
                    "schema": null,
                    "system": "2.9.1"
                }
            },
            "version": 0.643
        },
        "source": {
            "value": ""
        },
        "traits": {
            "custom": "",
            "rarity": {
                "value": "common"
            },
            "value": [
                "azarketi"
            ]
        }
    },
    "effects": [],
    "flags": {},
    "img": "systems/pf2e/icons/default-icons/feats.webp",
    "name": "Replenishing Hydration",
    "type": "feat"
}
