{
    "_id": "wscmghwNCXvZtKsz",
    "data": {
        "actionCategory": {
            "value": ""
        },
        "actionType": {
            "value": "passive"
        },
        "actions": {
            "value": ""
        },
        "description": {
            "chat": "",
            "unidentified": "",
            "value": "<p>Any shield you wield gains the shove trait. When you @Compendium[pf2e.actionspf2e.Shove]{Shove} using a shield and @Compendium[pf2e.actionspf2e.Stride]{Stride} as part of that action, you can move an additional 5 feet to either side of the creature you Shoved. In addition, if you are in the @Compendium[pf2e.feats-srd.Everstand Stance]{Everstand Stance} and successfully Shove a creature using a shield that you wield two-handed, you can increase the distance of your Shove to 10 feet.</p>"
        },
        "featType": {
            "value": "archetype"
        },
        "level": {
            "value": 4
        },
        "prerequisites": {
            "value": [
                {
                    "value": "Lastwall Sentry Dedication"
                }
            ]
        },
        "rules": [],
        "schema": {
            "lastMigration": null,
            "version": 0.643
        },
        "source": {
            "value": ""
        },
        "traits": {
            "custom": "",
            "rarity": {
                "value": "rare"
            },
            "selected": {
                "archetype": "Archetype"
            },
            "value": [
                "archetype"
            ]
        }
    },
    "effects": [],
    "flags": {},
    "img": "systems/pf2e/icons/features/feats/feats.webp",
    "name": "Rescuer's Press",
    "type": "feat"
}
