{
    "_id": "tCuMXQ0yMrCNwzqW",
    "data": {
        "actionCategory": {
            "value": ""
        },
        "actionType": {
            "value": "passive"
        },
        "actions": {
            "value": ""
        },
        "description": {
            "chat": "",
            "unidentified": "",
            "value": "<p>Your healing energies create an aura of protection that defends your allies against more than just blades and arrows.</p>\n<p>An ally that recovers Hit Points from your @Compendium[pf2e.spells-srd.Lay on Hands]{Lay on Hands} gains a +1 status bonus to their saving throws until the end of their next turn.</p>\n<p>@Compendium[pf2e.spell-effects.Spell Effect: Resilient Touch]{Spell Effect: Resilient Touch}</p>"
        },
        "featType": {
            "value": "class"
        },
        "level": {
            "value": 10
        },
        "location": "",
        "prerequisites": {
            "value": [
                {
                    "value": "devotion spell (lay on hands)"
                }
            ]
        },
        "rules": [],
        "schema": {
            "lastMigration": null,
            "version": 0.643
        },
        "source": {
            "value": ""
        },
        "traits": {
            "custom": "",
            "rarity": {
                "value": "common"
            },
            "value": [
                "champion"
            ]
        }
    },
    "effects": [],
    "flags": {},
    "img": "systems/pf2e/icons/features/feats/feats.webp",
    "name": "Resilient Touch",
    "type": "feat"
}
