{
    "_id": "fT37dtsByEIc3glC",
    "data": {
        "actionCategory": {
            "value": ""
        },
        "actionType": {
            "value": "passive"
        },
        "actions": {
            "value": ""
        },
        "description": {
            "chat": "",
            "unidentified": "",
            "value": "<p>Scales grow across your body, protecting you against physical and magical threats. When you're unarmored, the scales give you a +2 status bonus to AC with a Dexterity cap of +2. Your resistance from Dragon Disciple Dedication increases to 3 + half your level.</p>"
        },
        "featType": {
            "value": "archetype"
        },
        "level": {
            "value": 4
        },
        "location": "",
        "prerequisites": {
            "value": [
                {
                    "value": "Dragon Disciple Dedication"
                }
            ]
        },
        "rules": [
            {
                "key": "PF2E.RuleElement.FlatModifier",
                "predicate": {
                    "all": [
                        "scales-of-the-dragon"
                    ]
                },
                "roll-options": [
                    "all"
                ],
                "selector": "ac",
                "type": "status",
                "value": 2
            },
            {
                "key": "PF2E.RuleElement.DexterityModifierCap",
                "predicate": {
                    "all": [
                        "scales-of-the-dragon"
                    ]
                },
                "value": 2
            },
            {
                "key": "PF2E.RuleElement.ToggleProperty",
                "label": "Scales of the Dragon (unarmored)",
                "property": "flags.pf2e.rollOptions.all.scales-of-the-dragon"
            }
        ],
        "schema": {
            "lastMigration": null,
            "version": 0.643
        },
        "source": {
            "value": ""
        },
        "traits": {
            "custom": "",
            "rarity": {
                "value": "common"
            },
            "value": [
                "archetype"
            ]
        }
    },
    "effects": [],
    "flags": {},
    "img": "systems/pf2e/icons/features/feats/feats.webp",
    "name": "Scales Of The Dragon",
    "type": "feat"
}
