{
    "_id": "viFTJfZusRPx0G2q",
    "data": {
        "actionCategory": {
            "value": ""
        },
        "actionType": {
            "value": "passive"
        },
        "actions": {
            "value": ""
        },
        "description": {
            "chat": "",
            "unidentified": "",
            "value": "<p>You are used to ducking under foes and can scurry around the battlefield with ease. You gain a +1 circumstance bonus to Acrobatics checks to @Compendium[pf2e.actionspf2e.Tumble Through]{Tumble Through} the spaces of Medium or larger enemies, and the presence of an enemy doesn't make the squares difficult terrain.</p>"
        },
        "featType": {
            "value": "ancestry"
        },
        "level": {
            "value": 1
        },
        "prerequisites": {
            "value": []
        },
        "rules": [],
        "schema": {
            "lastMigration": null,
            "version": 0.643
        },
        "source": {
            "value": "Pathfinder #153: Life's Long Shadows"
        },
        "traits": {
            "custom": "",
            "rarity": {
                "value": "common"
            },
            "value": [
                "shoony"
            ]
        }
    },
    "effects": [],
    "flags": {},
    "img": "systems/pf2e/icons/features/feats/feats.webp",
    "name": "Scamper Underfoot",
    "type": "feat"
}
