{
    "_id": "DSmYJvCHMvZCP0aD",
    "data": {
        "actionCategory": {
            "value": ""
        },
        "actionType": {
            "value": "action"
        },
        "actions": {
            "value": "1"
        },
        "description": {
            "chat": "",
            "unidentified": "",
            "value": "<p>Your spells become a radiant display of light and color.</p>\n<p>If your next action is to @Compendium[pf2e.actionspf2e.Cast a Spell]{Cast a Spell} that doesn't have the darkness trait, has no duration, and requires creatures to attempt a Reflex save, the spell explodes in a spray of scintillating lights, in addition to its other effects.</p>\n<p>Each creature that failed its Reflex save against the spell is @Compendium[pf2e.conditionitems.Dazzled]{Dazzled} for 1 round, and those who critically failed are instead @Compendium[pf2e.conditionitems.Blinded]{Blinded} for 1 round.</p>"
        },
        "featType": {
            "value": "class"
        },
        "level": {
            "value": 16
        },
        "prerequisites": {
            "value": []
        },
        "rules": [],
        "schema": {
            "lastMigration": null,
            "version": 0.643
        },
        "source": {
            "value": ""
        },
        "traits": {
            "custom": "",
            "rarity": {
                "value": "common"
            },
            "value": [
                "concentrate",
                "light",
                "metamagic",
                "sorcerer"
            ]
        }
    },
    "effects": [],
    "flags": {},
    "img": "systems/pf2e/icons/features/feats/feats.webp",
    "name": "Scintillating Spell",
    "type": "feat"
}
