{
    "_id": "wIJC00ODLq9WYc1m",
    "data": {
        "actionCategory": {
            "value": ""
        },
        "actionType": {
            "value": "passive"
        },
        "actions": {
            "value": ""
        },
        "description": {
            "chat": "",
            "unidentified": "",
            "value": "<p>You can project your premonitions of danger to your allies.</p>\n<p>When you use @Compendium[pf2e.feats-srd.Premonition Of Avoidance]{Premonition Of Avoidance}, allies within 15 feet of you who are rolling the same saving throw against the same hazard also gain a +2 circumstance bonus to their saving throws.</p>\n<p>@Compendium[pf2e.feat-effects.Effect: Shared Avoidance]{Effect: Shared Avoidance}</p>"
        },
        "featType": {
            "value": "class"
        },
        "level": {
            "value": 10
        },
        "location": "",
        "prerequisites": {
            "value": [
                {
                    "value": "Premonition of Avoidance"
                }
            ]
        },
        "rules": [],
        "schema": {
            "lastMigration": null,
            "version": 0.643
        },
        "source": {
            "value": ""
        },
        "traits": {
            "custom": "",
            "rarity": {
                "value": "common"
            },
            "value": [
                "cleric"
            ]
        }
    },
    "effects": [],
    "flags": {},
    "img": "systems/pf2e/icons/features/feats/feats.webp",
    "name": "Shared Avoidance",
    "type": "feat"
}
