{
    "_id": "cTeRwExCGhfwJbkl",
    "data": {
        "actionCategory": {
            "value": ""
        },
        "actionType": {
            "value": "passive"
        },
        "actions": {
            "value": ""
        },
        "description": {
            "value": "<p>You use your physical discipline to channel your magic. If your proficiency rank in unarmed attacks is at least expert, your proficiency rank in spell attacks increases to expert. Likewise, if your proficiency rank in spell attacks is at least expert, your proficiency rank in unarmed attacks improves to expert. You become an expert in Athletics, or in another trained skill if you were already expert in Athletics.</p>\n<p><strong>Special</strong> You can't select another dedication feat until you've gained two other feats from the Sixth Pillar archetype.</p>"
        },
        "featType": {
            "value": "archetype"
        },
        "level": {
            "value": 8
        },
        "location": "",
        "prerequisites": {
            "value": [
                {
                    "value": "Dexterity 14"
                },
                {
                    "value": "expert in Acrobatics"
                },
                {
                    "value": "able to cast spells"
                }
            ]
        },
        "rules": [],
        "schema": {
            "lastMigration": null,
            "version": 0.643
        },
        "source": {
            "value": ""
        },
        "traits": {
            "custom": "",
            "rarity": {
                "value": "uncommon"
            },
            "value": [
                "archetype",
                "dedication"
            ]
        }
    },
    "effects": [],
    "flags": {},
    "img": "systems/pf2e/icons/default-icons/feats.webp",
    "name": "Sixth Pillar Dedication",
    "type": "feat"
}
