{
    "_id": "xTe8lNBp76jsrhYh",
    "data": {
        "actionCategory": {
            "value": ""
        },
        "actionType": {
            "value": "passive"
        },
        "actions": {
            "value": ""
        },
        "description": {
            "chat": "",
            "unidentified": "",
            "value": "<p>Your mother was an annis hag, known for physical prowess, and you have one violet or steel-gray eye. You have thick, sturdy claws made of cold iron that grow naturally from your body. You gain a claw unarmed attack that deals <a class=\"inline-roll roll\" data-mode=\"roll\" data-flavor=\"slashing\" data-formula=\"1d6\" title=\"slashing\"><i class=\"fas fa-dice-d20\"></i> 1d6</a> slashing damage. Your claws are in the brawling group, have the unarmed and grapple traits, and are cold iron.</p>"
        },
        "featType": {
            "value": "ancestry"
        },
        "level": {
            "value": 1
        },
        "prerequisites": {
            "value": []
        },
        "rules": [],
        "schema": {
            "lastMigration": null,
            "version": 0.643
        },
        "source": {
            "value": ""
        },
        "traits": {
            "custom": "",
            "rarity": {
                "value": "common"
            },
            "value": [
                "changeling",
                "lineage"
            ]
        }
    },
    "effects": [],
    "flags": {},
    "img": "systems/pf2e/icons/features/feats/feats.webp",
    "name": "Slag May",
    "type": "feat"
}
