{
    "_id": "bCAvo59b5RyW12iI",
    "data": {
        "actionCategory": {
            "value": ""
        },
        "actionType": {
            "value": "passive"
        },
        "actions": {
            "value": ""
        },
        "description": {
            "chat": "",
            "unidentified": "",
            "value": "<p>You gain the @Compendium[pf2e.classfeatures.Sneak Attack]{Sneak Attack} class feature, except it deals 1d4 damage, increasing to 1d6 at 6th level. You don't increase the number of dice as you gain levels.</p>"
        },
        "featType": {
            "value": "archetype"
        },
        "level": {
            "value": 4
        },
        "prerequisites": {
            "value": [
                {
                    "value": "Rogue Dedication"
                }
            ]
        },
        "rules": [
            {
                "category": "precision",
                "diceNumber": 1,
                "key": "PF2E.RuleElement.DamageDice",
                "predicate": {
                    "all": [
                        "target:flatFooted"
                    ],
                    "any": [
                        "finesse",
                        "agile",
                        "ranged"
                    ]
                },
                "selector": "damage",
                "value": {
                    "brackets": [
                        {
                            "end": 5,
                            "value": {
                                "dieSize": "d4"
                            }
                        },
                        {
                            "start": 6,
                            "value": {
                                "dieSize": "d6"
                            }
                        }
                    ]
                }
            }
        ],
        "schema": {
            "lastMigration": null,
            "version": 0.643
        },
        "source": {
            "value": ""
        },
        "traits": {
            "custom": "",
            "rarity": {
                "value": "common"
            },
            "value": [
                "archetype"
            ]
        }
    },
    "effects": [],
    "flags": {},
    "img": "systems/pf2e/icons/features/feats/feats.webp",
    "name": "Sneak Attacker",
    "type": "feat"
}
