{
    "_id": "c5xHL6CDFwBqXx2a",
    "data": {
        "actionCategory": {
            "value": ""
        },
        "actionType": {
            "value": "action"
        },
        "actions": {
            "value": "2"
        },
        "description": {
            "chat": "",
            "unidentified": "",
            "value": "<p><strong>Requirements</strong> You have both hands free.</p>\n<hr />\n<p>Your instincts sing of spite and malice, and you’ve learned a devastating trick: go for the eyes. You make a claw Strike. If you hit and deal damage, the target is @Compendium[pf2e.conditionitems.Dazzled]{Dazzled} for 1 round. On a critical hit, the target is instead @Compendium[pf2e.conditionitems.Blinded]{Blinded} for 1 round and dazzled until restored to maximum hit points.</p>"
        },
        "featType": {
            "value": "ancestry"
        },
        "level": {
            "value": 13
        },
        "location": "",
        "prerequisites": {
            "value": [
                {
                    "value": "Claw Unarmed Attack"
                }
            ]
        },
        "rules": [],
        "schema": {
            "lastMigration": null,
            "version": 0.643
        },
        "source": {
            "value": ""
        },
        "traits": {
            "custom": "",
            "rarity": {
                "value": "common"
            },
            "value": [
                "changeling"
            ]
        }
    },
    "effects": [],
    "flags": {},
    "img": "systems/pf2e/icons/features/feats/feats.webp",
    "name": "Spiteful Rake",
    "type": "feat"
}
