{
    "_id": "DS0XlHfi3ztb3ET7",
    "data": {
        "actionCategory": {
            "value": ""
        },
        "actionType": {
            "value": "action"
        },
        "actions": {
            "value": "1"
        },
        "description": {
            "chat": "",
            "unidentified": "",
            "value": "<p>You fragment a ranged spell into a pair of smaller shots. If your next action is to @Compendium[pf2e.actionspf2e.Cast a Spell]{Cast a Spell} without a duration that requires an attack roll against a single target and has no effect beyond dealing damage, you roll a single attack roll and compare the result to the AC of two targets within the spell's range. The spell deals only half its usual damage to each target.</p>\n<p>This counts as one attack for your multiple attack penalty.</p>"
        },
        "featType": {
            "value": "class"
        },
        "level": {
            "value": 4
        },
        "prerequisites": {
            "value": []
        },
        "rules": [],
        "schema": {
            "lastMigration": null,
            "version": 0.643
        },
        "source": {
            "value": ""
        },
        "traits": {
            "custom": "",
            "rarity": {
                "value": "common"
            },
            "value": [
                "concentrate",
                "metamagic",
                "sorcerer"
            ]
        }
    },
    "effects": [],
    "flags": {},
    "img": "systems/pf2e/icons/features/feats/feats.webp",
    "name": "Split Shot",
    "type": "feat"
}
