{
    "_id": "PVkAEBlRSJHe3JCz",
    "data": {
        "actionCategory": {
            "value": ""
        },
        "actionType": {
            "value": "passive"
        },
        "actions": {
            "value": ""
        },
        "description": {
            "chat": "",
            "unidentified": "",
            "value": "<p>You descend from one of the truly ancient vampires, a nosferatu cursed to eternal life but not eternal youth. People call you straveika, or ancient-born. The vestiges of your forebear's powers of domination have left you with an understanding of how a creature's intentions change its behaviors. You gain a +1 circumstance bonus to Perception checks to @Compendium[pf2e.actionspf2e.Sense Motive]{Sense Motive} and Perception DCs against attempts to @Compendium[pf2e.actionspf2e.Lie]{Lie} to you.</p>"
        },
        "featType": {
            "value": "ancestry"
        },
        "level": {
            "value": 1
        },
        "prerequisites": {
            "value": []
        },
        "rules": [],
        "schema": {
            "lastMigration": null,
            "version": 0.643
        },
        "source": {
            "value": ""
        },
        "traits": {
            "custom": "",
            "rarity": {
                "value": "common"
            },
            "value": [
                "dhampir",
                "lineage"
            ]
        }
    },
    "effects": [],
    "flags": {},
    "img": "systems/pf2e/icons/features/feats/feats.webp",
    "name": "Straveika",
    "type": "feat"
}
