{
    "_id": "WAWaew53zpTFVwQM",
    "data": {
        "actionCategory": {
            "value": ""
        },
        "actionType": {
            "value": "action"
        },
        "actions": {
            "value": "1"
        },
        "description": {
            "chat": "",
            "unidentified": "",
            "value": "<p>You combine your synergy and spells into a fantastic web of magic, allowing you to cast two spells at once. If the next action you use is to Cast a Spell from one of your halcyon spell slots, after that spell resolves, you can Cast another Spell as a free action. This spell must be cast from one of your halcyon spell slots and be a spell that would normally take two actions to cast.</p>"
        },
        "featType": {
            "value": "archetype"
        },
        "level": {
            "value": 20
        },
        "prerequisites": {
            "value": [
                {
                    "value": "Halcyon Spellcasting Initiate"
                },
                {
                    "value": "Fulminating Synergy"
                },
                {
                    "value": "legendary in Arcana"
                },
                {
                    "value": "legendary in Nature"
                }
            ]
        },
        "rules": [],
        "schema": {
            "lastMigration": null,
            "version": 0.643
        },
        "source": {
            "value": ""
        },
        "traits": {
            "custom": "",
            "rarity": {
                "value": "common"
            },
            "value": [
                "archetype",
                "metamagic"
            ]
        }
    },
    "effects": [],
    "flags": {},
    "img": "systems/pf2e/icons/features/feats/feats.webp",
    "name": "Synergistic Spell",
    "type": "feat"
}
