{
    "_id": "3xD4LtEgpGZU0MNx",
    "data": {
        "actionCategory": {
            "value": ""
        },
        "actionType": {
            "value": "passive"
        },
        "actions": {
            "value": ""
        },
        "description": {
            "value": "<p>Your hair unarmed attack gains the reach trait. You can deliver hexes through your hair. When you successfully cast a hex focus spell that requires 2 or more actions to cast and that doesn't require a spell attack roll, if your target is within your reach, as part of the spellcasting activity you can make a hair Strike against the foe before applying any effects of the hex. If this Strike misses, the hex has no effect.</p>"
        },
        "featType": {
            "value": "class"
        },
        "level": {
            "value": 8
        },
        "location": "",
        "prerequisites": {
            "value": [
                {
                    "value": "Living Hair"
                }
            ]
        },
        "rules": [],
        "schema": {
            "lastMigration": null,
            "version": 0.643
        },
        "source": {
            "value": ""
        },
        "traits": {
            "custom": "",
            "rarity": {
                "value": "common"
            },
            "value": [
                "witch"
            ]
        }
    },
    "effects": [],
    "flags": {},
    "img": "systems/pf2e/icons/default-icons/feats.webp",
    "name": "Syu Tak-nwa's Hexed Locks",
    "type": "feat"
}
