{
    "_id": "PpJURSJFEHzhutdp",
    "data": {
        "actionCategory": {
            "value": ""
        },
        "actionType": {
            "value": "passive"
        },
        "actions": {
            "value": ""
        },
        "description": {
            "value": "<p>You are used to moving through the wilderness. While moving on land, you ignore the effects of non-magical difficult terrain.</p>"
        },
        "featType": {
            "value": "bonus"
        },
        "level": {
            "value": 0
        },
        "location": "",
        "prerequisites": {
            "value": [
                {
                    "value": "Order of the Nail"
                }
            ]
        },
        "rules": [],
        "schema": {
            "lastMigration": null,
            "version": 0.643
        },
        "source": {
            "value": ""
        },
        "traits": {
            "custom": "",
            "rarity": {
                "value": "common"
            },
            "value": []
        }
    },
    "effects": [],
    "flags": {},
    "img": "systems/pf2e/icons/default-icons/feat.svg",
    "name": "Trailblazing Stride",
    "type": "feat"
}
