{
    "_id": "t6sey3cyV8n7a78l",
    "data": {
        "actionCategory": {
            "value": ""
        },
        "actionType": {
            "value": "action"
        },
        "actions": {
            "value": "3"
        },
        "description": {
            "chat": "",
            "unidentified": "",
            "value": "<p><strong>Requirements</strong> You are riding a mount that has a melee @Compendium[pf2e.actionspf2e.Strike]{Strike} using its legs (claw, talons, hoof, etc.).</p>\n<hr />\n<p>You urge your mount forward, trampling enemies in your path. You command your mount to @Compendium[pf2e.actionspf2e.Stride]{Stride} up to its Speed (or to @Compendium[pf2e.actionspf2e.Burrow]{Burrow}, @Compendium[pf2e.actionspf2e.Climb]{Climb}, @Compendium[pf2e.actionspf2e.Fly]{Fly}, or @Compendium[pf2e.actionspf2e.Swim]{Swim}, if it has the corresponding movement type), moving through the spaces of any foes in your path up to one size smaller than your mount.</p>\n<p>Your mount deals damage equal to the melee Strike using its legs to each creature whose space you move through, subject to a basic Reflex save against your mount's Athletics DC. On a critical failure, the creature also becomes @Compendium[pf2e.conditionitems.Flat-Footed]{Flat-Footed} until the end of your next turn. You can damage a given creature only once during this movement.</p>"
        },
        "featType": {
            "value": "archetype"
        },
        "level": {
            "value": 10
        },
        "prerequisites": {
            "value": [
                {
                    "value": "Cavalier Dedication"
                }
            ]
        },
        "rules": [],
        "schema": {
            "lastMigration": null,
            "version": 0.643
        },
        "source": {
            "value": ""
        },
        "traits": {
            "custom": "",
            "rarity": {
                "value": "common"
            },
            "value": [
                "archetype",
                "flourish"
            ]
        }
    },
    "effects": [],
    "flags": {},
    "img": "systems/pf2e/icons/features/feats/feats.webp",
    "name": "Trampling Charge",
    "type": "feat"
}
