{
    "_id": "eoDDjIGAA67Z7rQt",
    "data": {
        "actionCategory": {
            "value": ""
        },
        "actionType": {
            "value": "action"
        },
        "actions": {
            "value": "2"
        },
        "description": {
            "chat": "",
            "unidentified": "",
            "value": "<p>You capitalize on the distraction provided by an ally. You @Compendium[pf2e.actionspf2e.Sneak]{Sneak} up to a foe adjacent to one of your allies. You can roll against the foe you're Sneaking up on, even if it's currently observing you, as though you were hidden. You take a -2 penalty on your Stealth check.</p>\n<p>If your Stealth check against the chosen foe succeeds, you can make a melee @Compendium[pf2e.actionspf2e.Strike]{Strike} against that foe at the end of your Sneak.</p>"
        },
        "featType": {
            "value": "class"
        },
        "level": {
            "value": 2
        },
        "prerequisites": {
            "value": [
                {
                    "value": "trained in Stealth"
                }
            ]
        },
        "rules": [],
        "schema": {
            "lastMigration": null,
            "version": 0.643
        },
        "source": {
            "value": ""
        },
        "traits": {
            "custom": "",
            "rarity": {
                "value": "common"
            },
            "value": [
                "rogue"
            ]
        }
    },
    "effects": [],
    "flags": {},
    "img": "systems/pf2e/icons/features/feats/feats.webp",
    "name": "Underhanded Assault",
    "type": "feat"
}
