{
    "_id": "9jGaBxLUtevZYcZO",
    "data": {
        "actionCategory": {
            "value": ""
        },
        "actionType": {
            "value": "passive"
        },
        "actions": {
            "value": ""
        },
        "description": {
            "chat": "",
            "unidentified": "",
            "value": "<p>You've learned how to handle situations when you're out of your depth. Your proficiency bonus to untrained skill checks is equal to half your level instead of +0. If you're 7th level or higher, the bonus increases to your full level instead. This doesn't allow you to use the skill's trained actions.</p>"
        },
        "featType": {
            "value": "general"
        },
        "level": {
            "value": 3
        },
        "prerequisites": {
            "value": []
        },
        "rules": [
            {
                "key": "PF2E.RuleElement.FlatModifier",
                "selector": "skill-check",
                "type": "proficiency",
                "value": {
                    "brackets": [
                        {
                            "end": 6,
                            "value": "floor(@details.level.value / 2)"
                        },
                        {
                            "start": 7,
                            "value": "@details.level.value"
                        }
                    ]
                }
            }
        ],
        "schema": {
            "lastMigration": null,
            "version": 0.643
        },
        "source": {
            "value": ""
        },
        "traits": {
            "custom": "",
            "rarity": {
                "value": "common"
            },
            "value": [
                "general"
            ]
        }
    },
    "effects": [],
    "flags": {},
    "img": "systems/pf2e/icons/features/feats/feats.webp",
    "name": "Untrained Improvisation",
    "type": "feat"
}
