{
    "_id": "1MqvE1FL2mZRCnzo",
    "data": {
        "actionCategory": {
            "value": ""
        },
        "actionType": {
            "value": "passive"
        },
        "actions": {
            "value": ""
        },
        "description": {
            "chat": "",
            "unidentified": "",
            "value": "<p>You possess small, weak wings that aid in balance. You gain the @Compendium[pf2e.feats-srd.Steady Balance]{Steady Balance} and @Compendium[pf2e.feats-srd.Cat Fall]{Cat Fall} skill feats as bonus feats, even if you aren’t trained in Acrobatics.</p>"
        },
        "featType": {
            "value": "ancestry"
        },
        "level": {
            "value": 1
        },
        "location": "",
        "prerequisites": {
            "value": []
        },
        "rules": [],
        "schema": {
            "lastMigration": null,
            "version": 0.643
        },
        "source": {
            "value": ""
        },
        "traits": {
            "custom": "",
            "rarity": {
                "value": "common"
            },
            "value": [
                "ganzi"
            ]
        }
    },
    "effects": [],
    "flags": {},
    "img": "systems/pf2e/icons/features/feats/feats.webp",
    "name": "Vestigial Wings",
    "type": "feat"
}
