{
    "_id": "ne7nVluvvVXMvuB1",
    "data": {
        "actionCategory": {
            "value": ""
        },
        "actionType": {
            "value": "passive"
        },
        "actions": {
            "value": ""
        },
        "description": {
            "chat": "",
            "unidentified": "",
            "value": "<p>While all elves adapt to their environments over time, you have traveled so widely and become attuned to so many environs that your body now changes more rapidly than other elves. After spending a week in an environment associated with an elf heritage (such as snow for arctic elf, or a forest or jungle for woodland elf) your heritage automatically changes to become that heritage. This never causes you to change to an elf heritage that isn't related to an environment, such as @Compendium[pf2e.ancestryfeatures.Ancient Elf]{Ancient Elf}, @Compendium[pf2e.ancestryfeatures.Seer Elf]{Seer Elf}, or @Compendium[pf2e.ancestryfeatures.Whisper Elf]{Whisper Elf}.</p>"
        },
        "featType": {
            "value": "ancestry"
        },
        "level": {
            "value": 13
        },
        "prerequisites": {
            "value": [
                {
                    "value": "arctic elf, cavern elf, desert elf, woodland elf, or any other elf heritage based on adapting to an environment"
                }
            ]
        },
        "rules": [],
        "schema": {
            "lastMigration": null,
            "version": 0.643
        },
        "source": {
            "value": ""
        },
        "traits": {
            "custom": "",
            "rarity": {
                "value": "common"
            },
            "value": [
                "elf"
            ]
        }
    },
    "effects": [],
    "flags": {},
    "img": "systems/pf2e/icons/features/feats/feats.webp",
    "name": "Wandering Heart",
    "type": "feat"
}
