{
    "_id": "VN3OHDYcnLaw0nW1",
    "data": {
        "actionCategory": {
            "value": ""
        },
        "actionType": {
            "value": "passive"
        },
        "actions": {
            "value": ""
        },
        "description": {
            "chat": "",
            "unidentified": "",
            "value": "<p>Natural obstacles pose no obstacle to you. You gain the ranger's @Compendium[pf2e.classfeatures.Wild Stride]{Wild Stride} class feature. This allows you to ignore the effects of all non-magical difficult terrain, treat greater difficult terrain as merely difficult terrain, and gives you an additional benefit from @Compendium[pf2e.feats-srd.Favored Terrain]{Favored Terrain} based on the terrain.</p>"
        },
        "featType": {
            "value": "archetype"
        },
        "level": {
            "value": 12
        },
        "prerequisites": {
            "value": [
                {
                    "value": "Horizon Walker Dedication"
                }
            ]
        },
        "rules": [],
        "schema": {
            "lastMigration": null,
            "version": 0.643
        },
        "source": {
            "value": ""
        },
        "traits": {
            "custom": "",
            "rarity": {
                "value": "common"
            },
            "value": [
                "archetype"
            ]
        }
    },
    "effects": [],
    "flags": {},
    "img": "systems/pf2e/icons/features/feats/feats.webp",
    "name": "Wild Strider",
    "type": "feat"
}
