{
    "_id": "AohWtOzgk2Qr9ADl",
    "data": {
        "actionCategory": {
            "value": ""
        },
        "actionType": {
            "value": "passive"
        },
        "actions": {
            "value": ""
        },
        "description": {
            "chat": "",
            "unidentified": "",
            "value": "<p><strong>Moderate Curse</strong>: The current of the waves constantly fights against you, putting you at risk of drowning any time you must Swim.</p>\n<p>You lose any @Compendium[pf2e.actionspf2e.Swim]{Swim} Speed you have, unless it's your only Speed, in which case you take a -20-foot status penalty to your swim Speed.</p>\n<p>When you roll an Athletics check to @Compendium[pf2e.actionspf2e.Swim]{Swim}, you always use the outcome for one degree of success worse than the result of your roll.</p>"
        },
        "featType": {
            "value": "curse"
        },
        "level": {
            "value": 0
        },
        "prerequisites": {
            "value": []
        },
        "rules": [],
        "schema": {
            "lastMigration": null,
            "version": 0.643
        },
        "source": {
            "value": ""
        },
        "traits": {
            "custom": "",
            "rarity": {
                "value": "common"
            },
            "selected": {},
            "value": []
        }
    },
    "effects": [],
    "flags": {},
    "img": "systems/pf2e/icons/deity/Gozreh.webp",
    "name": "Gozreh - Moderate Curse",
    "type": "feat"
}
