{
    "_id": "kEAw5PMLdX2gHlwR",
    "data": {
        "actionCategory": {
            "value": ""
        },
        "actionType": {
            "value": "passive"
        },
        "actions": {
            "value": ""
        },
        "description": {
            "chat": "",
            "unidentified": "",
            "value": "<p><strong>Major Curse</strong>: Those who displease Gozreh are shunned by nature itself.</p>\n<p>All animals and nonsapient plant creatures are hostile to you, and any animal companion or familiar abandons you.</p>\n<p>Sapient plants' attitude toward you begins two categories worse than normal, as something about you seems repugnant to them.</p>\n<p>While plants and animals might not attack you outright if it's not normally in their nature to do so when they are hostile, dogs growl at you, cats hiss, and so on.</p>"
        },
        "featType": {
            "value": "curse"
        },
        "level": {
            "value": 0
        },
        "prerequisites": {
            "value": []
        },
        "rules": [],
        "schema": {
            "lastMigration": null,
            "version": 0.643
        },
        "source": {
            "value": ""
        },
        "traits": {
            "custom": "",
            "rarity": {
                "value": "common"
            },
            "selected": {},
            "value": []
        }
    },
    "effects": [],
    "flags": {},
    "img": "systems/pf2e/icons/deity/Gozreh.webp",
    "name": "Gozreh - Major Curse",
    "type": "feat"
}
