{
    "_id": "cdhgByGG1WtuaK73",
    "data": {
        "additionalLanguages": {
            "count": 0,
            "custom": "",
            "value": [
                "draconic",
                "elven",
                "gnomish",
                "goblin",
                "halfling",
                "undercommon"
            ]
        },
        "boosts": {
            "0": {
                "value": [
                    "con"
                ]
            },
            "1": {
                "value": [
                    "wis"
                ]
            },
            "2": {
                "value": [
                    "str",
                    "dex",
                    "con",
                    "int",
                    "wis",
                    "cha"
                ]
            }
        },
        "description": {
            "chat": "",
            "unidentified": "",
            "value": "<p><em>Guardians and emissaries of the environment, leshies are immortal spirits of nature temporarily granted a physical form.</em></p>\n<hr />\n<p>Leshies are 'born' when a skilled druid or other master of primal magic conducts a ritual to create a suitable vessel, and then a spirit chooses that vessel to be their temporary home. Leshies are self-sufficient from the moment the ritual ends, and so they do not depend upon these druids for care, though</p>\n<p>Not all leshies have a strong enough spirit to strike off completely on their own, however. Weaker nature spirits can form only tenuous bonds that are just strong enough to animate Tiny bodies. These spirits become leshy familiars, acting as companions to their druid creators. Independent leshies are often protective of such leshy familiars, advocating for them to be treated with dignity and respect.</p>\n<h2>You Might...</h2>\n<ul>\n<li>Act as a traveling agent for natural guardians who are unable to leave their territories.</li>\n<li>Encourage civilizations you encounter to cooperate with nature and build their cities in ecologically friendly ways.</li>\n<li>Become attached to new friends you make on your journeys.</li>\n</ul>\n<h2>Others Probably...</h2>\n<ul>\n<li>Think of you as a curiosity due to your spiritual origins.</li>\n<li>Judge you by your looks, treating you sweetly if you are cute or reacting with horror if you are frightening.</li>\n<li>Assume you know only about nature and are unfamiliar with civilization and society.</li>\n</ul>\n<h2>Physical Description</h2>\n<p>Leshies are as varied as the material used to create their vessels, usually appearing as a bizarre mishmash of various plants or fungi. Their bodies are vaguely humanoid in shape, with numerous characteristics of the plant or fungus from which they were made. A typical leshy is about 3 feet tall. Due to the nature of the ritual used to create a leshy, leshies begin their lives as adults. As spirits, they do not age, and a leshy could potentially remain in the same vessel forever—though leshies rarely consider this outcome to be desirable.</p>\n<h2>Society</h2>\n<p>Though guardian leshies often congregate, traveling leshies are not naturally drawn to others of their own kind. To most leshies, the concept of family is not a matter of birth, but rather determined by bonds of loyalty and friendship. Leshies are dedicated allies, but they have little tolerance for those who would despoil nature. As much as they are happy to accept someone who earns their trust into their family, they expect family members to look out for them and their natural wards in return. A betrayed leshy might not directly attack those who slight them, but they might withdraw support at a critical moment or leave their betrayers to get lost in the wilderness.</p>\n<p>Leshies are grouped into categories akin to ethnicities, but these are not connected to physical features; rather, they represent broad categories of characteristics of their spirits. Certain spirits are more likely to gravitate toward particular physical bodies, though those familiar with leshies know that this predisposition is far from absolute. Leshies often take pride in their own appearances and appreciate beauty of all kinds in others, but they rarely form judgments based on physical appearance. Leshies' genders are determined by the spirits that inhabit their bodies. Leshies tend to gravitate toward plant bodies that match their genders. Some leshies are exclusively male or female, while many consider themselves both. Others, particularly fungus leshies, tend toward far more complex expressions of gender, or eschew the concept entirely.</p>\n<h2>Alignment and Religion</h2>\n<p>A leshy can be of any alignment, depending on what spirit inhabits their body, but their outlook often includes a neutral element. Religion is not particularly significant to most leshies. Those with a philosophical bent lean toward the Green Faith, and Gozreh is the most popular deity among faithful leshies. Some leshies also venerate green men, powerful spirits of nature that act as regional guardians.</p>\n<h2>Adventurers</h2>\n<p>Some backgrounds are particularly suitable for adventuring leshies, especially those backgrounds with a tie to the natural world, such as hunter, nomad, or scout. Nature-themed classes such as druid and ranger are popular choices for leshies. As druids, leshies gravitate toward the leaf order. Bard is also a good fit for leshies with a love of storytelling; such leshies often inhabit vine leshy bodies.</p>\n<h2>Names</h2>\n<p>Leshies choose and change their names multiple times throughout their lives. These names often represent a facet of their personalities or values, though another common naming convention is to use descriptions of a natural feature they admire. Some leshies even use a cycle of names that changes to align with natural phenomena, such as names based upon the season or the time of day.</p>\n<h3><span style=\"text-decoration: underline;\">Sample Names</span></h3>\n<p>Scarlet in Summer, Verdant Taleweaver, Lurking Hunter, Masterful Sun Drinker, Noon Sky Evening Song, Snowy Pine Branch, Cascading Rapids</p>"
        },
        "flaws": {
            "0": {
                "value": [
                    "int"
                ]
            }
        },
        "hp": 8,
        "items": {
            "32oz7": {
                "id": "Sm3tKetM6kddTio3",
                "img": "systems/pf2e/icons/features/ancestry/plant-nourishment.webp",
                "level": "1",
                "name": "Plant Nourishment",
                "pack": "pf2e.ancestryfeatures"
            },
            "ri5jx": {
                "id": "DRtaqOHXTRtGRIUT",
                "img": "systems/pf2e/icons/features/ancestry/low-light-vision.webp",
                "level": "1",
                "name": "Low-Light Vision",
                "pack": "pf2e.ancestryfeatures"
            }
        },
        "languages": {
            "custom": "",
            "value": [
                "common",
                "sylvan"
            ]
        },
        "reach": 5,
        "rules": [],
        "schema": {
            "lastMigration": null,
            "version": 0.643
        },
        "size": "sm",
        "source": {
            "value": ""
        },
        "speed": 25,
        "traits": {
            "custom": "",
            "rarity": {
                "value": "uncommon"
            },
            "value": [
                "leshy",
                "plant"
            ]
        },
        "vision": "normal"
    },
    "effects": [],
    "flags": {},
    "img": "systems/pf2e/icons/default-icons/alternatives/ancestries/leshy.svg",
    "name": "Leshy",
    "type": "ancestry"
}
