{
    "_id": "v051JKN0Dj3ve5cF",
    "data": {
        "description": {
            "value": "<p>Granted by @Compendium[pf2e.spells-srd.Sweet Dream]{Sweet Dream}.</p>\n<p>You gain +1 status bonus to Intelligence-based skill checks.</p>"
        },
        "duration": {
            "expiry": "turn-start",
            "sustained": false,
            "unit": "minutes",
            "value": 10
        },
        "level": {
            "value": 1
        },
        "rules": [
            {
                "key": "PF2E.RuleElement.FlatModifier",
                "selector": "int-based",
                "type": "status",
                "value": 1
            }
        ],
        "schema": {
            "lastMigration": null,
            "version": 0.643
        },
        "source": {
            "value": ""
        },
        "start": {
            "initiative": null,
            "value": 0
        },
        "target": null,
        "tokenIcon": {
            "show": true
        },
        "traits": {
            "custom": "",
            "rarity": {
                "value": "common"
            },
            "value": []
        }
    },
    "effects": [],
    "flags": {},
    "img": "systems/pf2e/icons/spells/sweet-dream.webp",
    "name": "Spell Effect: Sweet Dream (Insight)",
    "type": "effect"
}
