{
    "_id": "zpxIwEjnLUSO1B4z",
    "data": {
        "description": {
            "value": "<p>Granted by @Compendium[pf2e.spells-srd.Magic's Vessel]{Magic's Vessel}.</p>\n<p>The target gains a +1 status bonus to saving throws.</p>"
        },
        "duration": {
            "expiry": "turn-start",
            "sustained": true,
            "unit": "minutes",
            "value": 1
        },
        "level": {
            "value": 1
        },
        "rules": [
            {
                "key": "PF2E.RuleElement.FlatModifier",
                "selector": "saving-throw",
                "type": "status",
                "value": 1
            }
        ],
        "schema": {
            "lastMigration": null,
            "version": 0.643
        },
        "source": {
            "value": ""
        },
        "start": {
            "initiative": null,
            "value": 0
        },
        "target": null,
        "tokenIcon": {
            "show": true
        },
        "traits": {
            "custom": "",
            "rarity": {
                "value": "common"
            },
            "value": []
        }
    },
    "effects": [],
    "flags": {},
    "img": "systems/pf2e/icons/spells/magics-vessel.webp",
    "name": "Spell Effect: Magic's Vessel",
    "type": "effect"
}
