{
    "_id": "ydsLEGjY89Akc4oZ",
    "data": {
        "description": {
            "value": "<p>Granted by casting @Compendium[pf2e.spells-srd.Pest Form]{Pest Form}.</p>\n<p>You transform into a the battle form of a Tiny animal, such as a cat, insect, lizard, or rat. You can decide the specific type of animal (such as a rat or praying mantis), but this has no effect on the form's Size or statistics. While in this form, you gain the animal trait. You can Dismiss the spell.</p>\n<p>You gain the following statistics and abilities:</p>\n<ul>\n<li>AC = 15 + your level. Ignore your armor's check penalty and Speed reduction.</li>\n<li>Speed 10 feet.</li>\n<li>Weakness 5 to physical damage. (If you take physical damage in this form, you take 5 additional damage.)</li>\n<li>Low-light vision and imprecise scent 30 feet.</li>\n<li>Acrobatics and Stealth modifiers of +10, unless your own modifier is higher; Athletics modifier -4.</li>\n</ul>\n<hr />\n<p><strong>Heightened (4th)</strong> You can turn into a flying creature, such as a bird, which grants you a fly Speed of 20 feet.</p>"
        },
        "duration": {
            "expiry": "turn-start",
            "sustained": false,
            "unit": "minutes",
            "value": 10
        },
        "level": {
            "value": 1
        },
        "rules": [
            {
                "key": "PF2E.RuleElement.FixedProficiency",
                "label": "Pest Form",
                "roll-options": [
                    "ac",
                    "all"
                ],
                "selector": "ac",
                "type": "polymorph",
                "value": "15 + @details.level.value"
            },
            {
                "key": "PF2E.RuleElement.BaseSpeed",
                "selector": "land-speed",
                "value": 10
            },
            {
                "key": "PF2E.RuleElement.Sense",
                "label": "PF2E.SensesLowLightVision",
                "selector": "lowLightVision"
            },
            {
                "acuity": "imprecise",
                "key": "PF2E.RuleElement.Sense",
                "label": "PF2E.SensesScent",
                "range": 30,
                "selector": "scent"
            },
            {
                "key": "PF2E.RuleElement.FixedProficiency",
                "label": "Pest Form",
                "roll-options": [
                    "all"
                ],
                "selector": "acrobatics",
                "value": 10
            },
            {
                "key": "PF2E.RuleElement.FixedProficiency",
                "label": "Pest Form",
                "roll-options": [
                    "all"
                ],
                "selector": "stealth",
                "value": 10
            },
            {
                "key": "PF2E.RuleElement.TokenSize",
                "value": "tiny"
            },
            {
                "key": "PF2E.RuleElement.BaseSpeed",
                "selector": "fly",
                "value": {
                    "brackets": [
                        {
                            "start": 4,
                            "value": "20"
                        }
                    ],
                    "field": "item|data.level.value"
                }
            },
            {
                "key": "PF2E.RuleElement.Note",
                "selector": "athletics",
                "text": "Reminder: While you are in Pest Form, your total Athletics modifier is -4."
            }
        ],
        "schema": {
            "lastMigration": null,
            "version": 0.643
        },
        "source": {
            "value": ""
        },
        "start": {
            "initiative": null,
            "value": 0
        },
        "target": null,
        "tokenIcon": {
            "show": true
        },
        "traits": {
            "custom": "",
            "rarity": {
                "value": "common"
            },
            "value": []
        }
    },
    "effects": [
        {
            "_id": "1dh66uAaTrq49rk7",
            "changes": [
                {
                    "key": "token.width",
                    "mode": 5,
                    "value": "0.5"
                },
                {
                    "key": "token.height",
                    "mode": 5,
                    "value": "0.5"
                }
            ],
            "disabled": false,
            "duration": {
                "startTime": null
            },
            "flags": {},
            "icon": "systems/pf2e/icons/spells/pest-form.webp",
            "label": "Spell Effect: Pest Form",
            "origin": "",
            "tint": null,
            "transfer": true
        }
    ],
    "flags": {},
    "img": "systems/pf2e/icons/spells/pest-form.webp",
    "name": "Spell Effect: Pest Form",
    "type": "effect"
}
