{
    "_id": "sPCWrhUHqlbGhYSD",
    "data": {
        "description": {
            "value": "<p>Granted by @Compendium[pf2e.spells-srd.Enlarge]{Enlarge}</p>\n<p>Bolstered by magical power, the target grows to size Large. Its equipment grows with it but returns to natural size if removed. The creature is clumsy 1. Its reach increases by 5 feet (or by 10 feet if it started out Tiny), and it gains a +2 status bonus to melee damage. This spell has no effect on a Large or larger creature.</p>"
        },
        "duration": {
            "expiry": "turn-start",
            "sustained": false,
            "unit": "minutes",
            "value": 5
        },
        "level": {
            "value": 2
        },
        "rules": [
            {
                "key": "PF2E.RuleElement.FlatModifier",
                "label": "Enlarge",
                "selector": "damage",
                "type": "status",
                "value": 2
            },
            {
                "key": "PF2E.RuleElement.TokenSize",
                "value": "large"
            },
            {
                "key": "PF2E.RuleElement.FlatModifier",
                "label": "Enlarge",
                "selector": "dex-based",
                "type": "status",
                "value": -1
            }
        ],
        "schema": {
            "lastMigration": null,
            "version": 0.643
        },
        "source": {
            "value": ""
        },
        "start": {
            "initiative": null,
            "value": 0
        },
        "target": null,
        "tokenIcon": {
            "show": true
        },
        "traits": {
            "custom": "",
            "rarity": {
                "value": "common"
            },
            "value": []
        }
    },
    "effects": [],
    "flags": {},
    "img": "systems/pf2e/icons/spells/enlarge.webp",
    "name": "Spell Effect: Enlarge",
    "type": "effect"
}
