{
    "_id": "dEsaufFnfYihu5Ex",
    "data": {
        "description": {
            "value": "<p>Granted by @Compendium[pf2e.spells-srd.Discern Secrets]{Discern Secrets}, if you pick Sense Motive.</p>"
        },
        "duration": {
            "expiry": "turn-start",
            "sustained": true,
            "unit": "minutes",
            "value": 1
        },
        "level": {
            "value": 1
        },
        "rules": [
            {
                "key": "PF2E.RuleElement.FlatModifier",
                "label": "Sense Motive(Discern Secrets)",
                "predicate": {
                    "all": [
                        "action:sense-motive"
                    ]
                },
                "selector": "perception",
                "type": "status",
                "value": 1
            }
        ],
        "schema": {
            "lastMigration": null,
            "version": 0.643
        },
        "source": {
            "value": ""
        },
        "start": {
            "initiative": null,
            "value": 0
        },
        "target": null,
        "tokenIcon": {
            "show": true
        },
        "traits": {
            "custom": "",
            "rarity": {
                "value": "common"
            },
            "value": []
        }
    },
    "effects": [],
    "flags": {},
    "img": "systems/pf2e/icons/spells/discern-secrets.webp",
    "name": "Spell Effect: Discern Secrets (Sense Motive)",
    "type": "effect"
}
