{
    "_id": "k1s8syi5E2FoR3Q3",
    "data": {
        "attributes": {
            "ac": {
                "value": 0
            },
            "hardness": 0,
            "hasHealth": true,
            "hp": {
                "details": "",
                "max": 10,
                "temp": 0,
                "value": 10
            },
            "stealth": {
                "details": "<p>(master)</p>",
                "value": 33
            }
        },
        "creatureType": "",
        "details": {
            "description": "<p>Miniature snowflake-shaped glyphs on the ground cause a layer of ice to ripple over the floor of the room and sound a silent alarm.</p>",
            "disable": "<p><span data-pf2-skill-check=\"arcana\" data-pf2-label=\"Disable Arcana DC\" data-pf2-dc=\"53\" data-pf2-show-dc=\"gm\">Arcana</span> (legendary) to draw a fiery counteracting glyph over each snowflake, or <em>@Compendium[pf2e.spells-srd.Dispel Magic]{Dispel Magic}</em> (9th level, counteract DC 48)</p>",
            "isComplex": false,
            "level": {
                "value": 20
            },
            "reset": "<p>1 day</p>",
            "routine": ""
        },
        "flavourText": "",
        "recallKnowledgeText": "",
        "saves": {
            "fortitude": {
                "rank": 0,
                "saveDetail": "",
                "value": null
            },
            "reflex": {
                "rank": 0,
                "saveDetail": "",
                "value": null
            },
            "will": {
                "rank": 0,
                "saveDetail": "",
                "value": null
            }
        },
        "schema": {
            "lastMigration": null,
            "version": 0.643
        },
        "sidebarText": "",
        "source": {
            "value": "Pathfinder #162: Ruins of the Radiant Siege"
        },
        "statusEffects": [],
        "traits": {
            "ci": [],
            "di": {
                "custom": "",
                "selected": {},
                "value": []
            },
            "dr": [],
            "dv": [],
            "rarity": {
                "value": "common"
            },
            "size": {
                "value": "med"
            },
            "traits": {
                "custom": "",
                "value": [
                    "magical",
                    "trap"
                ]
            }
        }
    },
    "effects": [],
    "flags": {},
    "img": "systems/pf2e/icons/default-icons/hazard.svg",
    "items": [
        {
            "_id": "DdFilDnuHDObT81V",
            "data": {
                "actionCategory": {
                    "value": "offensive"
                },
                "actionType": {
                    "value": "reaction"
                },
                "actions": {
                    "value": ""
                },
                "description": {
                    "value": "<div data-visibility=\"gm\">\n<p><strong>Trigger</strong> A creature enters one of the three squares marked with a T on the map;</p>\n</div>\n<p><strong>Effect</strong> The floor of the entire 10-foot-by-15-foot antechamber freezes over, sending deadly magical frost creeping up the legs of the intruders. Any creatures standing in the room must roll a <span data-pf2-saving-throw=\"reflex\" data-pf2-traits=\"abjuration,arcane,cold\" data-pf2-label=\"Freeze Floor DC\" data-pf2-dc=\"45\" data-pf2-show-dc=\"gm\">Reflex</span> save.</p>\n<div data-visibility=\"gm\"><hr />\n<p><strong>Critical Success</strong> The creature is unaffected.</p>\n<p><strong>Success</strong> The creature takes [[/r 3d10+5 #cold]] cold damage.</p>\n<p><strong>Failure</strong> The creature takes [[/r 6d10+10 #cold]] cold damage and is @Compendium[pf2e.conditionitems.Slowed]{Slowed 1} for [[/br 1d4 #rounds]] rounds.</p>\n<p><strong>Critical Failure</strong> The creature takes [[/r 12d10+20 #cold]] cold damage and is @Compendium[pf2e.conditionitems.Slowed]{Slowed 1} for 1 minute.</p>\n<p>Additionally, the golems in area B10 become aware of the intruders. The golems activate and come to this room to attack, if they haven’t been destroyed already.</p>\n</div>"
                },
                "requirements": {
                    "value": ""
                },
                "rules": [],
                "schema": {
                    "lastMigration": null,
                    "version": 0.643
                },
                "slug": null,
                "source": {
                    "value": ""
                },
                "traits": {
                    "custom": "",
                    "rarity": {
                        "value": "common"
                    },
                    "value": [
                        "cold",
                        "abjuration",
                        "arcane"
                    ]
                },
                "trigger": {
                    "value": ""
                },
                "weapon": {
                    "value": ""
                }
            },
            "effects": [],
            "flags": {},
            "img": "systems/pf2e/icons/actions/Reaction.webp",
            "name": "Freeze Floor",
            "sort": 100000,
            "type": "action"
        }
    ],
    "name": "Freezing Alarm",
    "token": {
        "actorId": "0p9CesuupGCAVHDQ",
        "actorLink": false,
        "alpha": 1,
        "bar1": {
            "attribute": "attributes.hp"
        },
        "bar2": {
            "attribute": null
        },
        "brightLight": 0,
        "brightSight": 0,
        "dimLight": 0,
        "dimSight": 0,
        "displayBars": 20,
        "displayName": 20,
        "disposition": 0,
        "flags": {},
        "height": 1,
        "img": "systems/pf2e/icons/default-icons/hazard.svg",
        "lightAlpha": 1,
        "lightAngle": 0,
        "lightAnimation": {
            "intensity": 5,
            "speed": 5
        },
        "lockRotation": false,
        "mirrorX": false,
        "mirrorY": false,
        "name": "Freezing Alarm",
        "randomImg": false,
        "rotation": 0,
        "scale": 1,
        "sightAngle": 0,
        "tint": null,
        "vision": false,
        "width": 1
    },
    "type": "hazard"
}
