{
    "_id": "yR6p0KVvZ3tPflRt",
    "data": {
        "abilities": {
            "cha": {
                "min": 3,
                "mod": 1,
                "value": 12
            },
            "con": {
                "min": 3,
                "mod": -2,
                "value": 6
            },
            "dex": {
                "min": 3,
                "mod": 4,
                "value": 18
            },
            "int": {
                "min": 3,
                "mod": 4,
                "value": 18
            },
            "str": {
                "min": 3,
                "mod": 0,
                "value": 10
            },
            "wis": {
                "min": 3,
                "mod": 3,
                "value": 16
            }
        },
        "attributes": {
            "ac": {
                "base": 14,
                "check": 0,
                "details": "(14 without mage armor)",
                "dex": 0,
                "item": 0,
                "min": 0,
                "value": 15
            },
            "allSaves": {
                "value": ""
            },
            "ancestryhp": 0,
            "bonusEncumbranceBulk": 0,
            "bonusLimitBulk": 0,
            "classDC": {
                "ability": "str",
                "breakdown": "",
                "item": 0,
                "rank": 0,
                "value": 0
            },
            "classhp": 0,
            "flatbonushp": 0,
            "flatbonussp": 0,
            "hp": {
                "details": "",
                "max": 30,
                "min": 0,
                "temp": 0,
                "value": 20
            },
            "init": {
                "bonus": 0,
                "value": 0
            },
            "initiative": {
                "ability": "",
                "circumstance": 0,
                "status": 0
            },
            "levelbonushp": 0,
            "levelbonussp": 0,
            "perception": {
                "ability": "wis",
                "breakdown": "",
                "item": 0,
                "rank": 0,
                "value": 9
            },
            "resolve": {
                "value": 0
            },
            "shield": {
                "ac": 2,
                "brokenThreshold": 0,
                "hardness": 0,
                "max": 0,
                "min": 0,
                "value": 0
            },
            "sp": {
                "details": "",
                "max": 0,
                "min": 0,
                "value": 0
            },
            "speed": {
                "otherSpeeds": [],
                "value": "25"
            }
        },
        "details": {
            "alignment": {
                "value": "NG"
            },
            "ancestry": {
                "value": ""
            },
            "biography": {
                "public": "",
                "value": ""
            },
            "class": {
                "value": ""
            },
            "creatureType": "",
            "deity": {
                "image": "systems/pf2e/assets/sheet/deity.webp",
                "value": ""
            },
            "flavourText": "",
            "heritage": {
                "value": ""
            },
            "keyability": {
                "value": "str"
            },
            "level": {
                "min": 1,
                "value": 2
            },
            "recallKnowledgeText": "",
            "source": {
                "value": "Pathfinder #157: Devil at the Dreaming Palace"
            }
        },
        "saves": {
            "fortitude": {
                "ability": "con",
                "breakdown": "",
                "item": 0,
                "rank": 0,
                "saveDetail": "",
                "value": 3
            },
            "reflex": {
                "ability": "dex",
                "breakdown": "",
                "item": 0,
                "rank": 0,
                "saveDetail": "",
                "value": 8
            },
            "will": {
                "ability": "wis",
                "breakdown": "",
                "item": 0,
                "rank": 0,
                "saveDetail": "",
                "value": 11
            }
        },
        "schema": {
            "lastMigration": null,
            "version": 0.643
        },
        "traits": {
            "attitude": {
                "value": "hostile"
            },
            "ci": [],
            "di": {
                "custom": "",
                "value": []
            },
            "dr": [],
            "dv": [],
            "languages": {
                "custom": "",
                "selected": [],
                "value": [
                    "celestial",
                    "common",
                    "draconic",
                    "dwarven",
                    "elven"
                ]
            },
            "rarity": {
                "value": "common"
            },
            "senses": {
                "value": ""
            },
            "size": {
                "value": "med"
            },
            "traits": {
                "custom": "",
                "value": [
                    "human",
                    "humanoid"
                ]
            }
        }
    },
    "effects": [],
    "flags": {},
    "img": "systems/pf2e/icons/default-icons/npc.svg",
    "items": [
        {
            "_id": "ZjdHv1h2KMIjC0bA",
            "data": {
                "ability": {
                    "value": ""
                },
                "description": {
                    "chat": "",
                    "unidentified": "",
                    "value": ""
                },
                "displayLevels": {},
                "focus": {
                    "points": 1,
                    "pool": 1
                },
                "item": {
                    "value": 0
                },
                "prepared": {
                    "value": "prepared"
                },
                "proficiency": {
                    "value": 0
                },
                "rules": [],
                "schema": {
                    "lastMigration": null,
                    "version": 0.643
                },
                "showUnpreparedSpells": {
                    "value": true
                },
                "signatureSpells": {
                    "value": []
                },
                "slots": {
                    "slot0": {
                        "max": 5,
                        "prepared": {
                            "0": {
                                "id": "Bfmk1sIeDozHP8sw"
                            },
                            "1": {
                                "id": "pWkkLRlBKwkZXwRV"
                            },
                            "2": {
                                "id": "k8LXiFujBidaVILZ"
                            },
                            "3": {
                                "id": "QIJI8QlhWROosKoM"
                            },
                            "4": {
                                "id": "nPh7Vp2lOuzlA117"
                            }
                        },
                        "value": 0
                    },
                    "slot1": {
                        "max": 4,
                        "prepared": {
                            "0": {
                                "id": "YzfpcFsAlaO7HoNe"
                            },
                            "1": {
                                "expended": true,
                                "id": "xIln3iwIgdBldH3w"
                            },
                            "2": {
                                "id": "5qjjpBTfrmtcZUBg"
                            },
                            "3": {
                                "id": "xl1IybOXvhixr2gM"
                            }
                        },
                        "value": 0
                    },
                    "slot10": {
                        "max": 0,
                        "prepared": [],
                        "value": 0
                    },
                    "slot11": {
                        "max": 0,
                        "prepared": [],
                        "value": 0
                    },
                    "slot2": {
                        "max": 0,
                        "prepared": [],
                        "value": 0
                    },
                    "slot3": {
                        "max": 0,
                        "prepared": [],
                        "value": 0
                    },
                    "slot4": {
                        "max": 0,
                        "prepared": [],
                        "value": 0
                    },
                    "slot5": {
                        "max": 0,
                        "prepared": [],
                        "value": 0
                    },
                    "slot6": {
                        "max": 0,
                        "prepared": [],
                        "value": 0
                    },
                    "slot7": {
                        "max": 0,
                        "prepared": [],
                        "value": 0
                    },
                    "slot8": {
                        "max": 0,
                        "prepared": [],
                        "value": 0
                    },
                    "slot9": {
                        "max": 0,
                        "prepared": [],
                        "value": 0
                    }
                },
                "slug": null,
                "source": {
                    "value": ""
                },
                "spelldc": {
                    "dc": 18,
                    "item": 0,
                    "mod": 0,
                    "value": 12
                },
                "tradition": {
                    "value": "arcane"
                },
                "traits": {
                    "custom": "",
                    "rarity": {
                        "value": "common"
                    },
                    "value": []
                }
            },
            "effects": [],
            "flags": {},
            "img": "systems/pf2e/icons/default-icons/spellcastingEntry.svg",
            "name": "Prepared Arcane Spells",
            "sort": 100000,
            "type": "spellcastingEntry"
        },
        {
            "_id": "BW9xnDoY4BohVAGZ",
            "data": {
                "ability": {
                    "value": ""
                },
                "description": {
                    "chat": "",
                    "unidentified": "",
                    "value": ""
                },
                "displayLevels": {},
                "focus": {
                    "points": 1,
                    "pool": 1
                },
                "item": {
                    "value": 0
                },
                "prepared": {
                    "value": ""
                },
                "proficiency": {
                    "value": 0
                },
                "rules": [],
                "schema": {
                    "lastMigration": null,
                    "version": 0.643
                },
                "showUnpreparedSpells": {
                    "value": true
                },
                "signatureSpells": {
                    "value": []
                },
                "slots": {
                    "slot0": {
                        "max": 0,
                        "prepared": [],
                        "value": 0
                    },
                    "slot1": {
                        "max": 1,
                        "prepared": [],
                        "value": 1
                    },
                    "slot10": {
                        "max": 0,
                        "prepared": [],
                        "value": 0
                    },
                    "slot11": {
                        "max": 0,
                        "prepared": [],
                        "value": 0
                    },
                    "slot2": {
                        "max": 0,
                        "prepared": [],
                        "value": 0
                    },
                    "slot3": {
                        "max": 0,
                        "prepared": [],
                        "value": 0
                    },
                    "slot4": {
                        "max": 0,
                        "prepared": [],
                        "value": 0
                    },
                    "slot5": {
                        "max": 0,
                        "prepared": [],
                        "value": 0
                    },
                    "slot6": {
                        "max": 0,
                        "prepared": [],
                        "value": 0
                    },
                    "slot7": {
                        "max": 0,
                        "prepared": [],
                        "value": 0
                    },
                    "slot8": {
                        "max": 0,
                        "prepared": [],
                        "value": 0
                    },
                    "slot9": {
                        "max": 0,
                        "prepared": [],
                        "value": 0
                    }
                },
                "slug": null,
                "source": {
                    "value": ""
                },
                "spelldc": {
                    "dc": 18,
                    "item": 0,
                    "mod": 0,
                    "value": 12
                },
                "tradition": {
                    "value": "focus"
                },
                "traits": {
                    "custom": "",
                    "rarity": {
                        "value": "common"
                    },
                    "value": []
                }
            },
            "effects": [],
            "flags": {},
            "img": "systems/pf2e/icons/default-icons/spellcastingEntry.svg",
            "name": "Focus Spells",
            "sort": 200000,
            "type": "spellcastingEntry"
        },
        {
            "_id": "Bfmk1sIeDozHP8sw",
            "data": {
                "ability": {
                    "value": ""
                },
                "area": {
                    "areaType": "",
                    "value": ""
                },
                "areasize": {
                    "value": ""
                },
                "category": {
                    "value": "spell"
                },
                "components": {
                    "material": false,
                    "somatic": true,
                    "verbal": true
                },
                "cost": {
                    "value": ""
                },
                "damage": {
                    "applyMod": false,
                    "value": "1d6+1"
                },
                "damageType": {
                    "value": "acid"
                },
                "description": {
                    "chat": "",
                    "unidentified": "",
                    "value": "<p>You splash a glob of acid that splatters your target and nearby creatures. Make a spell attack. If you hit, you deal 1d6 acid damage plus 1 splash acid damage. On a critical success, the target also takes 1 persistent acid damage.</p>\n<hr />\n<p><strong>Heightened (3rd)</strong> The initial damage increases to 1d6 + your spellcasting ability modifier, and the @Compendium[pf2e.conditionitems.Persistent Damage]{Persistent Damage} increases to 2.<br /><strong>Heightened (5th)</strong> The initial damage increases to 2d6 + your spellcasting ability modifier, the Persistent Damage increases to 3, and the splash damage increases to 2.<br /><strong>Heightened (7th)</strong> The initial damage increases to 3d6 + your spellcasting ability modifier, the Persistent Damage increases to 4, and the splash damage increases to 3.<br /><strong>Heightened (9th)</strong> The initial damage increases to 4d6 + your spellcasting ability modifier, the Persistent Damage increases to 5, and the splash damage increases to 4.</p>"
                },
                "duration": {
                    "value": ""
                },
                "hasCounteractCheck": {
                    "value": false
                },
                "level": {
                    "value": 1
                },
                "location": {
                    "value": "ZjdHv1h2KMIjC0bA"
                },
                "materials": {
                    "value": ""
                },
                "prepared": {
                    "value": ""
                },
                "primarycheck": {
                    "value": ""
                },
                "range": {
                    "value": "30 feet"
                },
                "rules": [],
                "save": {
                    "basic": "",
                    "value": ""
                },
                "scaling": {
                    "formula": "",
                    "mode": "none"
                },
                "schema": {
                    "lastMigration": null,
                    "version": 0.643
                },
                "school": {
                    "value": "evocation"
                },
                "secondarycasters": {
                    "value": ""
                },
                "secondarycheck": {
                    "value": ""
                },
                "slug": "acid-splash",
                "source": {
                    "value": ""
                },
                "spellType": {
                    "value": "attack"
                },
                "sustained": {
                    "value": false
                },
                "target": {
                    "value": "1 creature"
                },
                "time": {
                    "value": "2"
                },
                "traditions": {
                    "custom": "",
                    "value": [
                        "arcane",
                        "primal"
                    ]
                },
                "traits": {
                    "custom": "",
                    "rarity": {
                        "value": "common"
                    },
                    "value": [
                        "attack",
                        "acid",
                        "cantrip",
                        "evocation"
                    ]
                }
            },
            "effects": [],
            "flags": {
                "core": {
                    "sourceId": "Compendium.pf2e.spells-srd.gISYsBFby1TiXfBt"
                }
            },
            "img": "systems/pf2e/icons/spells/acid-splash.webp",
            "name": "Acid Splash",
            "sort": 300000,
            "type": "spell"
        },
        {
            "_id": "YzfpcFsAlaO7HoNe",
            "data": {
                "ability": {
                    "value": ""
                },
                "area": {
                    "areaType": "cone",
                    "value": 15
                },
                "areasize": {
                    "value": ""
                },
                "category": {
                    "value": "spell"
                },
                "components": {
                    "material": false,
                    "somatic": true,
                    "verbal": true
                },
                "cost": {
                    "value": ""
                },
                "damage": {
                    "applyMod": false,
                    "value": "2d6"
                },
                "damageType": {
                    "value": "fire"
                },
                "description": {
                    "chat": "",
                    "unidentified": "",
                    "value": "<p>Gouts of flame rush from your hands. You deal 2d6 fire damage to creatures in the area.</p>\n<hr />\n<p><strong>Heightened (+1)</strong> The damage increases by 2d6.</p>"
                },
                "duration": {
                    "value": ""
                },
                "hasCounteractCheck": {
                    "value": false
                },
                "level": {
                    "value": 1
                },
                "location": {
                    "value": "ZjdHv1h2KMIjC0bA"
                },
                "materials": {
                    "value": ""
                },
                "prepared": {
                    "value": ""
                },
                "primarycheck": {
                    "value": ""
                },
                "range": {
                    "value": ""
                },
                "rules": [],
                "save": {
                    "basic": "basic",
                    "value": "reflex"
                },
                "scaling": {
                    "formula": "2d6",
                    "mode": "level1"
                },
                "schema": {
                    "lastMigration": null,
                    "version": 0.643
                },
                "school": {
                    "value": "evocation"
                },
                "secondarycasters": {
                    "value": ""
                },
                "secondarycheck": {
                    "value": ""
                },
                "slug": "burning-hands",
                "source": {
                    "value": ""
                },
                "spellType": {
                    "value": "save"
                },
                "sustained": {
                    "value": false
                },
                "target": {
                    "value": ""
                },
                "time": {
                    "value": "2"
                },
                "traditions": {
                    "value": [
                        "arcane",
                        "primal"
                    ]
                },
                "traits": {
                    "custom": "",
                    "rarity": {
                        "value": "common"
                    },
                    "value": [
                        "evocation",
                        "fire"
                    ]
                }
            },
            "effects": [],
            "flags": {
                "core": {
                    "sourceId": "Compendium.pf2e.spells-srd.y6rAdMK6EFlV6U0t"
                }
            },
            "img": "systems/pf2e/icons/spells/burning-hands.webp",
            "name": "Burning Hands",
            "sort": 400000,
            "type": "spell"
        },
        {
            "_id": "pWkkLRlBKwkZXwRV",
            "data": {
                "ability": {
                    "value": ""
                },
                "area": {
                    "areaType": "emanation",
                    "value": "30"
                },
                "areasize": {
                    "value": "30-foot emanation"
                },
                "category": {
                    "value": "spell"
                },
                "components": {
                    "material": false,
                    "somatic": true,
                    "verbal": true
                },
                "cost": {
                    "value": ""
                },
                "damage": {
                    "applyMod": false,
                    "value": ""
                },
                "damageType": {
                    "value": ""
                },
                "description": {
                    "chat": "",
                    "unidentified": "",
                    "value": "<p>You send out a pulse that registers the presence of magic. You receive no information beyond the presence or absence of magic. You can choose to ignore magic you're fully aware of, such as the magic items and ongoing spells of you and your allies.</p>\n<p>You detect illusion magic only if that magic's effect has a lower level than the level of your detect magic spell. However, items that have an illusion aura but aren't deceptive in appearance (such as an invisibility potion) typically are detected normally.</p>\n<p><strong>Heightened (3rd)</strong> You learn the school of magic for the highest-level effect within range that the spell detects. If multiple effects are equally strong, the GM determines which you learn.</p>\n<p><strong>Heightened (4th)</strong> As 3rd level, but you also pinpoint the source of the highest-level magic. Like for an imprecise sense, you don't learn the exact location, but can narrow down the source to within a 5-foot cube (or the nearest if larger than that).</p>"
                },
                "duration": {
                    "value": ""
                },
                "hasCounteractCheck": {
                    "value": false
                },
                "level": {
                    "value": 1
                },
                "location": {
                    "value": "ZjdHv1h2KMIjC0bA"
                },
                "materials": {
                    "value": ""
                },
                "prepared": {
                    "value": ""
                },
                "primarycheck": {
                    "value": ""
                },
                "range": {
                    "value": ""
                },
                "rules": [],
                "save": {
                    "basic": "",
                    "value": ""
                },
                "scaling": {
                    "formula": "",
                    "mode": "none"
                },
                "schema": {
                    "lastMigration": null,
                    "version": 0.643
                },
                "school": {
                    "value": "divination"
                },
                "secondarycasters": {
                    "value": ""
                },
                "secondarycheck": {
                    "value": ""
                },
                "slug": "detect-magic",
                "source": {
                    "value": ""
                },
                "spellType": {
                    "value": "utility"
                },
                "sustained": {
                    "value": false
                },
                "target": {
                    "value": ""
                },
                "time": {
                    "value": "2"
                },
                "traditions": {
                    "custom": "",
                    "value": [
                        "arcane",
                        "divine",
                        "occult",
                        "primal"
                    ]
                },
                "traits": {
                    "custom": "",
                    "rarity": {
                        "value": "common"
                    },
                    "value": [
                        "detection",
                        "cantrip",
                        "divination"
                    ]
                }
            },
            "effects": [],
            "flags": {
                "core": {
                    "sourceId": "Compendium.pf2e.spells-srd.gpzpAAAJ1Lza2JVl"
                }
            },
            "img": "systems/pf2e/icons/spells/detect-magic.webp",
            "name": "Detect Magic",
            "sort": 500000,
            "type": "spell"
        },
        {
            "_id": "Bc8JIKqgDRZVgO4x",
            "data": {
                "ability": {
                    "value": ""
                },
                "area": {
                    "areaType": "",
                    "value": ""
                },
                "areasize": {
                    "value": ""
                },
                "category": {
                    "value": "focus"
                },
                "components": {
                    "material": false,
                    "somatic": true,
                    "verbal": false
                },
                "cost": {
                    "value": ""
                },
                "damage": {
                    "applyMod": false,
                    "value": "1d4+1"
                },
                "damageType": {
                    "value": "force"
                },
                "description": {
                    "chat": "",
                    "unidentified": "",
                    "value": "<p>You fire an unerring dart of force from your fingertips. It automatically hits and deals 1d4+1 force damage to the target.</p>\n<hr />\n<p><strong>Heightened (+2)</strong> The damage increases by 1d4+1.</p>"
                },
                "duration": {
                    "value": ""
                },
                "hasCounteractCheck": {
                    "value": false
                },
                "level": {
                    "value": 1
                },
                "location": {
                    "value": "BW9xnDoY4BohVAGZ"
                },
                "materials": {
                    "value": ""
                },
                "prepared": {
                    "value": ""
                },
                "primarycheck": {
                    "value": ""
                },
                "range": {
                    "value": "30 feet"
                },
                "rules": [],
                "save": {
                    "basic": "",
                    "value": ""
                },
                "scaling": {
                    "formula": "1d4+1",
                    "mode": "level2"
                },
                "schema": {
                    "lastMigration": null,
                    "version": 0.643
                },
                "school": {
                    "value": "evocation"
                },
                "secondarycasters": {
                    "value": ""
                },
                "secondarycheck": {
                    "value": ""
                },
                "slug": "force-bolt",
                "source": {
                    "value": ""
                },
                "spellType": {
                    "value": "utility"
                },
                "sustained": {
                    "value": false
                },
                "target": {
                    "value": "1 creature"
                },
                "time": {
                    "value": "1"
                },
                "traditions": {
                    "value": []
                },
                "traits": {
                    "custom": "",
                    "rarity": {
                        "value": "uncommon"
                    },
                    "value": [
                        "uncommon",
                        "force",
                        "evocation",
                        "wizard"
                    ]
                }
            },
            "effects": [],
            "flags": {
                "core": {
                    "sourceId": "Compendium.pf2e.spells-srd.Hu38hoAUSYeFpkVa"
                }
            },
            "img": "systems/pf2e/icons/spells/force-bolt.webp",
            "name": "Force Bolt",
            "sort": 600000,
            "type": "spell"
        },
        {
            "_id": "xIln3iwIgdBldH3w",
            "data": {
                "ability": {
                    "value": ""
                },
                "area": {
                    "areaType": "",
                    "value": null
                },
                "areasize": {
                    "value": ""
                },
                "category": {
                    "value": "spell"
                },
                "components": {
                    "material": false,
                    "somatic": true,
                    "verbal": true
                },
                "cost": {
                    "value": ""
                },
                "damage": {
                    "applyMod": false,
                    "value": ""
                },
                "damageType": {
                    "value": ""
                },
                "description": {
                    "chat": "",
                    "unidentified": "",
                    "value": "<p>You ward yourself with shimmering magical energy, gaining a +1 item bonus to AC and a maximum Dexterity modifier of +5. While wearing mage armor, you use your unarmored proficiency to calculate your AC.</p>\n<hr />\n<p><strong>Heightened (4th)</strong> You gain a +1 item bonus to saving throws.</p>\n<p><strong>Heightened (6th)</strong> The item bonus to AC increases to +2, and you gain a +1 item bonus to saving throws.</p>\n<p><strong>Heightened (8th)</strong> The item bonus to AC increases to +2, and you gain a +2 item bonus to saving throws.</p>\n<p><strong>Heightened (10th)</strong> The item bonus to AC increases to +3, and you gain a +3 item bonus to saving throws.</p>\n\n<p>@Compendium[pf2e.spell-effects.Spell Effect: Mage Armor]{Spell Effect: Mage Armor}</p>"
                },
                "duration": {
                    "value": "until the next time you make your daily preparations"
                },
                "hasCounteractCheck": {
                    "value": false
                },
                "level": {
                    "value": 1
                },
                "location": {
                    "value": "ZjdHv1h2KMIjC0bA"
                },
                "materials": {
                    "value": ""
                },
                "prepared": {
                    "value": ""
                },
                "primarycheck": {
                    "value": ""
                },
                "range": {
                    "value": ""
                },
                "rules": [],
                "save": {
                    "basic": "",
                    "value": ""
                },
                "scaling": {
                    "formula": "",
                    "mode": "none"
                },
                "schema": {
                    "lastMigration": null,
                    "version": 0.643
                },
                "school": {
                    "value": "abjuration"
                },
                "secondarycasters": {
                    "value": ""
                },
                "secondarycheck": {
                    "value": ""
                },
                "slug": "mage-armor",
                "source": {
                    "value": ""
                },
                "spellType": {
                    "value": "utility"
                },
                "sustained": {
                    "value": false
                },
                "target": {
                    "value": ""
                },
                "time": {
                    "value": "2"
                },
                "traditions": {
                    "value": [
                        "arcane",
                        "occult"
                    ]
                },
                "traits": {
                    "custom": "",
                    "rarity": {
                        "value": "common"
                    },
                    "value": [
                        "abjuration"
                    ]
                }
            },
            "effects": [],
            "flags": {
                "core": {
                    "sourceId": "Compendium.pf2e.spells-srd.Mage Armor"
                }
            },
            "img": "systems/pf2e/icons/spells/mage-armor.webp",
            "name": "Mage Armor",
            "sort": 700000,
            "type": "spell"
        },
        {
            "_id": "k8LXiFujBidaVILZ",
            "data": {
                "ability": {
                    "value": ""
                },
                "area": {
                    "areaType": "",
                    "value": null
                },
                "areasize": {
                    "value": ""
                },
                "category": {
                    "value": "spell"
                },
                "components": {
                    "material": false,
                    "somatic": true,
                    "verbal": true
                },
                "cost": {
                    "value": ""
                },
                "damage": {
                    "applyMod": false,
                    "value": ""
                },
                "damageType": {
                    "value": ""
                },
                "description": {
                    "chat": "",
                    "unidentified": "",
                    "value": "<p>You create a single magical hand, either invisible or ghostlike, that grasps the target object and moves it slowly up to 20 feet. Because you're levitating the object, you can move it in any direction. When you Sustain the Spell, you can move the object an additional 20 feet. If the object is in the air when the spell ends, the object falls.</p>\n<hr />\n<p><strong>Heightened (3rd)</strong> You can target an unattended object with a Bulk of 1 or less.</p>\n<p><strong>Heightened (5th)</strong> The range increases to 60 feet, and you can target an unattended object with a Bulk of 1 or less.</p>\n<p><strong>Heightened (7th)</strong> The range increases to 60 feet, and you can target an unattended object with a Bulk of 2 or less.</p>"
                },
                "duration": {
                    "value": "sustained"
                },
                "hasCounteractCheck": {
                    "value": false
                },
                "level": {
                    "value": 1
                },
                "location": {
                    "value": "ZjdHv1h2KMIjC0bA"
                },
                "materials": {
                    "value": ""
                },
                "prepared": {
                    "value": ""
                },
                "primarycheck": {
                    "value": ""
                },
                "range": {
                    "value": "30 feet"
                },
                "rules": [],
                "save": {
                    "basic": "",
                    "value": ""
                },
                "scaling": {
                    "formula": "",
                    "mode": "none"
                },
                "schema": {
                    "lastMigration": null,
                    "version": 0.643
                },
                "school": {
                    "value": "evocation"
                },
                "secondarycasters": {
                    "value": ""
                },
                "secondarycheck": {
                    "value": ""
                },
                "slug": "mage-hand",
                "source": {
                    "value": ""
                },
                "spellType": {
                    "value": "utility"
                },
                "sustained": {
                    "value": false
                },
                "target": {
                    "value": "1 unattended object of light Bulk or less"
                },
                "time": {
                    "value": "2"
                },
                "traditions": {
                    "value": [
                        "arcane",
                        "occult"
                    ]
                },
                "traits": {
                    "custom": "",
                    "rarity": {
                        "value": "common"
                    },
                    "value": [
                        "cantrip",
                        "evocation"
                    ]
                }
            },
            "effects": [],
            "flags": {
                "core": {
                    "sourceId": "Compendium.pf2e.spells-srd.pwzdSlJgYqN7bs2w"
                }
            },
            "img": "systems/pf2e/icons/spells/mage-hand.webp",
            "name": "Mage Hand",
            "sort": 800000,
            "type": "spell"
        },
        {
            "_id": "5qjjpBTfrmtcZUBg",
            "data": {
                "ability": {
                    "value": ""
                },
                "area": {
                    "areaType": "",
                    "value": null
                },
                "areasize": {
                    "value": ""
                },
                "category": {
                    "value": "spell"
                },
                "components": {
                    "material": false,
                    "somatic": true,
                    "verbal": true
                },
                "cost": {
                    "value": ""
                },
                "damage": {
                    "applyMod": false,
                    "value": "1d4+1"
                },
                "damageType": {
                    "value": "force"
                },
                "description": {
                    "chat": "",
                    "unidentified": "",
                    "value": "<p>You send a dart of force streaking toward a creature that you can see. It automatically hits and deals 1d4+1 force damage. For each additional action you use when Casting the Spell, increase the number of missiles you shoot by one, to a maximum of three missiles for 3 actions. You choose the target for each missile individually. If you shoot more than one missile at the same target, combine the damage before applying bonuses or penalties to damage, resistances, weaknesses, and so forth.</p>\n<hr />\n<p><strong>Heightened (+2)</strong> You shoot one additional missile with each action you spend.</p>"
                },
                "duration": {
                    "value": ""
                },
                "hasCounteractCheck": {
                    "value": false
                },
                "level": {
                    "value": 1
                },
                "location": {
                    "value": "ZjdHv1h2KMIjC0bA"
                },
                "materials": {
                    "value": ""
                },
                "prepared": {
                    "value": ""
                },
                "primarycheck": {
                    "value": ""
                },
                "range": {
                    "value": "120 feet"
                },
                "rules": [],
                "save": {
                    "basic": "",
                    "value": ""
                },
                "scaling": {
                    "formula": "",
                    "mode": "none"
                },
                "schema": {
                    "lastMigration": null,
                    "version": 0.643
                },
                "school": {
                    "value": "evocation"
                },
                "secondarycasters": {
                    "value": ""
                },
                "secondarycheck": {
                    "value": ""
                },
                "slug": "magic-missile",
                "source": {
                    "value": ""
                },
                "spellType": {
                    "value": "utility"
                },
                "sustained": {
                    "value": false
                },
                "target": {
                    "value": "1 creature"
                },
                "time": {
                    "value": "1 to 3"
                },
                "traditions": {
                    "value": [
                        "arcane",
                        "occult"
                    ]
                },
                "traits": {
                    "custom": "",
                    "rarity": {
                        "value": "common"
                    },
                    "value": [
                        "evocation",
                        "force"
                    ]
                }
            },
            "effects": [],
            "flags": {
                "core": {
                    "sourceId": "Compendium.pf2e.spells-srd.gKKqvLohtrSJj3BM"
                }
            },
            "img": "systems/pf2e/icons/spells/magic-missile.webp",
            "name": "Magic Missile",
            "sort": 900000,
            "type": "spell"
        },
        {
            "_id": "QIJI8QlhWROosKoM",
            "data": {
                "ability": {
                    "value": ""
                },
                "area": {
                    "areaType": "",
                    "value": null
                },
                "areasize": {
                    "value": ""
                },
                "category": {
                    "value": "spell"
                },
                "components": {
                    "material": false,
                    "somatic": true,
                    "verbal": true
                },
                "cost": {
                    "value": ""
                },
                "damage": {
                    "applyMod": false,
                    "value": ""
                },
                "damageType": {
                    "value": ""
                },
                "description": {
                    "chat": "",
                    "unidentified": "",
                    "value": "<p>The simplest magic does your bidding. You can perform simple magical effects for as long as you Sustain the Spell. Each time you Sustain the Spell, you can choose one of four options.</p>\n<ul>\n<li><strong>Cook</strong> Cool, warm, or flavor 1 pound of nonliving material.</li>\n<li><strong>Lift</strong> <strong>Slowly</strong> lift an unattended object of light Bulk or less 1 foot off the ground.</li>\n<li><strong>Make</strong> Create a temporary object of negligible Bulk, made of congealed magical substance. The object looks crude and artificial and is extremely fragile-it can't be used as a tool, weapon, or spell component.</li>\n<li><strong>Tidy</strong> Color, clean, or soil an object of light Bulk or less. You can affect an object of 1 Bulk with 10 rounds of concentration, and a larger object a 1 minute per Bulk.</li>\n</ul>\n<p>Prestidigitation can't deal damage or cause adverse conditions. Any actual change to an object (beyond what is noted above) persists only as long as you Sustain the Spell.</p>"
                },
                "duration": {
                    "value": "sustained"
                },
                "hasCounteractCheck": {
                    "value": false
                },
                "level": {
                    "value": 1
                },
                "location": {
                    "value": "ZjdHv1h2KMIjC0bA"
                },
                "materials": {
                    "value": ""
                },
                "prepared": {
                    "value": ""
                },
                "primarycheck": {
                    "value": ""
                },
                "range": {
                    "value": "10 feet"
                },
                "rules": [],
                "save": {
                    "basic": "",
                    "value": ""
                },
                "scaling": {
                    "formula": "",
                    "mode": "none"
                },
                "schema": {
                    "lastMigration": null,
                    "version": 0.643
                },
                "school": {
                    "value": "evocation"
                },
                "secondarycasters": {
                    "value": ""
                },
                "secondarycheck": {
                    "value": ""
                },
                "slug": "prestidigitation",
                "source": {
                    "value": ""
                },
                "spellType": {
                    "value": "utility"
                },
                "sustained": {
                    "value": true
                },
                "target": {
                    "value": "1 object (cook, lift, or tidy only)"
                },
                "time": {
                    "value": "2"
                },
                "traditions": {
                    "custom": "",
                    "value": [
                        "arcane",
                        "divine",
                        "occult",
                        "primal"
                    ]
                },
                "traits": {
                    "custom": "",
                    "rarity": {
                        "value": "common"
                    },
                    "value": [
                        "cantrip",
                        "evocation"
                    ]
                }
            },
            "effects": [],
            "flags": {
                "core": {
                    "sourceId": "Compendium.pf2e.spells-srd.Qw3fnUlaUbnn7ipC"
                }
            },
            "img": "systems/pf2e/icons/spells/prestidigitation.webp",
            "name": "Prestidigitation",
            "sort": 1000000,
            "type": "spell"
        },
        {
            "_id": "nPh7Vp2lOuzlA117",
            "data": {
                "ability": {
                    "value": ""
                },
                "area": {
                    "areaType": "",
                    "value": null
                },
                "areasize": {
                    "value": ""
                },
                "category": {
                    "value": "spell"
                },
                "components": {
                    "material": false,
                    "somatic": true,
                    "verbal": true
                },
                "cost": {
                    "value": ""
                },
                "damage": {
                    "applyMod": true,
                    "value": "1d4"
                },
                "damageType": {
                    "value": "cold"
                },
                "description": {
                    "chat": "",
                    "unidentified": "",
                    "value": "<p>You blast an icy ray. Make a spell attack roll. The ray deals cold damage equal to 1d4 + your spellcasting ability modifier.</p>\n<hr />\n<p><strong>Critical Success</strong> The target takes double damage and takes a -10-foot status penalty to its Speeds for 1 round.</p>\n<p>@Compendium[pf2e.spell-effects.Spell Effect: Ray of Frost]{Spell Effect: Ray of Frost}</p>\n<p><strong>Success</strong> The target takes normal damage.</p>\n<hr />\n<p><strong>Heightened (+1)</strong> The damage increases by 1d4.</p>"
                },
                "duration": {
                    "value": ""
                },
                "hasCounteractCheck": {
                    "value": false
                },
                "level": {
                    "value": 1
                },
                "location": {
                    "value": "ZjdHv1h2KMIjC0bA"
                },
                "materials": {
                    "value": ""
                },
                "prepared": {
                    "value": ""
                },
                "primarycheck": {
                    "value": ""
                },
                "range": {
                    "value": "120 feet"
                },
                "rules": [],
                "save": {
                    "basic": "",
                    "value": ""
                },
                "scaling": {
                    "formula": "1d4",
                    "mode": "level1"
                },
                "schema": {
                    "lastMigration": null,
                    "version": 0.643
                },
                "school": {
                    "value": "evocation"
                },
                "secondarycasters": {
                    "value": ""
                },
                "secondarycheck": {
                    "value": ""
                },
                "slug": "ray-of-frost",
                "source": {
                    "value": ""
                },
                "spellType": {
                    "value": "attack"
                },
                "sustained": {
                    "value": false
                },
                "target": {
                    "value": "1 creature"
                },
                "time": {
                    "value": "2"
                },
                "traditions": {
                    "custom": "",
                    "value": [
                        "arcane",
                        "primal"
                    ]
                },
                "traits": {
                    "custom": "",
                    "rarity": {
                        "value": "common"
                    },
                    "value": [
                        "attack",
                        "cold",
                        "cantrip",
                        "evocation"
                    ]
                }
            },
            "effects": [],
            "flags": {
                "core": {
                    "sourceId": "Compendium.pf2e.spells-srd.gYjPm7YwGtEa1oxh"
                }
            },
            "img": "systems/pf2e/icons/spells/ray-of-frost.webp",
            "name": "Ray of Frost",
            "sort": 1100000,
            "type": "spell"
        },
        {
            "_id": "xl1IybOXvhixr2gM",
            "data": {
                "ability": {
                    "value": ""
                },
                "area": {
                    "areaType": "",
                    "value": null
                },
                "areasize": {
                    "value": ""
                },
                "category": {
                    "value": "spell"
                },
                "components": {
                    "material": false,
                    "somatic": true,
                    "verbal": true
                },
                "cost": {
                    "value": ""
                },
                "damage": {
                    "applyMod": false,
                    "value": "2d12"
                },
                "damageType": {
                    "value": "electricity"
                },
                "description": {
                    "chat": "",
                    "unidentified": "",
                    "value": "<p>You shroud your hands in a crackling field of lightning. Make a melee spell attack roll. On a hit, the target takes 2d12 electricity damage. If the target is wearing metal armor or is made of metal, you gain a +1 circumstance bonus to your attack roll with shocking grasp, and the target also takes 1d4 persistent electricity damage on a hit. On a critical hit, double the initial damage, but not the @Compendium[pf2e.conditionitems.Persistent Damage]{Persistent Damage}.</p>\n<hr />\n<p><strong>Heightened (+1)</strong> The damage increases by 1d12, and the persistent electricity damage increases by 1.</p>"
                },
                "duration": {
                    "value": ""
                },
                "hasCounteractCheck": {
                    "value": false
                },
                "level": {
                    "value": 1
                },
                "location": {
                    "value": "ZjdHv1h2KMIjC0bA"
                },
                "materials": {
                    "value": ""
                },
                "prepared": {
                    "value": ""
                },
                "primarycheck": {
                    "value": ""
                },
                "range": {
                    "value": "touch"
                },
                "rules": [],
                "save": {
                    "basic": "",
                    "value": ""
                },
                "scaling": {
                    "formula": "1d12",
                    "mode": "level1"
                },
                "schema": {
                    "lastMigration": null,
                    "version": 0.643
                },
                "school": {
                    "value": "evocation"
                },
                "secondarycasters": {
                    "value": ""
                },
                "secondarycheck": {
                    "value": ""
                },
                "slug": "shocking-grasp",
                "source": {
                    "value": ""
                },
                "spellType": {
                    "value": "attack"
                },
                "sustained": {
                    "value": false
                },
                "target": {
                    "value": "1 creature"
                },
                "time": {
                    "value": "2"
                },
                "traditions": {
                    "value": [
                        "arcane",
                        "primal"
                    ]
                },
                "traits": {
                    "custom": "",
                    "rarity": {
                        "value": "common"
                    },
                    "value": [
                        "attack",
                        "electricity",
                        "evocation"
                    ]
                }
            },
            "effects": [],
            "flags": {
                "core": {
                    "sourceId": "Compendium.pf2e.spells-srd.r3NeUnsgt9mS03Sn"
                }
            },
            "img": "systems/pf2e/icons/spells/shocking-grasp.webp",
            "name": "Shocking Grasp",
            "sort": 1200000,
            "type": "spell"
        },
        {
            "_id": "jybYCirNRpxTm5fl",
            "data": {
                "attack": {
                    "value": ""
                },
                "attackEffects": {
                    "custom": "",
                    "value": []
                },
                "bonus": {
                    "value": 6
                },
                "damageRolls": {
                    "0": {
                        "damage": "1d4",
                        "damageType": "bludgeoning"
                    }
                },
                "description": {
                    "chat": "",
                    "unidentified": "",
                    "value": ""
                },
                "rules": [],
                "schema": {
                    "lastMigration": null,
                    "version": 0.643
                },
                "slug": null,
                "source": {
                    "value": ""
                },
                "traits": {
                    "custom": "",
                    "rarity": {
                        "value": "common"
                    },
                    "selected": {
                        "agile": "Agile",
                        "finesse": "Finesse",
                        "nonlethal": "Nonlethal",
                        "unarmed": "Unarmed"
                    },
                    "value": [
                        "agile",
                        "finesse",
                        "nonlethal",
                        "unarmed"
                    ]
                },
                "weaponType": {
                    "value": "melee"
                }
            },
            "effects": [],
            "flags": {},
            "img": "systems/pf2e/icons/default-icons/melee.svg",
            "name": "Fist",
            "sort": 1300000,
            "type": "melee"
        },
        {
            "_id": "I7zUPwVMtrP17lu5",
            "data": {
                "actionCategory": {
                    "value": "offensive"
                },
                "actionType": {
                    "value": "passive"
                },
                "actions": {
                    "value": ""
                },
                "description": {
                    "chat": "",
                    "unidentified": "",
                    "value": "<p>You can use clever workarounds to replicate the arcane essence of certain materials. When you @Compendium[pf2e.actionspf2e.Cast a Spell]{Cast a Spell} that requires material components, you can provide these material components without a spell component pouch by drawing intricate replacement sigils in the air.</p>\n<p>Unlike when providing somatic components, you still must have a hand completely free. This doesn't remove the need for any materials listed in the spell's cost entry.</p>"
                },
                "requirements": {
                    "value": ""
                },
                "rules": [],
                "schema": {
                    "lastMigration": null,
                    "version": 0.643
                },
                "slug": null,
                "source": {
                    "value": ""
                },
                "traits": {
                    "custom": "",
                    "rarity": {
                        "value": "common"
                    },
                    "selected": {},
                    "value": []
                },
                "trigger": {
                    "value": ""
                },
                "weapon": {
                    "value": ""
                }
            },
            "effects": [],
            "flags": {},
            "img": "systems/pf2e/icons/actions/Passive.webp",
            "name": "Eschew Materials",
            "sort": 1400000,
            "type": "action"
        },
        {
            "_id": "wkRr7CRrpAEqEPHr",
            "data": {
                "description": {
                    "chat": "",
                    "unidentified": "",
                    "value": ""
                },
                "item": {
                    "value": 0
                },
                "mod": {
                    "value": 8
                },
                "proficient": {
                    "value": 0
                },
                "rules": [],
                "schema": {
                    "lastMigration": null,
                    "version": 0.643
                },
                "slug": null,
                "source": {
                    "value": ""
                },
                "traits": {
                    "custom": "",
                    "rarity": {
                        "value": "common"
                    },
                    "value": []
                }
            },
            "effects": [],
            "flags": {},
            "img": "systems/pf2e/icons/default-icons/lore.svg",
            "name": "Arcana",
            "sort": 1500000,
            "type": "lore"
        },
        {
            "_id": "G5tvGbd2JsfAj76Q",
            "data": {
                "description": {
                    "chat": "",
                    "unidentified": "",
                    "value": ""
                },
                "item": {
                    "value": 0
                },
                "mod": {
                    "value": 8
                },
                "proficient": {
                    "value": 0
                },
                "rules": [],
                "schema": {
                    "lastMigration": null,
                    "version": 0.643
                },
                "slug": null,
                "source": {
                    "value": ""
                },
                "traits": {
                    "custom": "",
                    "rarity": {
                        "value": "common"
                    },
                    "value": []
                }
            },
            "effects": [],
            "flags": {},
            "img": "systems/pf2e/icons/default-icons/lore.svg",
            "name": "Crafting",
            "sort": 1600000,
            "type": "lore"
        },
        {
            "_id": "SkgAUxT04kKJpezn",
            "data": {
                "description": {
                    "chat": "",
                    "unidentified": "",
                    "value": ""
                },
                "item": {
                    "value": 0
                },
                "mod": {
                    "value": 8
                },
                "proficient": {
                    "value": 0
                },
                "rules": [],
                "schema": {
                    "lastMigration": null,
                    "version": 0.643
                },
                "slug": null,
                "source": {
                    "value": ""
                },
                "traits": {
                    "custom": "",
                    "rarity": {
                        "value": "common"
                    },
                    "value": []
                }
            },
            "effects": [],
            "flags": {},
            "img": "systems/pf2e/icons/default-icons/lore.svg",
            "name": "Occultism",
            "sort": 1700000,
            "type": "lore"
        },
        {
            "_id": "b7EhfvvU3nImCmog",
            "data": {
                "description": {
                    "chat": "",
                    "unidentified": "",
                    "value": "<p>Granted by @Compendium[pf2e.spells-srd.Mage Armor]{Mage Armor}</p>\n<p>You ward yourself with shimmering magical energy, gaining a +1 item bonus to AC and a maximum Dexterity modifier of +5. While wearing mage armor, you use your unarmored proficiency to calculate your AC.</p>"
                },
                "duration": {
                    "expiry": "turn-start",
                    "sustained": false,
                    "unit": "days",
                    "value": 1
                },
                "level": {
                    "value": 1
                },
                "rules": [
                    {
                        "key": "PF2E.RuleElement.FlatModifier",
                        "label": "Mage Armor",
                        "selector": "ac",
                        "type": "item",
                        "value": {
                            "brackets": [
                                {
                                    "end": 5,
                                    "value": 1
                                },
                                {
                                    "end": 9,
                                    "start": 6,
                                    "value": 2
                                },
                                {
                                    "start": 10,
                                    "value": 3
                                }
                            ],
                            "field": "item|data.level.value"
                        }
                    },
                    {
                        "key": "PF2E.RuleElement.FlatModifier",
                        "label": "Mage Armor",
                        "selector": "saving-throw",
                        "type": "item",
                        "value": {
                            "brackets": [
                                {
                                    "end": 7,
                                    "start": 4,
                                    "value": 1
                                },
                                {
                                    "end": 9,
                                    "start": 8,
                                    "value": 2
                                },
                                {
                                    "start": 10,
                                    "value": 3
                                }
                            ],
                            "field": "item|data.level.value"
                        }
                    },
                    {
                        "key": "PF2E.RuleElement.DexterityModifierCap",
                        "label": "Mage Armor",
                        "value": 5
                    }
                ],
                "schema": {
                    "lastMigration": null,
                    "version": 0.643
                },
                "slug": "spell-effect-mage-armor",
                "source": {
                    "value": ""
                },
                "start": {
                    "initiative": null,
                    "value": 0
                },
                "target": null,
                "tokenIcon": {
                    "show": true
                },
                "traits": {
                    "custom": "",
                    "rarity": {
                        "value": "common"
                    },
                    "value": []
                }
            },
            "effects": [],
            "flags": {
                "core": {
                    "sourceId": "Compendium.pf2e.spell-effects.Spell Effect: Mage Armor"
                }
            },
            "img": "systems/pf2e/icons/spells/mage-armor.webp",
            "name": "Spell Effect: Mage Armor",
            "sort": 1800000,
            "type": "effect"
        }
    ],
    "name": "Kemeneles",
    "token": {
        "actorId": "yR6p0KVvZ3tPflRt",
        "actorLink": false,
        "alpha": 1,
        "bar1": {
            "attribute": null
        },
        "bar2": {
            "attribute": null
        },
        "brightLight": 0,
        "brightSight": 0,
        "dimLight": 0,
        "dimSight": 0,
        "displayBars": 20,
        "displayName": 20,
        "disposition": -1,
        "flags": {},
        "height": 1,
        "img": "systems/pf2e/icons/default-icons/npc.svg",
        "lightAlpha": 1,
        "lightAngle": 0,
        "lightAnimation": {
            "intensity": 5,
            "speed": 5
        },
        "lockRotation": false,
        "mirrorX": false,
        "mirrorY": false,
        "name": "Kemeneles",
        "randomImg": false,
        "rotation": 0,
        "scale": 1,
        "sightAngle": 0,
        "tint": null,
        "vision": false,
        "width": 1
    },
    "type": "npc"
}
