{
    "_id": "eG7FBDjCdEFzW9V9",
    "data": {
        "actionCategory": {
            "value": ""
        },
        "actionType": {
            "value": "passive"
        },
        "actions": {
            "value": ""
        },
        "description": {
            "chat": "",
            "unidentified": "",
            "value": "<p>Your alchemical concoctions are incredibly effective. Your proficiency rank for your alchemist class DC increases to master.</p>"
        },
        "featType": {
            "value": "classfeature"
        },
        "level": {
            "value": 17
        },
        "location": "",
        "prerequisites": {
            "value": []
        },
        "rules": [],
        "schema": {
            "lastMigration": null,
            "version": 0.643
        },
        "source": {
            "value": ""
        },
        "traits": {
            "custom": "",
            "rarity": {
                "value": "common"
            },
            "value": [
                "alchemist"
            ]
        }
    },
    "effects": [
        {
            "_id": "ubMIA1pZYDECgxH8",
            "changes": [
                {
                    "key": "data.attributes.classDC.rank",
                    "mode": 4,
                    "value": "3"
                }
            ],
            "disabled": false,
            "duration": {
                "startTime": null
            },
            "flags": {},
            "icon": "systems/pf2e/icons/features/classes/alchemical-mastery.webp",
            "label": "Alchemical Mastery",
            "origin": "",
            "tint": null,
            "transfer": true
        }
    ],
    "flags": {},
    "img": "systems/pf2e/icons/features/classes/alchemical-mastery.webp",
    "name": "Alchemical Mastery",
    "type": "feat"
}
