{
    "_id": "3e1PlMXmlSwKoc6d",
    "data": {
        "actionCategory": {
            "value": ""
        },
        "actionType": {
            "value": "passive"
        },
        "actions": {
            "value": ""
        },
        "description": {
            "chat": "",
            "unidentified": "",
            "value": "<p>Constant practice has increased the effectiveness of your concoctions. Your proficiency rank for your alchemist class DC increases to expert.</p>"
        },
        "featType": {
            "value": "classfeature"
        },
        "level": {
            "value": 9
        },
        "location": "",
        "prerequisites": {
            "value": []
        },
        "rules": [],
        "schema": {
            "lastMigration": null,
            "version": 0.643
        },
        "source": {
            "value": ""
        },
        "traits": {
            "custom": "",
            "rarity": {
                "value": "common"
            },
            "value": [
                "alchemist"
            ]
        }
    },
    "effects": [
        {
            "_id": "yPrr2nWHgDNMxoP8",
            "changes": [
                {
                    "key": "data.attributes.classDC.rank",
                    "mode": 4,
                    "value": "2"
                }
            ],
            "disabled": false,
            "duration": {
                "startTime": null
            },
            "flags": {},
            "icon": "systems/pf2e/icons/features/classes/alchemical-expertise.webp",
            "label": "Alchemist Expertise",
            "origin": "",
            "tint": null,
            "transfer": true
        }
    ],
    "flags": {},
    "img": "systems/pf2e/icons/features/classes/alchemical-expertise.webp",
    "name": "Alchemical Expertise",
    "type": "feat"
}
