{
    "_id": "Eood6pNPaJxuSgD1",
    "data": {
        "actionCategory": {
            "value": ""
        },
        "actionType": {
            "value": "passive"
        },
        "actions": {
            "value": ""
        },
        "description": {
            "chat": "",
            "unidentified": "",
            "value": "<p>Your comfort in concocting items is such that you can create three at a time. When using the @Compendium[pf2e.actionspf2e.Quick Alchemy]{Quick Alchemy} action, you can spend up to three batches of infused reagents to make up to three alchemical items as described in that action. These items do not have to be the same.</p>"
        },
        "featType": {
            "value": "classfeature"
        },
        "level": {
            "value": 15
        },
        "location": "",
        "prerequisites": {
            "value": []
        },
        "rules": [],
        "schema": {
            "lastMigration": null,
            "version": 0.643
        },
        "source": {
            "value": ""
        },
        "traits": {
            "custom": "",
            "rarity": {
                "value": "common"
            },
            "value": [
                "alchemist"
            ]
        }
    },
    "effects": [],
    "flags": {},
    "img": "systems/pf2e/icons/features/classes/alchemical-alarity.webp",
    "name": "Alchemical Alacrity",
    "type": "feat"
}
