{
    "_id": "PNpmVmD21zViDtGC",
    "data": {
        "actionCategory": {
            "value": ""
        },
        "actionType": {
            "value": "passive"
        },
        "actions": {
            "value": ""
        },
        "description": {
            "chat": "",
            "unidentified": "",
            "value": "<p><strong>Barbarian</strong>: Your foes struggle to pass your defenses. You aren't flat-footed to hidden, undetected, or flanking creatures of your level or lower, or creatures of your level or lower using surprise attack. However, they can still help their allies flank.</p>\n<hr />\n<p><strong>Rogue</strong>: As someone who takes advantage of others' defenses, you are careful not to leave such openings yourself. You aren't flat-footed to hidden, undetected, or flanking creatures of your level or lower, or creatures of your level or lower using surprise attack. However, they can still help their allies flank.</p>"
        },
        "featType": {
            "value": "classfeature"
        },
        "level": {
            "value": 3
        },
        "location": "",
        "prerequisites": {
            "value": []
        },
        "rules": [],
        "schema": {
            "lastMigration": null,
            "version": 0.643
        },
        "source": {
            "value": ""
        },
        "traits": {
            "custom": "",
            "rarity": {
                "value": "common"
            },
            "value": [
                "barbarian",
                "rogue"
            ]
        }
    },
    "effects": [],
    "flags": {},
    "img": "systems/pf2e/icons/features/classes/deny-advantage.webp",
    "name": "Deny Advantage (Level 3)",
    "type": "feat"
}
