{
    "_id": "8QAFgy9U8PxEa7Dw",
    "data": {
        "actionCategory": {
            "value": ""
        },
        "actionType": {
            "value": "passive"
        },
        "actions": {
            "value": ""
        },
        "description": {
            "chat": "",
            "unidentified": "",
            "value": "<p>When using @Compendium[pf2e.classfeatures.Advanced Alchemy]{Advanced Alchemy} to make bombs during your daily preparations, you can use a batch of @Compendium[pf2e.classfeatures.Infused Reagents]{reagents} to create any three bombs instead of just two of the same bomb.</p>"
        },
        "featType": {
            "value": "classfeature"
        },
        "level": {
            "value": 5
        },
        "location": "",
        "prerequisites": {
            "value": []
        },
        "rules": [],
        "schema": {
            "lastMigration": null,
            "version": 0.643
        },
        "source": {
            "value": ""
        },
        "traits": {
            "custom": "",
            "rarity": {
                "value": "common"
            },
            "value": [
                "alchemist"
            ]
        }
    },
    "effects": [],
    "flags": {},
    "img": "systems/pf2e/icons/features/classes/field-discovery-bomber.webp",
    "name": "Field Discovery (Bomber)",
    "type": "feat"
}
