{
    "_id": "MEwvBnT2VsO5lQ6I",
    "data": {
        "actionCategory": {
            "value": ""
        },
        "actionType": {
            "value": "passive"
        },
        "actions": {
            "value": ""
        },
        "description": {
            "value": "<p>You learn an incredible discovery that advances your understanding of your field.</p>\n<p>@Compendium[pf2e.classfeatures.Greater Field Discovery (Bomber)]{Greater Field Discovery (Bomber)}</p>\n<p>@Compendium[pf2e.classfeatures.Greater Field Discovery (Chirurgeon)]{Greater Field Discovery (Chirurgeon)}</p>\n<p>@Compendium[pf2e.classfeatures.Greater Field Discovery (Mutagenist)]{Greater Field Discovery (Mutagenist)}</p>\n<p>@Compendium[pf2e.classfeatures.Greater Field Discovery (Toxicologist)]{Greater Field Discovery (Toxicologist)}</p>"
        },
        "featType": {
            "value": "classfeature"
        },
        "level": {
            "value": 13
        },
        "location": "",
        "prerequisites": {
            "value": []
        },
        "rules": [],
        "schema": {
            "lastMigration": null,
            "version": 0.643
        },
        "source": {
            "value": ""
        },
        "traits": {
            "custom": "",
            "rarity": {
                "value": "common"
            },
            "value": [
                "alchemist"
            ]
        }
    },
    "effects": [],
    "flags": {},
    "img": "systems/pf2e/icons/default-icons/feat.svg",
    "name": "Greater Field Discovery",
    "type": "feat"
}
