{
    "_id": "PFvB79O2VFdiAeSj",
    "data": {
        "actionCategory": {
            "value": ""
        },
        "actionType": {
            "value": "passive"
        },
        "actions": {
            "value": ""
        },
        "description": {
            "chat": "",
            "unidentified": "",
            "value": "<p>You've refined your investigative techniques to an exceptional degree. Your circumstance bonus from @Compendium[pf2e.actionspf2e.Pursue a Lead]{Pursue a Lead} increases to +2. Your proficiency rank for your investigator class DC increases to expert.</p>\n<p>@Compendium[pf2e.feat-effects.Effect: Clue In (Expertise)]{Effect: Clue In (Expertise)}</p>\n<p>If you have @Compendium[pf2e.feats-srd.Detective's Readiness]{Detective's Readiness}, @Compendium[pf2e.feat-effects.Effect: Clue In (Detective's Readiness, Expertise)]{Effect: Clue In (Detective's Readiness, Expertise)}</p>"
        },
        "featType": {
            "value": "classfeature"
        },
        "level": {
            "value": 9
        },
        "location": "",
        "prerequisites": {
            "value": []
        },
        "rules": [],
        "schema": {
            "lastMigration": null,
            "version": 0.643
        },
        "source": {
            "value": ""
        },
        "traits": {
            "custom": "",
            "rarity": {
                "value": "common"
            },
            "value": [
                "investigator"
            ]
        }
    },
    "effects": [
        {
            "_id": "D9skOqLbelkUvCIi",
            "changes": [
                {
                    "key": "data.attributes.classDC.rank",
                    "mode": 4,
                    "value": "2"
                }
            ],
            "disabled": false,
            "duration": {
                "startTime": null
            },
            "flags": {},
            "icon": "systems/pf2e/icons/features/classes/investigator-expertise.webp",
            "label": "Investigator Expertise",
            "origin": "",
            "tint": null,
            "transfer": true
        }
    ],
    "flags": {},
    "img": "systems/pf2e/icons/features/classes/investigator-expertise.webp",
    "name": "Investigator Expertise",
    "type": "feat"
}
