{
    "_id": "voiSCh7ZXA2ogwiC",
    "data": {
        "actionCategory": {
            "value": ""
        },
        "actionType": {
            "value": "passive"
        },
        "actions": {
            "value": ""
        },
        "description": {
            "chat": "",
            "unidentified": "",
            "value": "<p>You shield yourself with steel as easily as with faith. Your proficiency ranks for light, medium, and heavy armor, as well as for unarmored defense, increase to legendary.</p>"
        },
        "featType": {
            "value": "classfeature"
        },
        "level": {
            "value": 17
        },
        "location": "",
        "prerequisites": {
            "value": []
        },
        "rules": [],
        "schema": {
            "lastMigration": null,
            "version": 0.643
        },
        "source": {
            "value": ""
        },
        "traits": {
            "custom": "",
            "rarity": {
                "value": "common"
            },
            "value": [
                "champion"
            ]
        }
    },
    "effects": [
        {
            "_id": "cXgJqSZp7u11bE6Z",
            "changes": [
                {
                    "key": "data.martial.unarmored.rank",
                    "mode": 4,
                    "value": "4"
                },
                {
                    "key": "data.martial.heavy.rank",
                    "mode": 4,
                    "value": "4"
                },
                {
                    "key": "data.martial.medium.rank",
                    "mode": 4,
                    "value": "4"
                },
                {
                    "key": "data.martial.light.rank",
                    "mode": 4,
                    "value": "4"
                }
            ],
            "disabled": false,
            "duration": {
                "startTime": null
            },
            "flags": {},
            "icon": "systems/pf2e/icons/features/classes/legendary-armor.webp",
            "label": "Legendary Armor",
            "origin": "",
            "tint": null,
            "transfer": true
        }
    ],
    "flags": {},
    "img": "systems/pf2e/icons/features/classes/legendary-armor.webp",
    "name": "Legendary Armor",
    "type": "feat"
}
