{
    "_id": "o1gGG36wpn9mxeop",
    "data": {
        "actionCategory": {
            "value": ""
        },
        "actionType": {
            "value": "passive"
        },
        "actions": {
            "value": ""
        },
        "description": {
            "chat": "",
            "unidentified": "",
            "value": "<p>The never-ending flow of positive energy within living beings is palpable to you. You might uphold the sanctity of life, or perhaps you seek to undermine it. You might draw power from the collective vitality of the world's living creatures, hold some connection to the Positive Energy Plane, or revere a collection of deities including Irori, Pharasma, Sarenrae, and the god of medicine Qi Zhong.</p>\n<p><strong>Mystery Benefit</strong></p>\n<p>Your body is a deep reservoir of life energy. At each level, you gain Hit Points equal to 10 + your Constitution modifier from the oracle class, instead of 8 + your Constitution modifier.</p>\n<p><strong>Trained Skill</strong> Medicine</p>\n<p><strong>Granted Cantrip</strong> @Compendium[pf2e.spells-srd.Stabilize]{Stabilize}</p>\n<p><strong>Revelation Spells</strong></p>\n<ul>\n<li>Initial @Compendium[pf2e.spells-srd.Life Link]{Life Link};</li>\n<li>Advanced @Compendium[pf2e.spells-srd.Delay Affliction]{Delay Affliction};</li>\n<li>Greater @Compendium[pf2e.spells-srd.Life-Giving Form]{Life-Giving Form}</li>\n</ul>\n<p><strong>Related Domains</strong> death, healing</p>\n<h3>Curse of Outpouring Life</h3>\n<p>Life energy flows outward from you and connects you to all living things, but you expend your vital essence to do so. Your presence comforts the ill and injured, causes scars to fade slightly, spurs new growth in plants, and otherwise infuses your surroundings with vitality.</p>\n<h4>Minor Curse</h4>\n<p>As your life force seeps outward, it becomes more difficult to keep your body functioning. Effects that restore Hit Points to you take a status penalty equal to half your level (minimum 1) to the number of HP you recover.</p>\n<p>@Compendium[pf2e.feature-effects.Effect: Minor Life Curse]{Effect: Minor Life Curse}</p>\n<h4>Moderate Curse</h4>\n<p>The flow of life energy away from you can't be reversed.</p>\n<p>In addition to the effects of your minor curse, you can't be healed by magical effects originating from other creatures. However, if you are unconscious, magical effects can restore you to 1 HP (but no higher). You are affected normally by healing elixirs, potions, and other items.</p>\n<p>When you cast @Compendium[pf2e.spells-srd.Heal]{Heal} and all your targets are living creatures, you roll d12s instead of d8s for the amount of healing.</p>\n<p>Whenever you finish casting a non-cantrip spell, you restore Hit Points equal to the spell level to your choice of either one target of the spell or the creature nearest to you. You can't heal yourself in this way. This healing has the healing, necromancy, and positive traits, as well as the tradition trait of the spell.</p>\n<p>@Compendium[pf2e.feature-effects.Effect: Moderate Life Curse]{Effect: Moderate Life Curse}</p>\n<h4>Major Curse (11th)</h4>\n<p>Life energy tears through you to empower your magic. Some of your spells carry positive energy with them.</p>\n<p>Each time you use a spell slot to cast a 5th-level or higher spell that takes 2 or more actions to cast, you disperse positive energy in a 30-foot burst with the effects of a 3-action @Compendium[pf2e.spells-srd.Heal]{Heal} spell with a level 4 lower than that of the spell you cast. This healing occurs immediately after you finish Casting the Spell. You don't benefit from this healing. Instead, you lose double the number of Hit Points rolled for the heal spell.</p>\n<p>@Compendium[pf2e.feature-effects.Effect: Major Life Curse]{Effect: Major Life Curse}</p>"
        },
        "featType": {
            "value": "classfeature"
        },
        "level": {
            "value": 1
        },
        "location": "",
        "prerequisites": {
            "value": []
        },
        "rules": [],
        "schema": {
            "lastMigration": null,
            "version": 0.643
        },
        "source": {
            "value": ""
        },
        "traits": {
            "custom": "",
            "rarity": {
                "value": "common"
            },
            "value": [
                "oracle"
            ]
        }
    },
    "effects": [
        {
            "_id": "3I0Jh3wgg2cJUDtz",
            "changes": [
                {
                    "key": "data.skills.med.rank",
                    "mode": 4,
                    "value": "1"
                },
                {
                    "key": "data.attributes.classhp",
                    "mode": 5,
                    "value": "10"
                }
            ],
            "disabled": false,
            "duration": {
                "startTime": null
            },
            "flags": {},
            "icon": "systems/pf2e/icons/features/classes/life-mystery.webp",
            "label": "Life Mystery",
            "origin": "",
            "tint": null,
            "transfer": true
        }
    ],
    "flags": {},
    "img": "systems/pf2e/icons/features/classes/life-mystery.webp",
    "name": "Life Mystery",
    "type": "feat"
}
