{
    "_id": "SUUdWG0t33VKa5q4",
    "data": {
        "actionCategory": {
            "value": ""
        },
        "actionType": {
            "value": "passive"
        },
        "actions": {
            "value": ""
        },
        "description": {
            "chat": "",
            "unidentified": "",
            "value": "<p>You can incapacitate an unwary foe with a single strike. Your proficiency rank for your rogue class DC increases to master. You gain the @Compendium[pf2e.actionspf2e.Master Strike]{Master Strike} free action.</p>"
        },
        "featType": {
            "value": "classfeature"
        },
        "level": {
            "value": 19
        },
        "location": "",
        "prerequisites": {
            "value": []
        },
        "rules": [],
        "schema": {
            "lastMigration": null,
            "version": 0.643
        },
        "source": {
            "value": ""
        },
        "traits": {
            "custom": "",
            "rarity": {
                "value": "common"
            },
            "value": [
                "rogue"
            ]
        }
    },
    "effects": [
        {
            "_id": "GYDXsgTi51nX07ct",
            "changes": [
                {
                    "key": "data.attributes.classDC.rank",
                    "mode": 4,
                    "value": "3"
                }
            ],
            "disabled": false,
            "duration": {
                "startTime": null
            },
            "flags": {},
            "icon": "systems/pf2e/icons/features/classes/master-strike.webp",
            "label": "Master Strike",
            "origin": "",
            "tint": null,
            "transfer": true
        }
    ],
    "flags": {},
    "img": "systems/pf2e/icons/features/classes/master-strike.webp",
    "name": "Master Strike",
    "type": "feat"
}
