{
    "_id": "myvcir1LEkaVxOlE",
    "data": {
        "actionCategory": {
            "value": ""
        },
        "actionType": {
            "value": "passive"
        },
        "actions": {
            "value": ""
        },
        "description": {
            "chat": "",
            "unidentified": "",
            "value": "<p>You've mastered a rogue's fighting moves. Your proficiency ranks increase to master for all simple weapons and unarmed attacks plus the rapier, sap, shortbow, and shortsword.</p>"
        },
        "featType": {
            "value": "classfeature"
        },
        "level": {
            "value": 13
        },
        "location": "",
        "prerequisites": {
            "value": []
        },
        "rules": [],
        "schema": {
            "lastMigration": null,
            "version": 0.643
        },
        "source": {
            "value": ""
        },
        "traits": {
            "custom": "",
            "rarity": {
                "value": "common"
            },
            "value": [
                "rogue"
            ]
        }
    },
    "effects": [
        {
            "_id": "dKB3hBPVFMwx3AGx",
            "changes": [
                {
                    "key": "data.martial.simple.rank",
                    "mode": 4,
                    "value": "3"
                },
                {
                    "key": "data.martial.weapon-base-rapier.rank",
                    "mode": 4,
                    "value": "3"
                },
                {
                    "key": "data.martial.weapon-base-sap.rank",
                    "mode": 4,
                    "value": "3"
                },
                {
                    "key": "data.martial.weapon-base-shortbow.rank",
                    "mode": 4,
                    "value": "3"
                },
                {
                    "key": "data.martial.weapon-base-shortsword.rank",
                    "mode": 4,
                    "value": "3"
                },
                {
                    "key": "data.martial.unarmed.rank",
                    "mode": 4,
                    "value": "3"
                }
            ],
            "disabled": false,
            "duration": {
                "startTime": null
            },
            "flags": {},
            "icon": "systems/pf2e/icons/features/classes/master-tricks.webp",
            "label": "Master Tricks",
            "origin": "",
            "tint": null,
            "transfer": true
        }
    ],
    "flags": {},
    "img": "systems/pf2e/icons/features/classes/master-tricks.webp",
    "name": "Master Tricks",
    "type": "feat"
}
