{
    "_id": "uhHg9BXBiHpL5ndS",
    "data": {
        "actionCategory": {
            "value": ""
        },
        "actionType": {
            "value": "passive"
        },
        "actions": {
            "value": ""
        },
        "description": {
            "value": "<p>Your studies have made you savvy in many areas, but one in particular drew your intense interest. Choose a methodology. The methodologies are as follows:</p>\n<ul>\n<li>@Compendium[pf2e.classfeatures.Alchemical Sciences Methodology]{Alchemical Sciences Methodology}</li>\n<li>@Compendium[pf2e.classfeatures.Empiricism Methodology]{Empiricism Methodology}</li>\n<li>@Compendium[pf2e.classfeatures.Forensic Medicine Methodology]{Forensic Medicine Methodology}</li>\n<li>@Compendium[pf2e.classfeatures.Interrogation Methodology]{Interrogation Methodology}</li>\n</ul>"
        },
        "featType": {
            "value": "classfeature"
        },
        "level": {
            "value": 1
        },
        "location": "",
        "prerequisites": {
            "value": []
        },
        "rules": [],
        "schema": {
            "lastMigration": null,
            "version": 0.643
        },
        "source": {
            "value": ""
        },
        "traits": {
            "custom": "",
            "rarity": {
                "value": "common"
            },
            "value": [
                "investigator"
            ]
        }
    },
    "effects": [],
    "flags": {},
    "img": "systems/pf2e/icons/default-icons/feat.svg",
    "name": "Methodology",
    "type": "feat"
}
