{
    "_id": "ZqwHAoIZrI1dGoqK",
    "data": {
        "actionCategory": {
            "value": ""
        },
        "actionType": {
            "value": "passive"
        },
        "actions": {
            "value": ""
        },
        "description": {
            "value": "<p>You have learned how to create perpetual alchemical infusions that can provide a near-infinite supply of certain simple items.</p>\n<p>@Compendium[pf2e.classfeatures.Perpetual Infusions (Bomber)]{Perpetual Infusions (Bomber)}</p>\n<p>@Compendium[pf2e.classfeatures.Perpetual Infusions (Chirurgeon)]{Perpetual Infusions (Chirurgeon)}</p>\n<p>@Compendium[pf2e.classfeatures.Perpetual Infusions (Mutagenist)]{Perpetual Infusions (Mutagenist)}</p>\n<p>@Compendium[pf2e.classfeatures.Perpetual Infusions (Toxicologist)]{Perpetual Infusions (Toxicologist)}</p>"
        },
        "featType": {
            "value": "classfeature"
        },
        "level": {
            "value": 7
        },
        "location": "",
        "prerequisites": {
            "value": []
        },
        "rules": [],
        "schema": {
            "lastMigration": null,
            "version": 0.643
        },
        "source": {
            "value": ""
        },
        "traits": {
            "custom": "",
            "rarity": {
                "value": "common"
            },
            "value": [
                "alchemist"
            ]
        }
    },
    "effects": [],
    "flags": {},
    "img": "systems/pf2e/icons/default-icons/feat.svg",
    "name": "Perpetual Infusions",
    "type": "feat"
}
