{
    "_id": "mZFqRLYOQEqKA8ri",
    "data": {
        "actionCategory": {
            "value": ""
        },
        "actionType": {
            "value": "passive"
        },
        "actions": {
            "value": ""
        },
        "description": {
            "chat": "",
            "unidentified": "",
            "value": "<p>Your perpetual infusions improve, allowing you to use @Compendium[pf2e.classfeatures.Quick Alchemy]{Quick Alchemy} to create more powerful items with no cost. The items you can select depend on your research field and must be in your formula book.</p>\n<p>The moderate versions of the mutagens you chose for perpetual infusions.</p>"
        },
        "featType": {
            "value": "classfeature"
        },
        "level": {
            "value": 11
        },
        "location": "",
        "prerequisites": {
            "value": []
        },
        "rules": [],
        "schema": {
            "lastMigration": null,
            "version": 0.643
        },
        "source": {
            "value": ""
        },
        "traits": {
            "custom": "",
            "rarity": {
                "value": "common"
            },
            "value": [
                "alchemist"
            ]
        }
    },
    "effects": [],
    "flags": {},
    "img": "systems/pf2e/icons/features/classes/perpetual-potency-mutagenist.webp",
    "name": "Perpetual Potency (Mutagenist)",
    "type": "feat"
}
