{
    "_id": "RQH6vigvhmiYKKjg",
    "data": {
        "actionCategory": {
            "value": ""
        },
        "actionType": {
            "value": "passive"
        },
        "actions": {
            "value": ""
        },
        "description": {
            "chat": "",
            "unidentified": "",
            "value": "<p>You Strike with flair. When you have panache and you Strike with an agile or finesse melee weapon or agile or finesse unarmed attack, you deal 2 additional precision damage. If the strike is part of a finisher, the additional damage is 2d6 precision damage instead.</p>\n<p>As your swashbuckler level increases, so does your additional damage for precise strike. Increase the amount of additional damage on a Strike and the number of additional dice on a finisher by one at 5th, 9th, 13th, and 17th levels.</p>"
        },
        "featType": {
            "value": "classfeature"
        },
        "level": {
            "value": 1
        },
        "location": "",
        "prerequisites": {
            "value": []
        },
        "rules": [
            {
                "damageCategory": "precision",
                "key": "PF2E.RuleElement.FlatModifier",
                "predicate": {
                    "all": [
                        "panache",
                        "melee"
                    ],
                    "any": [
                        "finesse",
                        "agile"
                    ],
                    "not": [
                        "finisher"
                    ]
                },
                "selector": "damage",
                "value": {
                    "brackets": [
                        {
                            "end": 4,
                            "value": 2
                        },
                        {
                            "end": 8,
                            "start": 5,
                            "value": 3
                        },
                        {
                            "end": 12,
                            "start": 9,
                            "value": 4
                        },
                        {
                            "end": 16,
                            "start": 13,
                            "value": 5
                        },
                        {
                            "start": 17,
                            "value": 6
                        }
                    ]
                }
            },
            {
                "category": "precision",
                "dieSize": "d6",
                "key": "PF2E.RuleElement.DamageDice",
                "predicate": {
                    "all": [
                        "finisher",
                        "panache",
                        "melee"
                    ],
                    "any": [
                        "finesse",
                        "agile"
                    ]
                },
                "selector": "damage",
                "value": {
                    "brackets": [
                        {
                            "end": 4,
                            "value": {
                                "diceNumber": 2
                            }
                        },
                        {
                            "end": 8,
                            "start": 5,
                            "value": {
                                "diceNumber": 3
                            }
                        },
                        {
                            "end": 12,
                            "start": 9,
                            "value": {
                                "diceNumber": 4
                            }
                        },
                        {
                            "end": 16,
                            "start": 13,
                            "value": {
                                "diceNumber": 5
                            }
                        },
                        {
                            "start": 17,
                            "value": {
                                "diceNumber": 6
                            }
                        }
                    ]
                }
            },
            {
                "key": "PF2E.RuleElement.ToggleProperty",
                "label": "Finisher",
                "property": "flags.pf2e.rollOptions.damage-roll.finisher"
            }
        ],
        "schema": {
            "lastMigration": null,
            "version": 0.643
        },
        "source": {
            "value": ""
        },
        "traits": {
            "custom": "",
            "rarity": {
                "value": "common"
            },
            "value": [
                "swashbuckler"
            ]
        }
    },
    "effects": [],
    "flags": {},
    "img": "systems/pf2e/icons/features/classes/precise-strike.webp",
    "name": "Precise Strike",
    "type": "feat"
}
