{
    "_id": "vv63fioCtOvDIdF2",
    "data": {
        "actionCategory": {
            "value": ""
        },
        "actionType": {
            "value": "passive"
        },
        "actions": {
            "value": ""
        },
        "description": {
            "chat": "",
            "unidentified": "",
            "value": "<p>You've steeled your mind with incredible resolve. Your proficiency rank for Will saves increases to master. When you roll a success at a Will save, you get a critical success instead.</p>"
        },
        "featType": {
            "value": "classfeature"
        },
        "level": {
            "value": 11
        },
        "location": "",
        "prerequisites": {
            "value": []
        },
        "rules": [
            {
                "key": "PF2E.RuleElement.Note",
                "selector": "will",
                "text": "<p class='compact-text'><strong>{item|name}</strong> When you roll a success on a Will save, you get a critical success instead.</p>"
            },
            {
                "adjustment": {
                    "success": "one-degree-better"
                },
                "key": "PF2E.RuleElement.AdjustDegreeOfSuccess",
                "selector": "will",
                "type": "save"
            }
        ],
        "schema": {
            "lastMigration": null,
            "version": 0.643
        },
        "source": {
            "value": ""
        },
        "traits": {
            "custom": "",
            "rarity": {
                "value": "common"
            },
            "value": [
                "druid",
                "investigator"
            ]
        }
    },
    "effects": [
        {
            "_id": "Cwlr0ErfyviZEMOq",
            "changes": [
                {
                    "key": "data.saves.will.rank",
                    "mode": 4,
                    "value": "3"
                }
            ],
            "disabled": false,
            "duration": {
                "startTime": null
            },
            "flags": {},
            "icon": "systems/pf2e/icons/features/classes/resolve.webp",
            "label": "Resolve (Level 11)",
            "origin": "",
            "tint": null,
            "transfer": true
        }
    ],
    "flags": {},
    "img": "systems/pf2e/icons/features/classes/resolve.webp",
    "name": "Resolve (Level 11)",
    "type": "feat"
}
