{
    "_id": "y6qnbUc8y0815QNE",
    "data": {
        "actionCategory": {
            "value": ""
        },
        "actionType": {
            "value": "passive"
        },
        "actions": {
            "value": ""
        },
        "description": {
            "value": "<p>You've learned to find perfection in every success. Choose a different saving throw than the one you chose for your path to perfection. Your proficiency rank for the chosen saving throw increases to master. If you roll a success with the chosen saving throw, you instead critically succeed.</p>\n<hr />\n<p>@Compendium[pf2e.classfeatures.Second Path to Perfection (Fortitude)]{Second Path to Perfection (Fortitude)}</p>\n<p>@Compendium[pf2e.classfeatures.Second Path to Perfection (Reflex)]{Second Path to Perfection (Reflex)}</p>\n<p>@Compendium[pf2e.classfeatures.Second Path to Perfection (Will)]{Second Path to Perfection (Will)}</p>"
        },
        "featType": {
            "value": "classfeature"
        },
        "level": {
            "value": 11
        },
        "location": "",
        "prerequisites": {
            "value": []
        },
        "rules": [],
        "schema": {
            "lastMigration": null,
            "version": 0.643
        },
        "source": {
            "value": ""
        },
        "traits": {
            "custom": "",
            "rarity": {
                "value": "common"
            },
            "value": [
                "monk"
            ]
        }
    },
    "effects": [],
    "flags": {},
    "img": "systems/pf2e/icons/default-icons/feat.svg",
    "name": "Second Path to Perfection",
    "type": "feat"
}
