{
    "_id": "acqqlYmti8D9QJi0",
    "data": {
        "actionCategory": {
            "value": ""
        },
        "actionType": {
            "value": "passive"
        },
        "actions": {
            "value": ""
        },
        "description": {
            "chat": "",
            "unidentified": "",
            "value": "<p>You carry the fury of the storm within you, channeling it to terrifying effect and riding the winds through the sky.</p>\n<p>You are trained in Acrobatics. You also gain the @Compendium[pf2e.feats-srd.Storm Born]{Storm Born} druid feat. You gain the @Compendium[pf2e.spells-srd.Tempest Surge]{Tempest Surge} order spell, and you increase the number of Focus Points in your focus pool by 1. Polluting the air or allowing those who cause major air pollution or climate shifts to go unpunished is anathema to your order. (This doesn't force you to take action against merely potential harm to the environment or to sacrifice yourself against an obviously superior foe.)</p>"
        },
        "featType": {
            "value": "classfeature"
        },
        "level": {
            "value": 1
        },
        "location": "",
        "prerequisites": {
            "value": []
        },
        "rules": [],
        "schema": {
            "lastMigration": null,
            "version": 0.643
        },
        "source": {
            "value": ""
        },
        "traits": {
            "custom": "",
            "rarity": {
                "value": "common"
            },
            "value": [
                "druid"
            ]
        }
    },
    "effects": [
        {
            "_id": "ZtuUtmnvopBD3sz9",
            "changes": [
                {
                    "key": "data.skills.acr.rank",
                    "mode": 4,
                    "value": "1"
                }
            ],
            "disabled": false,
            "duration": {
                "startTime": null
            },
            "flags": {},
            "icon": "systems/pf2e/icons/features/classes/storm.webp",
            "label": "Storm Order",
            "origin": "",
            "tint": null,
            "transfer": true
        }
    ],
    "flags": {},
    "img": "systems/pf2e/icons/features/classes/storm.webp",
    "name": "Storm Order",
    "type": "feat"
}
