{
    "_id": "Zp81uTBItG1xlH4O",
    "data": {
        "actionCategory": {
            "value": ""
        },
        "actionType": {
            "value": "passive"
        },
        "actions": {
            "value": ""
        },
        "description": {
            "value": "<p>You gain expert proficiency with your deity's favored weapon.</p>\n<p>When you critically succeed at an attack roll using that weapon, you apply the weapon's critical specialization effect; use your divine spell DC if necessary.</p>"
        },
        "featType": {
            "value": "classfeature"
        },
        "level": {
            "value": 7
        },
        "location": "",
        "prerequisites": {
            "value": []
        },
        "rules": [],
        "schema": {
            "lastMigration": null,
            "version": 0.643
        },
        "source": {
            "value": ""
        },
        "traits": {
            "custom": "",
            "rarity": {
                "value": "common"
            },
            "value": [
                "cleric"
            ]
        }
    },
    "effects": [],
    "flags": {},
    "img": "systems/pf2e/icons/features/classes/warpriest.webp",
    "name": "Third Doctrine (Warpriest)",
    "type": "feat"
}
