{
    "_id": "8kukH9c4h82e3qjl",
    "data": {
        "actionCategory": {
            "value": ""
        },
        "actionType": {
            "value": "passive"
        },
        "actions": {
            "value": ""
        },
        "description": {
            "chat": "",
            "unidentified": "",
            "value": "<p>You have made great progress in your personal studies of enlightenment.</p>\n<p>Choose one of the saving throws you selected for path to perfection or second path to perfection. Your proficiency rank for the chosen type of save increases to legendary. When you roll a critical failure on the chosen type of save, you get a failure instead. When you roll a failure on the chosen type of save against an effect that deals damage, you take half damage.</p>"
        },
        "featType": {
            "value": "classfeature"
        },
        "level": {
            "value": 15
        },
        "location": "",
        "prerequisites": {
            "value": []
        },
        "rules": [
            {
                "key": "PF2E.RuleElement.Note",
                "selector": "reflex",
                "text": "<p class='compact-text'><strong>{item|name}</strong> When you roll a critical failure on a Reflex save, you get a failure instead. When you roll a failure on a Reflex save against an effect that deals damage, you take half damage.</p>"
            },
            {
                "adjustment": {
                    "criticalFailure": "one-degree-better"
                },
                "key": "PF2E.RuleElement.AdjustDegreeOfSuccess",
                "selector": "reflex",
                "type": "save"
            }
        ],
        "schema": {
            "lastMigration": null,
            "version": 0.643
        },
        "source": {
            "value": ""
        },
        "traits": {
            "custom": "",
            "rarity": {
                "value": "common"
            },
            "value": [
                "monk"
            ]
        }
    },
    "effects": [
        {
            "_id": "d3WqrVSPu7xcFpuw",
            "changes": [
                {
                    "key": "data.saves.reflex.rank",
                    "mode": 4,
                    "value": "3"
                }
            ],
            "disabled": false,
            "duration": {
                "startTime": null
            },
            "flags": {},
            "icon": "systems/pf2e/icons/features/classes/third-path-to-perfection.webp",
            "label": "Path to Perfection (Reflex)",
            "origin": "",
            "tint": null,
            "transfer": true
        }
    ],
    "flags": {},
    "img": "systems/pf2e/icons/features/classes/third-path-to-perfection.webp",
    "name": "Third Path to Perfection (Reflex)",
    "type": "feat"
}
