{
    "_id": "YuSniRhf05jBHwPy",
    "data": {
        "abilities": {
            "cha": {
                "min": 3,
                "mod": 2,
                "value": 10
            },
            "con": {
                "min": 3,
                "mod": 5,
                "value": 10
            },
            "dex": {
                "min": 3,
                "mod": 8,
                "value": 10
            },
            "int": {
                "min": 3,
                "mod": 3,
                "value": 10
            },
            "str": {
                "min": 3,
                "mod": 4,
                "value": 10
            },
            "wis": {
                "min": 3,
                "mod": 5,
                "value": 10
            }
        },
        "attributes": {
            "ac": {
                "base": 37,
                "check": 0,
                "details": "",
                "dex": 0,
                "item": 0,
                "min": 0,
                "value": 0
            },
            "allSaves": {
                "value": ""
            },
            "bonusEncumbranceBulk": 0,
            "bonusLimitBulk": 0,
            "flatbonushp": 0,
            "flatbonussp": 0,
            "hp": {
                "details": "",
                "max": 251,
                "temp": 0,
                "value": 251
            },
            "init": {
                "bonus": 0,
                "value": 0
            },
            "initiative": {
                "ability": "",
                "circumstance": 0,
                "status": 0
            },
            "levelbonushp": 0,
            "levelbonussp": 0,
            "perception": {
                "ability": "wis",
                "base": 23,
                "item": 0,
                "rank": 0,
                "value": 0
            },
            "resolve": {
                "value": 0
            },
            "shield": {
                "ac": 0,
                "brokenThreshold": 0,
                "hardness": 0,
                "max": 0,
                "min": 0,
                "value": 0
            },
            "sp": {
                "details": "",
                "max": 0,
                "min": 0,
                "value": 0
            },
            "speed": {
                "otherSpeeds": [],
                "value": "45"
            }
        },
        "details": {
            "alignment": {
                "value": "LN"
            },
            "ancestry": {
                "value": ""
            },
            "biography": {
                "public": "",
                "value": ""
            },
            "class": {
                "value": ""
            },
            "creatureType": "",
            "deity": {
                "image": "systems/pf2e/assets/sheet/deity.webp",
                "value": ""
            },
            "flavourText": "",
            "heritage": {
                "value": ""
            },
            "keyability": {
                "value": "str"
            },
            "level": {
                "min": 1,
                "value": 14
            },
            "recallKnowledgeText": "",
            "source": {
                "value": "Pathfinder Blog"
            }
        },
        "saves": {
            "fortitude": {
                "ability": "con",
                "base": 25,
                "item": 0,
                "rank": 0,
                "saveDetail": "",
                "value": 0
            },
            "reflex": {
                "ability": "dex",
                "base": 29,
                "item": 0,
                "rank": 0,
                "saveDetail": "",
                "value": 0
            },
            "will": {
                "ability": "wis",
                "base": 22,
                "item": 0,
                "rank": 0,
                "saveDetail": "",
                "value": 0
            }
        },
        "schema": {
            "lastMigration": null,
            "version": 0.643
        },
        "traits": {
            "attitude": {
                "value": "hostile"
            },
            "ci": [],
            "di": {
                "custom": "",
                "value": []
            },
            "dr": [],
            "dv": [
                {
                    "label": "Mental",
                    "type": "mental",
                    "value": "10"
                }
            ],
            "languages": {
                "custom": "",
                "selected": [],
                "value": [
                    "common",
                    "necril",
                    "tien",
                    "undercommon"
                ]
            },
            "rarity": {
                "value": "unique"
            },
            "senses": {
                "value": "Low-light vision"
            },
            "size": {
                "value": "med"
            },
            "traits": {
                "custom": "",
                "value": [
                    "half-orc",
                    "human",
                    "humanoid",
                    "orc"
                ]
            }
        }
    },
    "effects": [],
    "flags": {},
    "img": "systems/pf2e/icons/default-icons/npc.svg",
    "items": [
        {
            "_id": "VZebJ4i2eOc6inug",
            "data": {
                "MAP": {
                    "value": ""
                },
                "ability": {
                    "value": "str"
                },
                "baseItem": null,
                "bonus": {
                    "value": 1
                },
                "bonusDamage": {
                    "value": 0
                },
                "brokenThreshold": {
                    "value": 0
                },
                "bulkCapacity": {
                    "value": ""
                },
                "collapsed": {
                    "value": false
                },
                "containerId": {
                    "value": ""
                },
                "damage": {
                    "damageType": "bludgeoning",
                    "dice": 1,
                    "die": "d4",
                    "value": ""
                },
                "description": {
                    "chat": "",
                    "unidentified": "",
                    "value": "<p>As you invest these embroidered strips of cloth, you must meditate and slowly wrap them around your hands. These handwraps have weapon runes etched into them to give your unarmed attacks the benefits of those runes, making your unarmed attacks work like magic weapons. For example, <em>+1 striking handwraps of mighty blows</em> would give you a +1 item bonus to attack rolls with your unarmed attacks and increase the damage of your unarmed attacks from one weapon die to two (normally 2d4 instead of 1d4, but if your fists have a different weapon damage die or you have other unarmed attacks, use two of that die size instead).</p>\n<p>You can upgrade, add, and transfer runes to and from the handwraps just as you would for a weapon, and you can attach talismans to the handwraps. Treat the handwraps as melee weapons of the brawling group with light Bulk for these purposes. Property runes apply only when they would be applicable to the unarmed attack you're using. For example, a property that must be applied to a slashing weapon wouldn't function when you attacked with a fist, but you would gain its benefits if you attacked with a claw or some other slashing unarmed attack.</p>"
                },
                "equipped": {
                    "value": false
                },
                "equippedBulk": {
                    "value": ""
                },
                "group": {
                    "value": "brawling"
                },
                "hands": {
                    "value": ""
                },
                "hardness": {
                    "value": 0
                },
                "hp": {
                    "value": 0
                },
                "identification": {
                    "misidentified": {},
                    "status": "identified",
                    "unidentified": {
                        "data": {
                            "description": {
                                "value": ""
                            }
                        },
                        "img": "",
                        "name": ""
                    }
                },
                "invested": {
                    "value": false
                },
                "level": {
                    "value": 2
                },
                "maxHp": {
                    "value": 0
                },
                "negateBulk": {
                    "value": "0"
                },
                "potencyRune": {
                    "value": null
                },
                "preciousMaterial": {
                    "value": ""
                },
                "preciousMaterialGrade": {
                    "value": ""
                },
                "price": {
                    "value": "35 gp"
                },
                "property1": {
                    "critDamage": "",
                    "critDamageType": "",
                    "critDice": null,
                    "critDie": "",
                    "criticalConditionType": "",
                    "criticalConditionValue": null,
                    "damageType": "",
                    "dice": null,
                    "die": "",
                    "strikeConditionType": "",
                    "strikeConditionValue": null,
                    "value": ""
                },
                "propertyRune1": {
                    "value": ""
                },
                "propertyRune2": {
                    "value": ""
                },
                "propertyRune3": {
                    "value": ""
                },
                "propertyRune4": {
                    "value": ""
                },
                "quantity": {
                    "value": 1
                },
                "range": {
                    "value": "melee"
                },
                "reload": {
                    "value": ""
                },
                "rules": [
                    {
                        "damageType": "lawful",
                        "diceNumber": 1,
                        "dieSize": "d6",
                        "key": "PF2E.RuleElement.DamageDice",
                        "label": "Axiomatic rune",
                        "predicate": {
                            "all": [
                                "unarmed"
                            ]
                        },
                        "selector": "damage"
                    },
                    {
                        "key": "PF2E.RuleElement.Note",
                        "outcome": [
                            "criticalSuccess"
                        ],
                        "predicate": {
                            "all": [
                                "unarmed"
                            ]
                        },
                        "selector": "damage",
                        "text": "<p class='compact-text'><strong>Axiomatic Rune</strong> Instead of rolling, count each weapon damage die as average damage rounded up (3 for d4, 4 for d6, 5 for d8, 6 for d10, 7 for d12).</p>"
                    },
                    {
                        "key": "PF2E.RuleElement.WeaponPotency",
                        "predicate": {
                            "all": [
                                "unarmed"
                            ]
                        },
                        "selector": "attack",
                        "value": 2
                    },
                    {
                        "key": "PF2E.RuleElement.Striking",
                        "predicate": {
                            "all": [
                                "unarmed"
                            ]
                        },
                        "selector": "damage",
                        "value": 1
                    }
                ],
                "schema": {
                    "lastMigration": null,
                    "version": 0.643
                },
                "size": {
                    "value": "med"
                },
                "slug": "handwraps-of-mighty-blows",
                "source": {
                    "value": ""
                },
                "splashDamage": {
                    "value": null
                },
                "stackGroup": {
                    "value": ""
                },
                "strikingRune": {
                    "value": ""
                },
                "traits": {
                    "custom": "",
                    "rarity": {
                        "value": "common"
                    },
                    "value": [
                        "agile",
                        "finesse",
                        "invested",
                        "magical",
                        "nonlethal",
                        "transmutation",
                        "unarmed"
                    ]
                },
                "usage": {
                    "value": "held-in-one-hand"
                },
                "weaponType": {
                    "value": "unarmed"
                },
                "weight": {
                    "value": "-"
                }
            },
            "effects": [],
            "flags": {
                "core": {
                    "sourceId": "Compendium.pf2e.equipment-srd.FNDq4NFSN0g2HKWO"
                }
            },
            "img": "systems/pf2e/icons/equipment/worn-items/other-worn-items/handwraps-of-nighty-blows.webp",
            "name": "+2 Axiomatic Striking Handwraps of Mighty Blows",
            "sort": 100000,
            "type": "weapon"
        },
        {
            "_id": "OLrMkKrDPzcNjCqH",
            "data": {
                "MAP": {
                    "value": ""
                },
                "ability": {
                    "value": "dex"
                },
                "baseItem": "alchemical-bomb",
                "bonus": {
                    "value": 2
                },
                "bonusDamage": {
                    "value": null
                },
                "brokenThreshold": {
                    "value": 0
                },
                "bulkCapacity": {
                    "value": ""
                },
                "collapsed": {
                    "value": false
                },
                "containerId": {
                    "value": ""
                },
                "damage": {
                    "damageType": "positive",
                    "dice": 3,
                    "die": "d8",
                    "value": ""
                },
                "description": {
                    "chat": "",
                    "unidentified": "",
                    "value": "<p><strong>Usage</strong> held in 1 hand</p>\n<p><strong>Activate</strong> <span class=\"pf2-icon\">A</span> Strike</p>\n<hr />\n<p>These spring-loaded metal canisters contain a mixture of chemicals and salts that drain and disintegrate nearby undead creatures.</p>\n<p>A ghost charge gives a +2 item bonus to attack rolls, deals [[/r 3d8]] positive damage and 3 positive splash damage, though as usual for positive damage, this damage harms only undead and creatures with negative healing. A primary target that takes damage from a ghost charge becomes @Compendium[pf2e.conditionitems.Enfeebled]{Enfeebled} 2 until the start of your next turn.</p>\n<p>Ghost charges are designed to explode even on contact with a spiritual substance, making them ideal for damaging incorporeal undead.</p>"
                },
                "equipped": {
                    "value": false
                },
                "equippedBulk": {
                    "value": ""
                },
                "group": {
                    "value": "bomb"
                },
                "hands": {
                    "value": ""
                },
                "hardness": {
                    "value": 0
                },
                "hp": {
                    "value": 0
                },
                "identification": {
                    "misidentified": {},
                    "status": "identified",
                    "unidentified": {
                        "data": {
                            "description": {
                                "value": ""
                            }
                        },
                        "img": "",
                        "name": ""
                    }
                },
                "invested": {
                    "value": false
                },
                "level": {
                    "value": 11
                },
                "maxHp": {
                    "value": 0
                },
                "negateBulk": {
                    "value": "0"
                },
                "potencyRune": {
                    "value": null
                },
                "preciousMaterial": {
                    "value": ""
                },
                "preciousMaterialGrade": {
                    "value": ""
                },
                "price": {
                    "value": "250 gp"
                },
                "property1": {
                    "critDamage": "",
                    "critDamageType": "",
                    "critDice": null,
                    "critDie": "",
                    "criticalConditionType": "",
                    "criticalConditionValue": null,
                    "damageType": "",
                    "dice": null,
                    "die": "",
                    "strikeConditionType": "",
                    "strikeConditionValue": null,
                    "value": ""
                },
                "propertyRune1": {
                    "value": ""
                },
                "propertyRune2": {
                    "value": ""
                },
                "propertyRune3": {
                    "value": ""
                },
                "propertyRune4": {
                    "value": ""
                },
                "quantity": {
                    "value": 1
                },
                "range": {
                    "value": "20"
                },
                "reload": {
                    "value": ""
                },
                "rules": [],
                "schema": {
                    "lastMigration": null,
                    "version": 0.643
                },
                "size": {
                    "value": "med"
                },
                "slug": "ghost-charge-greater",
                "source": {
                    "value": ""
                },
                "splashDamage": {
                    "value": 3
                },
                "stackGroup": {
                    "value": ""
                },
                "strikingRune": {
                    "value": ""
                },
                "traits": {
                    "custom": "",
                    "rarity": {
                        "value": "common"
                    },
                    "value": [
                        "alchemical",
                        "bomb",
                        "consumable",
                        "positive",
                        "splash"
                    ]
                },
                "usage": {
                    "value": "held-in-one-hand"
                },
                "weaponType": {
                    "value": "martial"
                },
                "weight": {
                    "value": "L"
                }
            },
            "effects": [],
            "flags": {
                "core": {
                    "sourceId": "Compendium.pf2e.equipment-srd.28osNZINXLWzqzUL"
                }
            },
            "img": "systems/pf2e/icons/equipment/alchemical-items/alchemical-bombs/ghost-charge.webp",
            "name": "Ghost Charge (Greater)",
            "sort": 200000,
            "type": "weapon"
        },
        {
            "_id": "Lc8bDFmDTzBGoUZH",
            "data": {
                "MAP": {
                    "value": ""
                },
                "ability": {
                    "value": "dex"
                },
                "baseItem": "alchemical-bomb",
                "bonus": {
                    "value": 2
                },
                "bonusDamage": {
                    "value": null
                },
                "brokenThreshold": {
                    "value": 0
                },
                "bulkCapacity": {
                    "value": ""
                },
                "collapsed": {
                    "value": false
                },
                "containerId": {
                    "value": ""
                },
                "damage": {
                    "damageType": "positive",
                    "dice": 3,
                    "die": "d8",
                    "value": ""
                },
                "description": {
                    "chat": "",
                    "unidentified": "",
                    "value": "<p><strong>Usage</strong> held in 1 hand</p>\n<p><strong>Activate</strong> <span class=\"pf2-icon\">A</span> Strike</p>\n<hr />\n<p>These spring-loaded metal canisters contain a mixture of chemicals and salts that drain and disintegrate nearby undead creatures.</p>\n<p>A ghost charge gives a +2 item bonus to attack rolls, deals [[/r 3d8]] positive damage and 3 positive splash damage, though as usual for positive damage, this damage harms only undead and creatures with negative healing. A primary target that takes damage from a ghost charge becomes @Compendium[pf2e.conditionitems.Enfeebled]{Enfeebled} 2 until the start of your next turn.</p>\n<p>Ghost charges are designed to explode even on contact with a spiritual substance, making them ideal for damaging incorporeal undead.</p>"
                },
                "equipped": {
                    "value": false
                },
                "equippedBulk": {
                    "value": ""
                },
                "group": {
                    "value": "bomb"
                },
                "hands": {
                    "value": ""
                },
                "hardness": {
                    "value": 0
                },
                "hp": {
                    "value": 0
                },
                "identification": {
                    "misidentified": {},
                    "status": "identified",
                    "unidentified": {
                        "data": {
                            "description": {
                                "value": ""
                            }
                        },
                        "img": "",
                        "name": ""
                    }
                },
                "invested": {
                    "value": false
                },
                "level": {
                    "value": 11
                },
                "maxHp": {
                    "value": 0
                },
                "negateBulk": {
                    "value": "0"
                },
                "potencyRune": {
                    "value": null
                },
                "preciousMaterial": {
                    "value": ""
                },
                "preciousMaterialGrade": {
                    "value": ""
                },
                "price": {
                    "value": "250 gp"
                },
                "property1": {
                    "critDamage": "",
                    "critDamageType": "",
                    "critDice": null,
                    "critDie": "",
                    "criticalConditionType": "",
                    "criticalConditionValue": null,
                    "damageType": "",
                    "dice": null,
                    "die": "",
                    "strikeConditionType": "",
                    "strikeConditionValue": null,
                    "value": ""
                },
                "propertyRune1": {
                    "value": ""
                },
                "propertyRune2": {
                    "value": ""
                },
                "propertyRune3": {
                    "value": ""
                },
                "propertyRune4": {
                    "value": ""
                },
                "quantity": {
                    "value": 1
                },
                "range": {
                    "value": "20"
                },
                "reload": {
                    "value": ""
                },
                "rules": [],
                "schema": {
                    "lastMigration": null,
                    "version": 0.643
                },
                "size": {
                    "value": "med"
                },
                "slug": "ghost-charge-greater",
                "source": {
                    "value": ""
                },
                "splashDamage": {
                    "value": 3
                },
                "stackGroup": {
                    "value": ""
                },
                "strikingRune": {
                    "value": ""
                },
                "traits": {
                    "custom": "",
                    "rarity": {
                        "value": "common"
                    },
                    "value": [
                        "alchemical",
                        "bomb",
                        "consumable",
                        "positive",
                        "splash"
                    ]
                },
                "usage": {
                    "value": "held-in-one-hand"
                },
                "weaponType": {
                    "value": "martial"
                },
                "weight": {
                    "value": "L"
                }
            },
            "effects": [],
            "flags": {
                "core": {
                    "sourceId": "Compendium.pf2e.equipment-srd.28osNZINXLWzqzUL"
                }
            },
            "img": "systems/pf2e/icons/equipment/alchemical-items/alchemical-bombs/ghost-charge.webp",
            "name": "Ghost Charge (Greater)",
            "sort": 300000,
            "type": "weapon"
        },
        {
            "_id": "8Qm7eld2ysdaJCQw",
            "data": {
                "baseItem": null,
                "brokenThreshold": {
                    "value": 0
                },
                "bulkCapacity": {
                    "value": ""
                },
                "collapsed": {
                    "value": false
                },
                "containerId": {
                    "value": ""
                },
                "description": {
                    "chat": "",
                    "unidentified": "",
                    "value": "<p>These stiff leather armguards grant you a +1 item bonus to AC and saving throws, and a maximum Dexterity modifier of +5. You can affix talismans to brac<em>ers of armor</em> as though they were light armor.</p>\n<hr />\n<p>Automatically applied effects:</p>\n<ul>\n<li> +1 item bonus to AC and saving throws, and a maximum Dexterity modifier of +5.</li>\n</ul>"
                },
                "equipped": {
                    "value": false
                },
                "equippedBulk": {
                    "value": ""
                },
                "hardness": {
                    "value": 0
                },
                "hp": {
                    "value": 0
                },
                "identification": {
                    "misidentified": {},
                    "status": "identified",
                    "unidentified": {
                        "data": {
                            "description": {
                                "value": ""
                            }
                        },
                        "img": "",
                        "name": ""
                    }
                },
                "invested": {
                    "value": false
                },
                "level": {
                    "value": 8
                },
                "maxHp": {
                    "value": 0
                },
                "negateBulk": {
                    "value": "0"
                },
                "preciousMaterial": {
                    "value": ""
                },
                "preciousMaterialGrade": {
                    "value": ""
                },
                "price": {
                    "value": "450 gp"
                },
                "quantity": {
                    "value": 1
                },
                "rules": [
                    {
                        "key": "PF2E.RuleElement.FlatModifier",
                        "selector": "ac",
                        "type": "item",
                        "value": 1
                    },
                    {
                        "key": "PF2E.RuleElement.FlatModifier",
                        "selector": "saving-throw",
                        "type": "item",
                        "value": 1
                    },
                    {
                        "key": "PF2E.RuleElement.DexterityModifierCap",
                        "value": 5
                    }
                ],
                "schema": {
                    "lastMigration": null,
                    "version": 0.643
                },
                "size": {
                    "value": "med"
                },
                "slug": "bracers-of-armor-i",
                "source": {
                    "value": ""
                },
                "stackGroup": {
                    "value": ""
                },
                "traits": {
                    "custom": "",
                    "rarity": {
                        "value": "common"
                    },
                    "usage": {
                        "value": "wornbracers"
                    },
                    "value": [
                        "abjuration",
                        "invested",
                        "magical"
                    ]
                },
                "usage": {
                    "value": "held-in-one-hand"
                },
                "weight": {
                    "value": "L"
                }
            },
            "effects": [],
            "flags": {
                "core": {
                    "sourceId": "Compendium.pf2e.equipment-srd.02q8s6sSicMkhs1l"
                }
            },
            "img": "systems/pf2e/icons/equipment/worn-items/other-worn-items/bracers-of-armor.webp",
            "name": "Bracers of Armor I",
            "sort": 400000,
            "type": "equipment"
        },
        {
            "_id": "spPHzxtAcopBa1PJ",
            "data": {
                "attack": {
                    "value": ""
                },
                "attackEffects": {
                    "value": []
                },
                "bonus": {
                    "value": 23
                },
                "damageRolls": {
                    "sqgvmv3brvkoi1x2qznl": {
                        "damage": "2d8+14",
                        "damageType": "bludgeoning"
                    },
                    "9p0ezner2bwn6wfgj7k6": {
                        "damage": "1d6",
                        "damageType": "lawful"
                    }
                },
                "description": {
                    "value": ""
                },
                "rules": [],
                "schema": {
                    "lastMigration": null,
                    "version": 0.643
                },
                "slug": null,
                "source": {
                    "value": ""
                },
                "traits": {
                    "custom": "",
                    "rarity": {
                        "value": "common"
                    },
                    "value": [
                        "agile",
                        "finesse",
                        "nonlethal",
                        "unarmed"
                    ]
                },
                "weaponType": {
                    "value": "melee"
                }
            },
            "effects": [],
            "flags": {},
            "img": "systems/pf2e/icons/default-icons/melee.svg",
            "name": "Soul Strike",
            "sort": 500000,
            "type": "melee"
        },
        {
            "_id": "MvzTLbrPUs7oyrhS",
            "data": {
                "attack": {
                    "value": ""
                },
                "attackEffects": {
                    "value": []
                },
                "bonus": {
                    "value": 23
                },
                "damageRolls": {
                    "53kka8wcey8brx9trti9": {
                        "damage": "3d8",
                        "damageType": "positive"
                    }
                },
                "description": {
                    "value": "<p>The bomb deals 3d8 positive damage and [[/r 3 #positive splash]] positive splash damage, and the target is @Compendium[pf2e.conditionitems.Enfeebled]{Enfeebled 2} until the start of your next turn.</p>"
                },
                "rules": [],
                "schema": {
                    "lastMigration": null,
                    "version": 0.643
                },
                "slug": null,
                "source": {
                    "value": ""
                },
                "traits": {
                    "custom": "",
                    "rarity": {
                        "value": "common"
                    },
                    "value": [
                        "splash",
                        "thrown-10"
                    ]
                },
                "weaponType": {
                    "value": "ranged"
                }
            },
            "effects": [],
            "flags": {},
            "img": "systems/pf2e/icons/default-icons/melee.svg",
            "name": "Greater Ghost Charge",
            "sort": 600000,
            "type": "melee"
        },
        {
            "_id": "ODrCAh199fwhRcsx",
            "data": {
                "actionCategory": {
                    "value": "interaction"
                },
                "actionType": {
                    "value": "passive"
                },
                "actions": {
                    "value": ""
                },
                "description": {
                    "chat": "",
                    "unidentified": "",
                    "value": "<p>The monster can see in dim light as though it were bright light, so it ignores the @Compendium[pf2e.conditionitems.Concealed]{Concealed} condition due to dim light.</p>"
                },
                "requirements": {
                    "value": ""
                },
                "rules": [],
                "schema": {
                    "lastMigration": null,
                    "version": 0.643
                },
                "slug": "low-light-vision",
                "source": {
                    "value": ""
                },
                "traits": {
                    "custom": "",
                    "rarity": {
                        "value": "common"
                    },
                    "value": []
                },
                "trigger": {
                    "value": ""
                },
                "weapon": {
                    "value": ""
                }
            },
            "effects": [],
            "flags": {
                "core": {
                    "sourceId": "Compendium.pf2e.bestiary-ability-glossary-srd.fFu2sZz4KB01fVRc"
                }
            },
            "img": "systems/pf2e/icons/default-icons/action.svg",
            "name": "Low-Light Vision",
            "sort": 700000,
            "type": "action"
        },
        {
            "_id": "bJ5oXZ8aJu6fvfWq",
            "data": {
                "actionCategory": {
                    "value": "defensive"
                },
                "actionType": {
                    "value": "reaction"
                },
                "actions": {
                    "value": ""
                },
                "description": {
                    "value": "<p>Zhang Yong fails or critically fails a saving throw against an enchantment or fear effect Effect Zhang Yong succeeds on the saving throw instead and takes [[/r 2d6 #mental]] mental damage. If he critically failed on the triggering saving throw, he also takes [[/r 2d6 #mental]] mental @Compendium[pf2e.conditionitems.Persistent Damage]{Persistent Damage} and cannot use this ability again while taking persistent mental damage.</p>"
                },
                "requirements": {
                    "value": ""
                },
                "rules": [],
                "schema": {
                    "lastMigration": null,
                    "version": 0.643
                },
                "slug": null,
                "source": {
                    "value": ""
                },
                "traits": {
                    "custom": "",
                    "rarity": {
                        "value": "common"
                    },
                    "value": [
                        "mental",
                        "emotion"
                    ]
                },
                "trigger": {
                    "value": ""
                },
                "weapon": {
                    "value": ""
                }
            },
            "effects": [],
            "flags": {},
            "img": "systems/pf2e/icons/actions/Reaction.webp",
            "name": "Grit Teeth",
            "sort": 800000,
            "type": "action"
        },
        {
            "_id": "rIToi4siQWggGlIn",
            "data": {
                "actionCategory": {
                    "value": "offensive"
                },
                "actionType": {
                    "value": "action"
                },
                "actions": {
                    "value": "1"
                },
                "description": {
                    "value": "<p>Zhang Yong begins a stance that aligns him with the River of Souls and he can make soul strike attacks that seem almost incorporeal. These deal 1d8 bludgeoning damage; are in the brawling group; and have the agile, finesse, nonlethal, and unarmed traits. Soul Strikes treat cover against living and incorporeal undead targets as degree less severe (greater cover becomes standard cover, standard cover becomes lesser cover, and lesser cover is ignored).</p>"
                },
                "requirements": {
                    "value": ""
                },
                "rules": [],
                "schema": {
                    "lastMigration": null,
                    "version": 0.643
                },
                "slug": null,
                "source": {
                    "value": ""
                },
                "traits": {
                    "custom": "",
                    "rarity": {
                        "value": "common"
                    },
                    "value": []
                },
                "trigger": {
                    "value": ""
                },
                "weapon": {
                    "value": ""
                }
            },
            "effects": [],
            "flags": {},
            "img": "systems/pf2e/icons/actions/OneAction.webp",
            "name": "Soul Dance Stance",
            "sort": 900000,
            "type": "action"
        },
        {
            "_id": "b5VZ39KFbubG10tO",
            "data": {
                "actionCategory": {
                    "value": "offensive"
                },
                "actionType": {
                    "value": "passive"
                },
                "actions": {
                    "value": ""
                },
                "description": {
                    "value": "<p>Zhang Yong has learned to move his spiritual energy past himself to attack spirits where others can’t. He can make melee Strikes against incorporeal creatures that are inside solid objects as long as the object is within his reach. An incorporeal creature inside of a solid object is hidden, requiring him to succeed at a DC 11 flat check when he targets it. He can spend an action, which has the concentrate trait, to focus on a creature inside of a solid object. If he does, the next melee Strike he makes this turn requires him to succeed at only a DC 6 flat check to affect the creature.</p>"
                },
                "requirements": {
                    "value": ""
                },
                "rules": [],
                "schema": {
                    "lastMigration": null,
                    "version": 0.643
                },
                "slug": null,
                "source": {
                    "value": ""
                },
                "traits": {
                    "custom": "",
                    "rarity": {
                        "value": "common"
                    },
                    "value": []
                },
                "trigger": {
                    "value": ""
                },
                "weapon": {
                    "value": ""
                }
            },
            "effects": [],
            "flags": {},
            "img": "systems/pf2e/icons/actions/Passive.webp",
            "name": "Reach Beyond",
            "sort": 1000000,
            "type": "action"
        },
        {
            "_id": "mQG3tMicY3lUcluW",
            "data": {
                "actionCategory": {
                    "value": "offensive"
                },
                "actionType": {
                    "value": "action"
                },
                "actions": {
                    "value": "1"
                },
                "description": {
                    "value": "<p>Zhang Yong calls forth positive energy from within to help him destroy undead. His weapons and unarmed Strikes gain the effects of a greater disrupting property rune until the start of his next turn.</p>\n<hr />\n<p>A Greater Disrupting weapon pulses with positive energy, dealing an extra 2d6 positive damage to undead On a critical hit, instead of being enfeebled 1, the undead creature must attempt a <span data-pf2-saving-throw=\"fortitude\" data-pf2-dc=\"31 \" data-pf2-label=\"Greater Disrupting DC\" data-pf2-show-dc=\"GM\">Fortitude</span> save with the following effects. This is an incapacitation effect.</p>\n<p><strong>Critical Success</strong> It's @Compendium[pf2e.conditionitems.Enfeebled]{Enfeebled 1} until the end of your next turn.</p>\n<p><strong>Success</strong> It's @Compendium[pf2e.conditionitems.Enfeebled]{Enfeebled 2} until the end of your next turn.</p>\n<p><strong>Failure</strong> It's @Compendium[pf2e.conditionitems.Enfeebled]{Enfeebled 3} until the end of your next turn.</p>\n<p><strong>Critical Failure</strong> It's destroyed.</p>"
                },
                "requirements": {
                    "value": ""
                },
                "rules": [],
                "schema": {
                    "lastMigration": null,
                    "version": 0.643
                },
                "slug": null,
                "source": {
                    "value": ""
                },
                "traits": {
                    "custom": "",
                    "rarity": {
                        "value": "common"
                    },
                    "value": []
                },
                "trigger": {
                    "value": ""
                },
                "weapon": {
                    "value": ""
                }
            },
            "effects": [],
            "flags": {},
            "img": "systems/pf2e/icons/actions/OneAction.webp",
            "name": "Disrupting Strikes",
            "sort": 1100000,
            "type": "action"
        },
        {
            "_id": "GNjks6gDVDhrNKmQ",
            "data": {
                "description": {
                    "value": ""
                },
                "item": {
                    "value": 0
                },
                "mod": {
                    "value": 28
                },
                "proficient": {
                    "value": 0
                },
                "rules": [],
                "schema": {
                    "lastMigration": null,
                    "version": 0.643
                },
                "slug": null,
                "source": {
                    "value": ""
                },
                "traits": {
                    "custom": "",
                    "rarity": {
                        "value": "common"
                    },
                    "value": []
                }
            },
            "effects": [],
            "flags": {},
            "img": "systems/pf2e/icons/default-icons/lore.svg",
            "name": "Acrobatics",
            "sort": 1200000,
            "type": "lore"
        },
        {
            "_id": "mqB40b9L0N7GCwsD",
            "data": {
                "description": {
                    "value": ""
                },
                "item": {
                    "value": 0
                },
                "mod": {
                    "value": 23
                },
                "proficient": {
                    "value": 0
                },
                "rules": [],
                "schema": {
                    "lastMigration": null,
                    "version": 0.643
                },
                "slug": null,
                "source": {
                    "value": ""
                },
                "traits": {
                    "custom": "",
                    "rarity": {
                        "value": "common"
                    },
                    "value": []
                }
            },
            "effects": [],
            "flags": {},
            "img": "systems/pf2e/icons/default-icons/lore.svg",
            "name": "Athletics",
            "sort": 1300000,
            "type": "lore"
        },
        {
            "_id": "ddPt05BTtLiZ1JVg",
            "data": {
                "description": {
                    "value": ""
                },
                "item": {
                    "value": 0
                },
                "mod": {
                    "value": 20
                },
                "proficient": {
                    "value": 0
                },
                "rules": [],
                "schema": {
                    "lastMigration": null,
                    "version": 0.643
                },
                "slug": null,
                "source": {
                    "value": ""
                },
                "traits": {
                    "custom": "",
                    "rarity": {
                        "value": "common"
                    },
                    "value": []
                }
            },
            "effects": [],
            "flags": {},
            "img": "systems/pf2e/icons/default-icons/lore.svg",
            "name": "Diplomacy",
            "sort": 1400000,
            "type": "lore"
        },
        {
            "_id": "scdigHH4N8znqHVU",
            "data": {
                "description": {
                    "value": ""
                },
                "item": {
                    "value": 0
                },
                "mod": {
                    "value": 23
                },
                "proficient": {
                    "value": 0
                },
                "rules": [],
                "schema": {
                    "lastMigration": null,
                    "version": 0.643
                },
                "slug": null,
                "source": {
                    "value": ""
                },
                "traits": {
                    "custom": "",
                    "rarity": {
                        "value": "common"
                    },
                    "value": []
                }
            },
            "effects": [],
            "flags": {},
            "img": "systems/pf2e/icons/default-icons/lore.svg",
            "name": "Haunt Lore",
            "sort": 1500000,
            "type": "lore"
        },
        {
            "_id": "319pR0Ts5bfnNrg9",
            "data": {
                "description": {
                    "value": ""
                },
                "item": {
                    "value": 0
                },
                "mod": {
                    "value": 23
                },
                "proficient": {
                    "value": 0
                },
                "rules": [],
                "schema": {
                    "lastMigration": null,
                    "version": 0.643
                },
                "slug": null,
                "source": {
                    "value": ""
                },
                "traits": {
                    "custom": "",
                    "rarity": {
                        "value": "common"
                    },
                    "value": []
                }
            },
            "effects": [],
            "flags": {},
            "img": "systems/pf2e/icons/default-icons/lore.svg",
            "name": "Medicine",
            "sort": 1600000,
            "type": "lore"
        },
        {
            "_id": "if1l2ZetNzkcgMv0",
            "data": {
                "description": {
                    "value": ""
                },
                "item": {
                    "value": 0
                },
                "mod": {
                    "value": 23
                },
                "proficient": {
                    "value": 0
                },
                "rules": [],
                "schema": {
                    "lastMigration": null,
                    "version": 0.643
                },
                "slug": null,
                "source": {
                    "value": ""
                },
                "traits": {
                    "custom": "",
                    "rarity": {
                        "value": "common"
                    },
                    "value": []
                }
            },
            "effects": [],
            "flags": {},
            "img": "systems/pf2e/icons/default-icons/lore.svg",
            "name": "Occultism",
            "sort": 1700000,
            "type": "lore"
        },
        {
            "_id": "RiP7TmVcKWDGyDcM",
            "data": {
                "description": {
                    "value": ""
                },
                "item": {
                    "value": 0
                },
                "mod": {
                    "value": 25
                },
                "proficient": {
                    "value": 0
                },
                "rules": [],
                "schema": {
                    "lastMigration": null,
                    "version": 0.643
                },
                "slug": null,
                "source": {
                    "value": ""
                },
                "traits": {
                    "custom": "",
                    "rarity": {
                        "value": "common"
                    },
                    "value": []
                }
            },
            "effects": [],
            "flags": {},
            "img": "systems/pf2e/icons/default-icons/lore.svg",
            "name": "Religion",
            "sort": 1800000,
            "type": "lore"
        },
        {
            "_id": "qyDnSY8IPCAclUGq",
            "data": {
                "description": {
                    "value": ""
                },
                "item": {
                    "value": 0
                },
                "mod": {
                    "value": 19
                },
                "proficient": {
                    "value": 0
                },
                "rules": [],
                "schema": {
                    "lastMigration": null,
                    "version": 0.643
                },
                "slug": null,
                "source": {
                    "value": ""
                },
                "traits": {
                    "custom": "",
                    "rarity": {
                        "value": "common"
                    },
                    "value": []
                }
            },
            "effects": [],
            "flags": {},
            "img": "systems/pf2e/icons/default-icons/lore.svg",
            "name": "Society",
            "sort": 1900000,
            "type": "lore"
        }
    ],
    "name": "Zhang Yong",
    "token": {
        "actorId": "YuSniRhf05jBHwPy",
        "actorLink": false,
        "alpha": 1,
        "bar1": {
            "attribute": null
        },
        "bar2": {
            "attribute": null
        },
        "brightLight": 0,
        "brightSight": 0,
        "dimLight": 0,
        "dimSight": 0,
        "displayBars": 20,
        "displayName": 20,
        "disposition": -1,
        "flags": {},
        "height": 1,
        "img": "systems/pf2e/icons/default-icons/npc.svg",
        "lightAlpha": 1,
        "lightAngle": 0,
        "lightAnimation": {
            "intensity": 5,
            "speed": 5
        },
        "lockRotation": false,
        "mirrorX": false,
        "mirrorY": false,
        "name": "Zhang Yong",
        "randomImg": false,
        "rotation": 0,
        "scale": 1,
        "sightAngle": 0,
        "tint": null,
        "vision": false,
        "width": 1
    },
    "type": "npc"
}
