{
    "_id": "2XEYQNZTCGpdkyR6",
    "data": {
        "description": {
            "value": "<p>Granted when someone uses @Compendium[pf2e.feats-srd.Battle Medicine]{Battle Medicine} on you, rendering you immune to the effect from that person for the duration.</p>"
        },
        "duration": {
            "expiry": "turn-start",
            "sustained": false,
            "unit": "days",
            "value": 1
        },
        "level": {
            "value": 1
        },
        "rules": [
            {
                "key": "PF2E.RuleElement.TokenEffectIcon"
            }
        ],
        "schema": {
            "lastMigration": null,
            "version": 0.643
        },
        "source": {
            "value": ""
        },
        "start": {
            "initiative": null,
            "value": 0
        },
        "target": null,
        "tokenIcon": {
            "show": false
        },
        "traits": {
            "custom": "",
            "rarity": {
                "value": "common"
            },
            "value": []
        }
    },
    "effects": [],
    "flags": {},
    "img": "systems/pf2e/icons/features/feats/treat-wounds.webp",
    "name": "Effect: Battle Medicine Immunity",
    "type": "effect"
}
