{
    "_id": "oUDNCArkQTdhllxD",
    "data": {
        "ability": {
            "value": ""
        },
        "area": {
            "value": ""
        },
        "areasize": {
            "value": ""
        },
        "category": {
            "value": "spell"
        },
        "components": {
            "material": false,
            "somatic": true,
            "verbal": true
        },
        "cost": {
            "value": ""
        },
        "damage": {
            "applyMod": false,
            "value": ""
        },
        "damageType": {
            "value": ""
        },
        "description": {
            "chat": "",
            "unidentified": "",
            "value": "<p>A sphere of water 10 feet in diameter forms in an unoccupied space in range, either on the ground or on the surface of a liquid.</p>\n<p>When you @Compendium[pf2e.actionspf2e.Cast a Spell]{Cast the Spell} and each time you @Compendium[pf2e.actionspf2e.Sustain a Spell]{Sustain the Spell}, you can roll the orb, moving it up to 10 feet along the ground or the surface of a liquid. Unlike most spells, you can gain this effect multiple times in the same round by Sustaining the Spell multiple times.</p>\n<p>The orb can move through the spaces of any creatures or obstacles that wouldn't stop the flow of water. It extinguishes non-magical fires it moves through of its size or smaller, and it attempts to counteract any magical fires it moves through. If it fails to counteract a given fire, it can't counteract that fire for the duration of the spell.</p>\n<p>The orb can also collect creatures it moves through. Any Large or smaller creature whose space the orb tries to move through can attempt a Reflex save against your spell DC to avoid being engulfed. If a creature succeeds at this save, it can either let the orb pass (remaining in its space or moving out of the orb's path into a space of the creature's choice) or allow itself to be pushed in front of the orb to the end of the orb's movement. The orb can try to Engulf the same creature only once per turn, even if you roll it onto a creature's space more than once.</p>\n<p>A creature that fails its save is pulled into the orb. It becomes @Compendium[pf2e.conditionitems.Grabbed]{Grabbed}, moves along with the orb, and must hold its breath or begin suffocating (unless it can breathe in water). An engulfed Medium or smaller creature and anyone trying to affect that creature follow the normal rules for aquatic battles. An engulfed Large creature is usually big enough that parts of it stick out from the water, and it can reach out of the water. An engulfed creature can get free either by @Compendium[pf2e.actionspf2e.Swim]{Swimming} with a successful DC 10 Athletics check or by @Compendium[pf2e.actionspf2e.Escape]{Escaping} against your spell DC. A creature that critically failed its Reflex save is further stuck and must attempt to Escape instead of Swim. A freed creature exits the orb's space and can immediately breathe. The orb can contain as many creatures as can fit in its space. When the spell ends, all creatures the orb has engulfed are automatically released.</p>"
        },
        "duration": {
            "value": "sustained up to 1 minute"
        },
        "hasCounteractCheck": {
            "value": true
        },
        "level": {
            "value": 3
        },
        "location": {
            "value": ""
        },
        "materials": {
            "value": ""
        },
        "prepared": {
            "value": false
        },
        "primarycheck": {
            "value": ""
        },
        "range": {
            "value": "60 feet"
        },
        "rules": [],
        "save": {
            "basic": "",
            "value": ""
        },
        "scaling": {
            "formula": "",
            "mode": "none"
        },
        "schema": {
            "lastMigration": null,
            "version": 0.643
        },
        "school": {
            "value": "conjuration"
        },
        "secondarycasters": {
            "value": ""
        },
        "secondarycheck": {
            "value": ""
        },
        "source": {
            "value": ""
        },
        "spellType": {
            "value": "attack"
        },
        "sustained": {
            "value": false
        },
        "target": {
            "value": ""
        },
        "time": {
            "value": "2"
        },
        "traditions": {
            "value": [
                "arcane",
                "primal"
            ]
        },
        "traits": {
            "custom": "",
            "rarity": {
                "value": "common"
            },
            "value": [
                "conjuration",
                "water"
            ]
        }
    },
    "effects": [],
    "flags": {},
    "img": "systems/pf2e/icons/spells/aqueous-orb.webp",
    "name": "Aqueous Orb",
    "type": "spell"
}
