{
    "_id": "8TQiFzGf4feoHeH0",
    "data": {
        "ability": {
            "value": ""
        },
        "area": {
            "areaType": "cone",
            "value": "15"
        },
        "areasize": {
            "value": "15-foot cone"
        },
        "autoHeightenLevel": {
            "value": null
        },
        "category": {
            "value": "spell"
        },
        "components": {
            "material": false,
            "somatic": true,
            "verbal": true
        },
        "cost": {
            "value": ""
        },
        "damage": {
            "applyMod": false,
            "value": "2d4"
        },
        "damageType": {
            "value": "cold"
        },
        "description": {
            "chat": "",
            "unidentified": "",
            "value": "<p>A cone of icy shards bursts from your spread hands and coats the target in a layer of frost. You deal 2d4 cold damage to creatures in the area; they must each attempt a Reflex save.</p>\n<hr />\n<p><span><strong>Critical Success</strong> The creature takes no damage.</span></p>\n<p><span><strong>Success</strong> The creature takes half damage.</span></p>\n<p><span><strong>Failure</strong> The creature takes full damage and takes a -5-foot status penalty to its Speeds for 2 rounds.</span></p>\n<p><span><strong>Critical Failure</strong> The creature takes double damage and takes a -10-foot status penalty to its Speeds for 2 rounds.</span></p>\n<hr />\n<p><strong>Heightened (+1)</strong> The damage increases by 2d4.</p>"
        },
        "duration": {
            "value": ""
        },
        "hasCounteractCheck": {
            "value": false
        },
        "level": {
            "value": 1
        },
        "location": {
            "value": ""
        },
        "materials": {
            "value": ""
        },
        "prepared": {
            "value": ""
        },
        "primarycheck": {
            "value": ""
        },
        "range": {
            "value": ""
        },
        "rules": [],
        "save": {
            "basic": "",
            "value": "reflex"
        },
        "scaling": {
            "formula": "2d4",
            "mode": "level1"
        },
        "schema": {
            "lastMigration": null,
            "version": 0.643
        },
        "school": {
            "value": "evocation"
        },
        "secondarycasters": {
            "value": ""
        },
        "secondarycheck": {
            "value": ""
        },
        "source": {
            "value": ""
        },
        "spellType": {
            "value": "save"
        },
        "sustained": {
            "value": false
        },
        "target": {
            "value": ""
        },
        "time": {
            "value": "2"
        },
        "traditions": {
            "custom": "",
            "value": [
                "arcane",
                "primal"
            ]
        },
        "traits": {
            "custom": "",
            "rarity": {
                "value": "common"
            },
            "value": [
                "cold",
                "evocation"
            ]
        }
    },
    "effects": [],
    "flags": {},
    "img": "systems/pf2e/icons/spells/chilling-spray.webp",
    "name": "Chilling Spray",
    "type": "spell"
}
