{
    "_id": "JcobNl4iE9HmMYtE",
    "data": {
        "ability": {
            "value": ""
        },
        "area": {
            "areaType": "",
            "value": null
        },
        "areasize": {
            "value": "30-foot cone or 60-foot line originating from you."
        },
        "category": {
            "value": "focus"
        },
        "components": {
            "material": false,
            "somatic": true,
            "verbal": true
        },
        "cost": {
            "value": ""
        },
        "damage": {
            "applyMod": false,
            "value": "5d6"
        },
        "damageType": {
            "value": ""
        },
        "description": {
            "chat": "",
            "unidentified": "",
            "value": "<p>You spew energy from your mouth, dealing [[/r 5d6]] damage. The area, damage type, and save depend on the dragon type in your bloodline.</p>\n<h2>Dragon Breath</h2>\n<table class=\"pf2-table\">\n<thead>\n<tr>\n<th>Dragon Type</th>\n<th>Area and damage type</th>\n<th>Saving Throw</th>\n</tr>\n</thead>\n<tbody>\n<tr>\n<td>Copper or Black</td>\n<td>60-foot line of acid</td>\n<td>Reflex</td>\n</tr>\n<tr>\n<td>Blue or Bronze</td>\n<td>60-foot line of electricity</td>\n<td>Reflex</td>\n</tr>\n<tr>\n<td>Brass</td>\n<td>60-foot line of fire</td>\n<td>Reflex</td>\n</tr>\n<tr>\n<td>Green</td>\n<td>30-foot cone of poison</td>\n<td>Fortitude</td>\n</tr>\n<tr>\n<td>Gold or Red</td>\n<td>30-foot cone of fire</td>\n<td>Reflex</td>\n</tr>\n<tr>\n<td>Silver or White</td>\n<td>30-foot cone of cold</td>\n<td>Reflex</td>\n</tr>\n</tbody>\n</table>\n<hr />\n<p><strong>Heightened (+1)</strong> The damage increases by [[/r 2d6]].</p>"
        },
        "duration": {
            "value": ""
        },
        "hasCounteractCheck": {
            "value": false
        },
        "level": {
            "value": 3
        },
        "location": {
            "value": ""
        },
        "materials": {
            "value": ""
        },
        "prepared": {
            "value": ""
        },
        "primarycheck": {
            "value": ""
        },
        "range": {
            "value": ""
        },
        "rules": [],
        "save": {
            "basic": "",
            "value": ""
        },
        "scaling": {
            "formula": "2d6",
            "mode": "level1"
        },
        "schema": {
            "lastMigration": null,
            "version": 0.643
        },
        "school": {
            "value": "evocation"
        },
        "secondarycasters": {
            "value": ""
        },
        "secondarycheck": {
            "value": ""
        },
        "source": {
            "value": ""
        },
        "spellType": {
            "value": "save"
        },
        "sustained": {
            "value": false
        },
        "target": {
            "value": ""
        },
        "time": {
            "value": "2"
        },
        "traditions": {
            "value": []
        },
        "traits": {
            "custom": "",
            "rarity": {
                "value": "uncommon"
            },
            "value": [
                "uncommon",
                "evocation",
                "sorcerer"
            ]
        }
    },
    "effects": [],
    "flags": {},
    "img": "systems/pf2e/icons/spells/dragon-breath.webp",
    "name": "Dragon Breath",
    "type": "spell"
}
