{
    "_id": "J6vNvrUT3b1hx2iA",
    "data": {
        "ability": {
            "value": ""
        },
        "area": {
            "areaType": "burst",
            "value": 20
        },
        "areasize": {
            "value": "all squares in a 20-foot-radius burst that contain plants"
        },
        "category": {
            "value": "spell"
        },
        "components": {
            "material": false,
            "somatic": true,
            "verbal": true
        },
        "cost": {
            "value": ""
        },
        "damage": {
            "applyMod": false,
            "value": ""
        },
        "damageType": {
            "value": ""
        },
        "description": {
            "chat": "",
            "unidentified": "",
            "value": "<p>Plants in the area entangle creatures. The area counts as difficult terrain. Each round that a creature starts its turn in the area, it must attempt a Reflex save. On a failure, it takes a -10-foot circumstance penalty to its Speeds until it leaves the area, and on a critical failure, it is also @Compendium[pf2e.conditionitems.Immobilized]{Immobilized} for 1 round. Creatures can attempt to Escape at entangle's DC to remove these effects.</p>"
        },
        "duration": {
            "value": "1 minute"
        },
        "hasCounteractCheck": {
            "value": false
        },
        "level": {
            "value": 2
        },
        "location": {
            "value": ""
        },
        "materials": {
            "value": ""
        },
        "prepared": {
            "value": ""
        },
        "primarycheck": {
            "value": ""
        },
        "range": {
            "value": "120 feet"
        },
        "rules": [],
        "save": {
            "basic": "",
            "value": "reflex"
        },
        "scaling": {
            "formula": "",
            "mode": "none"
        },
        "schema": {
            "lastMigration": null,
            "version": 0.643
        },
        "school": {
            "value": "transmutation"
        },
        "secondarycasters": {
            "value": ""
        },
        "secondarycheck": {
            "value": ""
        },
        "source": {
            "value": ""
        },
        "spellType": {
            "value": "save"
        },
        "sustained": {
            "value": false
        },
        "target": {
            "value": ""
        },
        "time": {
            "value": "2"
        },
        "traditions": {
            "value": [
                "primal"
            ]
        },
        "traits": {
            "custom": "",
            "rarity": {
                "value": "common"
            },
            "value": [
                "plant",
                "transmutation"
            ]
        }
    },
    "effects": [],
    "flags": {},
    "img": "systems/pf2e/icons/spells/entangle.webp",
    "name": "Entangle",
    "type": "spell"
}
