{
    "_id": "yp4w9SG4RuqRM8KD",
    "data": {
        "ability": {
            "value": ""
        },
        "area": {
            "value": ""
        },
        "areasize": {
            "value": ""
        },
        "category": {
            "value": "spell"
        },
        "components": {
            "material": false,
            "somatic": true,
            "verbal": true
        },
        "cost": {
            "value": ""
        },
        "damage": {
            "applyMod": true,
            "value": "1d4"
        },
        "damageType": {
            "value": "bludgeoning"
        },
        "description": {
            "chat": "",
            "unidentified": "",
            "value": "<p>Using a sliver of Baba Yaga's power, you briefly bring an object to life. The object gains a means of locomotion, such as sprouting chicken legs, and Strides up to 25 feet to a space you decide within range. If you spent 2 actions Casting the Spell, the object then attacks one creature of your choice adjacent to its new space. Make a melee spell attack roll against the creature. On a success, the creature takes bludgeoning, piercing, or slashing damage (as appropriate for the object) equal to 1d4 plus your spellcasting ability modifier, and on a critical success, it takes double damage.</p>\n<hr />\n<p><strong>Heightened (+1)</strong> Increase the maximum Bulk of the target by 1 and the damage by 1d4.</p>"
        },
        "duration": {
            "value": ""
        },
        "hasCounteractCheck": {
            "value": false
        },
        "level": {
            "value": 1
        },
        "location": {
            "value": "5anotCcAECWaOlcZ"
        },
        "materials": {
            "value": ""
        },
        "prepared": {
            "value": ""
        },
        "primarycheck": {
            "value": ""
        },
        "range": {
            "value": "30 feet"
        },
        "rules": [],
        "save": {
            "basic": "",
            "value": ""
        },
        "scaling": {
            "formula": "1d4",
            "mode": "level1"
        },
        "schema": {
            "lastMigration": null,
            "version": 0.643
        },
        "school": {
            "value": "necromancy"
        },
        "secondarycasters": {
            "value": ""
        },
        "secondarycheck": {
            "value": ""
        },
        "source": {
            "value": ""
        },
        "spellType": {
            "value": "attack"
        },
        "sustained": {
            "value": false
        },
        "target": {
            "value": "1 unattended object up to 1 bulk"
        },
        "time": {
            "value": "1 or 2"
        },
        "traditions": {
            "value": []
        },
        "traits": {
            "custom": "",
            "rarity": {
                "value": "rare"
            },
            "selected": {
                "hex": "Hex",
                "necromancy": "Necromancy",
                "witch": "Witch"
            },
            "value": [
                "hex",
                "necromancy",
                "witch",
                "cantrip"
            ]
        }
    },
    "effects": [],
    "flags": {},
    "img": "systems/pf2e/icons/spells/spirit-object.webp",
    "name": "Spirit Object",
    "type": "spell"
}
