{
    "_id": "5wjl0ZwEvvUh7sor",
    "data": {
        "ability": {
            "value": ""
        },
        "area": {
            "areaType": "",
            "value": null
        },
        "areasize": {
            "value": ""
        },
        "category": {
            "value": "focus"
        },
        "components": {
            "material": false,
            "somatic": true,
            "verbal": true
        },
        "cost": {
            "value": ""
        },
        "damage": {
            "applyMod": false,
            "value": ""
        },
        "damageType": {
            "value": ""
        },
        "description": {
            "chat": "",
            "unidentified": "",
            "value": "<p><span>You extend your senses through a multitude of crawling and flying creatures. You create a crawling swarm in your square. You can hear through the swarm as if using your normal auditory senses. The first time you Sustain the Spell each round, you can move the swarm 10 feet along the ground in any direction. The swarm has AC 15 and a +0 bonus to its saves. Any damage dealt to the swarm destroys it and ends the spell.</span></p>\n<hr />\n<p><strong>Heightened (3rd)</strong> The swarm has the benefits of spider climb.</p>\n<p><strong>Heightened (5th)</strong> The swarm has a fly Speed of 10 feet. You can see through the swarm using your visual senses.</p>\n<p><strong>Heightened (7th)</strong> The swarm gains a 10-foot status bonus to its Speeds.</p>"
        },
        "duration": {
            "value": "sustained"
        },
        "hasCounteractCheck": {
            "value": false
        },
        "level": {
            "value": 1
        },
        "location": {
            "value": ""
        },
        "materials": {
            "value": ""
        },
        "prepared": {
            "value": ""
        },
        "primarycheck": {
            "value": ""
        },
        "range": {
            "value": ""
        },
        "rules": [],
        "save": {
            "basic": "",
            "value": ""
        },
        "scaling": {
            "formula": "",
            "mode": "none"
        },
        "schema": {
            "lastMigration": null,
            "version": 0.643
        },
        "school": {
            "value": "divination"
        },
        "secondarycasters": {
            "value": ""
        },
        "secondarycheck": {
            "value": ""
        },
        "source": {
            "value": ""
        },
        "spellType": {
            "value": "utility"
        },
        "sustained": {
            "value": false
        },
        "target": {
            "value": ""
        },
        "time": {
            "value": "1 minute"
        },
        "traditions": {
            "custom": "",
            "value": []
        },
        "traits": {
            "custom": "",
            "rarity": {
                "value": "uncommon"
            },
            "value": [
                "cleric",
                "divination"
            ]
        }
    },
    "effects": [],
    "flags": {},
    "img": "systems/pf2e/icons/spells/swarmsense.webp",
    "name": "Swarmsense",
    "type": "spell"
}
