{
    "_id": "UpeOPKB9b8PX6Fi2",
    "data": {
        "actionCategory": {
            "value": ""
        },
        "actionType": {
            "value": "passive"
        },
        "actions": {
            "value": ""
        },
        "description": {
            "value": "<p>Your predecessors dwelled in the Shadow Plane’s deepest, most treacherous regions. You might cast a denser shadow, have a slower pulse, or find comfort in the embrace of darkness. You gain cold or negative resistance equal to half your level (minimum 1), chosen when you gain this heritage.</p>"
        },
        "featType": {
            "value": "heritage"
        },
        "level": {
            "value": 1
        },
        "location": "",
        "prerequisites": {
            "value": []
        },
        "rules": [],
        "schema": {
            "lastMigration": null,
            "version": 0.643
        },
        "source": {
            "value": ""
        },
        "traits": {
            "custom": "",
            "rarity": {
                "value": "common"
            },
            "value": [
                "fetchling"
            ]
        }
    },
    "effects": [],
    "flags": {},
    "img": "systems/pf2e/icons/default-icons/feat.svg",
    "name": "Deep Fetchling",
    "type": "feat"
}
