{
    "_id": "3F5ffk7cmnrBhPcT",
    "data": {
        "actionCategory": {
            "value": ""
        },
        "actionType": {
            "value": "passive"
        },
        "actions": {
            "value": ""
        },
        "description": {
            "value": "<p>You’ve inherited a closeness to the far corners of the world, where the boundaries between dimensions grow thin. You can cast detect magic as an occult innate cantrip heightened to half your level, rounded up. You also gain a +1 circumstance bonus to Occultism checks to Recall Knowledge about creatures that originated outside of the Material Plane.</p>"
        },
        "featType": {
            "value": "heritage"
        },
        "level": {
            "value": 1
        },
        "location": "",
        "prerequisites": {
            "value": []
        },
        "rules": [],
        "schema": {
            "lastMigration": null,
            "version": 0.643
        },
        "source": {
            "value": ""
        },
        "traits": {
            "custom": "",
            "rarity": {
                "value": "common"
            },
            "value": [
                "catfolk"
            ]
        }
    },
    "effects": [],
    "flags": {},
    "img": "systems/pf2e/icons/default-icons/feat.svg",
    "name": "Liminal Catfolk",
    "type": "feat"
}
