{
    "_id": "KbG2BZ3Sbr3xU1sW",
    "data": {
        "actionCategory": {
            "value": ""
        },
        "actionType": {
            "value": "passive"
        },
        "actions": {
            "value": ""
        },
        "description": {
            "value": "<p>You are larger than other sprites. Instead of Tiny, your size is Small.</p>"
        },
        "featType": {
            "value": "heritage"
        },
        "level": {
            "value": 1
        },
        "location": "",
        "prerequisites": {
            "value": []
        },
        "rules": [],
        "schema": {
            "lastMigration": null,
            "version": 0.643
        },
        "source": {
            "value": ""
        },
        "traits": {
            "custom": "",
            "rarity": {
                "value": "common"
            },
            "value": [
                "sprite"
            ]
        }
    },
    "effects": [
        {
            "_id": "3QejnSkuu3M01M1z",
            "changes": [
                {
                    "key": "data.traits.size.value",
                    "mode": 5,
                    "value": "sm"
                }
            ],
            "disabled": false,
            "duration": {
                "startTime": null
            },
            "flags": {},
            "icon": "systems/pf2e/icons/default-icons/feat.svg",
            "label": "Pixie",
            "origin": "",
            "tint": null,
            "transfer": true
        }
    ],
    "flags": {},
    "img": "systems/pf2e/icons/default-icons/feat.svg",
    "name": "Pixie",
    "type": "feat"
}
