{
    "_id": "jEtVesbqYcWGbBYk",
    "data": {
        "actionCategory": {
            "value": ""
        },
        "actionType": {
            "value": "passive"
        },
        "actions": {
            "value": ""
        },
        "description": {
            "chat": "",
            "unidentified": "",
            "value": "<p>You have an inborn ability to detect and understand magical phenomena. You can cast the @Compendium[pf2e.spells-srd.Detect Magic]{Detect Magic} cantrip as an arcane innate spell at will. A cantrip is heightened to a spell level equal to half your level rounded up.</p>\n<p>In addition, you gain a +1 circumstance bonus to checks to @Compendium[pf2e.actionspf2e.Identify Magic]{Identify Magic} and to @Compendium[pf2e.actionspf2e.Decipher Writing]{Decipher Writing} of a magical nature. These skill actions typically use the Arcana, Nature, Occultism, or Religion skill.</p>"
        },
        "featType": {
            "value": "heritage"
        },
        "level": {
            "value": 1
        },
        "location": "",
        "prerequisites": {
            "value": []
        },
        "rules": [
            {
                "key": "PF2E.RuleElement.FlatModifier",
                "label": "Seer Elf (Identity Magic or Decipher Writing)",
                "predicate": {
                    "any": [
                        "action:identify-magic",
                        "action:decipher-writing"
                    ]
                },
                "selector": "skill-check",
                "type": "circumstance",
                "value": 1
            }
        ],
        "schema": {
            "lastMigration": null,
            "version": 0.643
        },
        "source": {
            "value": ""
        },
        "traits": {
            "custom": "",
            "rarity": {
                "value": "common"
            },
            "value": [
                "elf"
            ]
        }
    },
    "effects": [],
    "flags": {},
    "img": "systems/pf2e/icons/features/ancestry/seer-elf.webp",
    "name": "Seer Elf",
    "type": "feat"
}
