{
    "_id": "bMp6W5kPNyqBoOxm",
    "data": {
        "actionCategory": {
            "value": ""
        },
        "actionType": {
            "value": "passive"
        },
        "actions": {
            "value": ""
        },
        "description": {
            "chat": "",
            "unidentified": "",
            "value": "<p><strong>[Slotless]</strong></p>\n<p><strong>Prerequisites</strong><strong>:</strong> Tier 1 with the Radiant Oath</p>\n<p><strong>Cost</strong>: 0 Fame</p>\n<p><strong>Effect</strong>: Although the Society focuses on exploration and discovery, the Pathfinders' exploits also earn them a considerable income-a portion of which you donate to those in need. When you play or GM an adventure at a charity event registered with the Organized Play Foundation, you earn 2 additional Fame and Reputation with the Radiant Oath faction.</p>\n<p><strong>Special</strong>: You can benefit from this boon only a number of times equal to your current Reputation Tier with the Radiant Oath faction. Each time you fulfill the requirements of this boon, mark it on your Chronicle sheet along with the associated Reputation Tier. Have the GM sign beside this notation.</p>"
        },
        "featType": {
            "value": "pfsboon"
        },
        "level": {
            "value": 0
        },
        "prerequisites": {
            "value": []
        },
        "rules": [],
        "schema": {
            "lastMigration": null,
            "version": 0.643
        },
        "source": {
            "value": ""
        },
        "traits": {
            "custom": "",
            "rarity": {
                "value": "common"
            },
            "selected": {},
            "value": []
        }
    },
    "effects": [],
    "flags": {},
    "img": "systems/pf2e/icons/default-icons/mystery-man.webp",
    "name": "Charitable Adventure",
    "type": "feat"
}
