{
    "_id": "En3RdoXDAtyXdNKq",
    "data": {
        "actionCategory": {
            "value": ""
        },
        "actionType": {
            "value": "passive"
        },
        "actions": {
            "value": ""
        },
        "description": {
            "chat": "",
            "unidentified": "",
            "value": "<p><strong>[Heroic]</strong></p>\n<p><strong>Prerequisites:</strong> Tier 3 with the Radiant Oath</p>\n<p><strong>Cost</strong>: 4 Fame</p>\n<p><strong>Effect</strong>: Your heroic moments grant others the will to keep fighting. When you spend a Hero Point, you and any allies within 30 feet who can see you regain 3d6 Hit Points (4d6 if your Radiant Oath reputation tier is 4). This healing also affects dying allies, even if they cannot see you due to being unconscious.</p>"
        },
        "featType": {
            "value": "pfsboon"
        },
        "level": {
            "value": 0
        },
        "prerequisites": {
            "value": []
        },
        "rules": [],
        "schema": {
            "lastMigration": null,
            "version": 0.643
        },
        "source": {
            "value": ""
        },
        "traits": {
            "custom": "",
            "rarity": {
                "value": "common"
            },
            "selected": {},
            "value": []
        }
    },
    "effects": [],
    "flags": {},
    "img": "systems/pf2e/icons/default-icons/mystery-man.webp",
    "name": "Heroic Intervention",
    "type": "feat"
}
