{
    "_id": "tX2vxY8RSdcBayEu",
    "data": {
        "actionCategory": {
            "value": ""
        },
        "actionType": {
            "value": "passive"
        },
        "actions": {
            "value": ""
        },
        "description": {
            "chat": "",
            "unidentified": "",
            "value": "<p><strong>[Generic]</strong></p>\n<p><strong>Effect</strong>: For good or ill, you have been swept up in the schemes of the masked priest Narsen. Whether the cunning cultist's aims are for good or ill remains to be seen. You gain a +1 circumstance bonus to Perception checks to @Compendium[pf2e.actionspf2e.Sense Motive]{Sense Motive} when dealing with anyone hiding their features behind a mask or disguise (including magical disguises and polymorph effects that change the person's appearance to something unrecognizable).</p>"
        },
        "featType": {
            "value": "pfsboon"
        },
        "level": {
            "value": 0
        },
        "prerequisites": {
            "value": []
        },
        "rules": [],
        "schema": {
            "lastMigration": null,
            "version": 0.643
        },
        "source": {
            "value": ""
        },
        "traits": {
            "custom": "",
            "rarity": {
                "value": "common"
            },
            "selected": {},
            "value": []
        }
    },
    "effects": [],
    "flags": {},
    "img": "systems/pf2e/icons/default-icons/mystery-man.webp",
    "name": "S1-18 - Narsen's Web",
    "type": "feat"
}
