{
    "_id": "JznxnYTs38GYpW1p",
    "data": {
        "actionCategory": {
            "value": ""
        },
        "actionType": {
            "value": "passive"
        },
        "actions": {
            "value": ""
        },
        "description": {
            "chat": "",
            "unidentified": "",
            "value": "<p><strong>[Generic]</strong><strong>][Limited Use]</strong> □□□</p>\n<p><strong>Effect</strong>: Your struggles against the fearsome wildlife of Katapesh and the being manipulating the creatures has made you particularly good at dealing with dangerous animals. Whenever you roll a critical failure on a check to @Compendium[pf2e.actionspf2e.Track]{Track} an animal, you can check a box next to this boon to get a failure instead.</p>"
        },
        "featType": {
            "value": "pfsboon"
        },
        "level": {
            "value": 0
        },
        "prerequisites": {
            "value": []
        },
        "rules": [],
        "schema": {
            "lastMigration": null,
            "version": 0.643
        },
        "source": {
            "value": ""
        },
        "traits": {
            "custom": "",
            "rarity": {
                "value": "common"
            },
            "selected": {},
            "value": []
        }
    },
    "effects": [],
    "flags": {},
    "img": "systems/pf2e/icons/default-icons/mystery-man.webp",
    "name": "S1-14 - Big Game Hunter",
    "type": "feat"
}
