{
    "_id": "VOOShYoB4gTopZtg",
    "data": {
        "description": {
            "value": "<p>Granted by @Compendium[pf2e.feats-srd.Aura of Faith]{Aura of Faith}</p>\n<p>Each good-aligned ally within 15 feet deal an extra 1 good damage against evil creatures on their first Strike that hits an evil creature each round.</p>"
        },
        "duration": {
            "expiry": "turn-start",
            "sustained": false,
            "unit": "unlimited",
            "value": -1
        },
        "level": {
            "value": 12
        },
        "rules": [
            {
                "key": "PF2E.RuleElement.TokenEffectIcon"
            },
            {
                "key": "PF2E.RuleElement.ToggleProperty",
                "label": "First Stike that hits an evil foe this round",
                "property": "flags.pf2e.rollOptions.damage-roll.aura-of-faith"
            },
            {
                "damageType": "good",
                "key": "PF2E.RuleElement.FlatModifier",
                "label": "Aura of Faith (Allies)",
                "predicate": {
                    "all": [
                        "aura-of-faith"
                    ]
                },
                "roll-options": [
                    "all"
                ],
                "selector": "damage",
                "value": 1
            }
        ],
        "schema": {
            "lastMigration": null,
            "version": 0.643
        },
        "source": {
            "value": ""
        },
        "start": {
            "initiative": null,
            "value": 0
        },
        "target": null,
        "traits": {
            "custom": "",
            "rarity": {
                "value": "common"
            },
            "value": []
        }
    },
    "effects": [],
    "flags": {},
    "img": "systems/pf2e/icons/spells/destructive-aura.webp",
    "name": "Effect: Aura of Faith",
    "type": "effect"
}
