{
    "_id": "GbbwJhwSNLw06XpO",
    "data": {
        "description": {
            "value": "<p>Granted by @Compendium[pf2e.feats-srd.Bespell Weapon]{Bespell Weapon} if you cast an abjuration spell or an evocation spell that didn't deal damage.</p>\n<p>Until the end of your turn, the weapon deals an additional 1d6 force damage.</p>"
        },
        "duration": {
            "expiry": "turn-end",
            "sustained": false,
            "unit": "rounds",
            "value": 0
        },
        "level": {
            "value": 4
        },
        "rules": [
            {
                "key": "PF2E.RuleElement.EffectTarget",
                "scope": "weapon"
            },
            {
                "damageType": "force",
                "diceNumber": 1,
                "dieSize": "d6",
                "key": "PF2E.RuleElement.DamageDice",
                "selector": "{item|data.target}-damage"
            }
        ],
        "schema": {
            "lastMigration": null,
            "version": 0.643
        },
        "source": {
            "value": ""
        },
        "start": {
            "initiative": null,
            "value": 0
        },
        "target": null,
        "tokenIcon": {
            "show": true
        },
        "traits": {
            "custom": "",
            "rarity": {
                "value": "common"
            },
            "value": []
        }
    },
    "effects": [],
    "flags": {},
    "img": "systems/pf2e/icons/spells/astral-labyrinth.webp",
    "name": "Effect: Bespell Weapon (Force)",
    "type": "effect"
}
