{
    "_id": "bl4HXm1e4NQ0iJs5",
    "data": {
        "description": {
            "value": "<p>Granted by @Compendium[pf2e.feats-srd.Align Armament]{Align Armament}.</p>\n<p>For 1 round, that weapon deals an additional 1d6 good damage.</p>"
        },
        "duration": {
            "expiry": "turn-start",
            "sustained": false,
            "unit": "rounds",
            "value": 1
        },
        "level": {
            "value": 8
        },
        "rules": [
            {
                "key": "PF2E.RuleElement.EffectTarget",
                "scope": "weapon"
            },
            {
                "key": "PF2E.RuleElement.TokenEffectIcon"
            },
            {
                "damageType": "good",
                "diceNumber": 1,
                "dieSize": "d6",
                "key": "PF2E.RuleElement.DamageDice",
                "selector": "{item|data.target}-damage"
            }
        ],
        "schema": {
            "lastMigration": null,
            "version": 0.643
        },
        "source": {
            "value": ""
        },
        "start": {
            "initiative": null,
            "value": 0
        },
        "target": null,
        "traits": {
            "custom": "",
            "rarity": {
                "value": "common"
            },
            "value": []
        }
    },
    "effects": [],
    "flags": {},
    "img": "systems/pf2e/icons/spells/weapon-storm.webp",
    "name": "Effect: Align Armament (Good)",
    "type": "effect"
}
