{
    "_id": "pwbFFD6NzDooobKo",
    "data": {
        "description": {
            "value": "<p>Granted by @Compendium[pf2e.feats-srd.Reflexive Shield]{Reflexive Shield} when you raise a shield that gives a +2 circumstance bonus to AC.</p>\n<p>You gain your shield's cricumstance bonus to Reflex saves.</p>"
        },
        "duration": {
            "expiry": "turn-start",
            "sustained": false,
            "unit": "unlimited",
            "value": -1
        },
        "level": {
            "value": 6
        },
        "rules": [
            {
                "key": "PF2E.RuleElement.FlatModifier",
                "label": "Reflexive Shield",
                "selector": "reflex",
                "type": "circumstance",
                "value": 2
            },
            {
                "key": "PF2E.RuleElement.TokenEffectIcon"
            }
        ],
        "schema": {
            "lastMigration": null,
            "version": 0.643
        },
        "source": {
            "value": ""
        },
        "start": {
            "initiative": null,
            "value": 0
        },
        "target": null,
        "traits": {
            "custom": "",
            "rarity": {
                "value": "common"
            },
            "value": []
        }
    },
    "effects": [],
    "flags": {},
    "img": "systems/pf2e/icons/equipment/shields/specific-shields/force-shield.webp",
    "name": "Effect: Reflexive Shield",
    "type": "effect"
}
