{
    "_id": "U1MpMtRnFqEDBJwd",
    "data": {
        "description": {
            "value": "<p>Granted by @Compendium[pf2e.feats-srd.Emblazon Armament]{Emblazon Armament} when applied to a weapon.</p>\n<ul>\n<li><strong>Weapon</strong> The wielder gains a +1 status bonus to damage rolls.</li>\n</ul>"
        },
        "duration": {
            "expiry": "turn-start",
            "sustained": false,
            "unit": "unlimited",
            "value": -1
        },
        "level": {
            "value": 2
        },
        "rules": [
            {
                "key": "PF2E.RuleElement.EffectTarget",
                "scope": "weapon"
            },
            {
                "key": "PF2E.RuleElement.TokenEffectIcon"
            },
            {
                "key": "PF2E.RuleElement.FlatModifier",
                "selector": "{item|data.target}-damage",
                "type": "status",
                "value": 1
            }
        ],
        "schema": {
            "lastMigration": null,
            "version": 0.643
        },
        "source": {
            "value": ""
        },
        "start": {
            "initiative": null,
            "value": 0
        },
        "target": null,
        "traits": {
            "custom": "",
            "rarity": {
                "value": "common"
            },
            "value": []
        }
    },
    "effects": [],
    "flags": {},
    "img": "systems/pf2e/icons/spells/spiritual-weapon.webp",
    "name": "Effect: Emblazon Armament (Weapon)",
    "type": "effect"
}
