{
    "_id": "tPKXLtDJ3bzJcXlv",
    "data": {
        "description": {
            "chat": "",
            "unidentified": "",
            "value": "<p>Granted by @Compendium[pf2e.feats-srd.Ironblood Stance]{Ironblood Stance}</p>\n<p>You enter the stance of impenetrable iron, refusing to yield to any blow. You can make iron sweep unarmed attacks. These deal 1d8 bludgeoning damage; are in the brawling group; and have the nonlethal, parry, sweep, and unarmed traits.</p>\n<p>While in Ironblood Stance, you gain resistance 2 to all damage. The resistance increases to 3 at 12th level, to 4 at 16th level, and to 5 at 20th level.</p>\n<p>@Compendium[pf2e.equipment-effects.Effect: Parry]{Effect: Parry}</p>"
        },
        "duration": {
            "expiry": "turn-start",
            "sustained": false,
            "unit": "unlimited",
            "value": -1
        },
        "level": {
            "value": 0
        },
        "rules": [
            {
                "category": "unarmed",
                "damage": {
                    "base": {
                        "damageType": "bludgeoning",
                        "dice": 1,
                        "die": "d8"
                    }
                },
                "group": "brawling",
                "key": "PF2E.RuleElement.Strike",
                "label": "Iron Sweep",
                "range": "melee",
                "traits": [
                    "parry",
                    "sweep",
                    "unarmed",
                    "nonlethal"
                ]
            },
            {
                "key": "PF2E.RuleElement.TokenEffectIcon"
            }
        ],
        "schema": {
            "lastMigration": null,
            "version": 0.643
        },
        "source": {
            "value": ""
        },
        "start": {
            "initiative": null,
            "value": 0
        },
        "target": null,
        "traits": {
            "custom": "",
            "rarity": {
                "value": "common"
            },
            "value": []
        }
    },
    "effects": [],
    "flags": {},
    "img": "systems/pf2e/icons/features/feats/ironblood-stance.webp",
    "name": "Stance: Ironblood Stance",
    "type": "effect"
}
