{
    "_id": "qUowHpn79Dpt1hVn",
    "data": {
        "description": {
            "chat": "",
            "unidentified": "",
            "value": "<p>Granted by @Compendium[pf2e.feats-srd.Dragon Stance]{Dragon Stance}</p>\n<p>You enter the stance of a dragon and make powerful leg strikes like a lashing dragon’s tail. You can make dragon tail attacks that deal 1d10 bludgeoning damage. They are in the brawling group and have the backswing, nonlethal, and unarmed traits.<br /><br />While in Dragon Stance, you can ignore the first square of difficult terrain while Striding.</p>"
        },
        "duration": {
            "expiry": "turn-start",
            "sustained": false,
            "unit": "unlimited",
            "value": -1
        },
        "level": {
            "value": 0
        },
        "rules": [
            {
                "category": "unarmed",
                "damage": {
                    "base": {
                        "damageType": "bludgeoning",
                        "dice": 1,
                        "die": "d10"
                    }
                },
                "group": "brawling",
                "key": "PF2E.RuleElement.Strike",
                "label": "Dragon Tail",
                "range": "melee",
                "traits": [
                    "backswing",
                    "unarmed",
                    "nonlethal"
                ]
            },
            {
                "key": "PF2E.RuleElement.TokenEffectIcon"
            }
        ],
        "schema": {
            "lastMigration": null,
            "version": 0.643
        },
        "source": {
            "value": ""
        },
        "start": {
            "initiative": null,
            "value": 0
        },
        "traits": {
            "custom": "",
            "rarity": {
                "value": "common"
            },
            "value": []
        }
    },
    "effects": [],
    "flags": {},
    "img": "systems/pf2e/icons/features/feats/dragon-stance.webp",
    "name": "Stance: Dragon Stance",
    "type": "effect"
}
