{
    "_id": "BCyGDKcplkJiSAKJ",
    "data": {
        "description": {
            "chat": "",
            "unidentified": "",
            "value": "<p>Granted by @Compendium[pf2e.feats-srd.Stumbling Stance]{Stumbling Stance}</p>\n<p>You enter a seemingly unfocused stance that mimics the movements of the inebriated—bobbing, weaving, leaving false openings, and distracting your enemies from your true movements. While in this stance, you gain a +1 circumstance bonus to Deception checks to @Compendium[pf2e.actionspf2e.Feint]{Feint}.</p>\n<p>The only Strikes you can make are stumbling swing unarmed attacks. These deal 1d8 bludgeoning damage; are in the brawling group; and have the agile, backstabber, finesse, nonlethal, and unarmed traits. If an enemy hits you with a melee Strike while in this stance, it becomes flat-footed against the next stumbling swing Strike you make against it before the end of your next turn.</p>"
        },
        "duration": {
            "expiry": "turn-start",
            "sustained": false,
            "unit": "unlimited",
            "value": -1
        },
        "level": {
            "value": 0
        },
        "rules": [
            {
                "category": "unarmed",
                "damage": {
                    "base": {
                        "damageType": "bludgeoning",
                        "dice": 1,
                        "die": "d8"
                    }
                },
                "group": "brawling",
                "key": "PF2E.RuleElement.Strike",
                "label": "Stumbling Swing",
                "range": "melee",
                "traits": [
                    "agile",
                    "backstabber",
                    "finesse",
                    "unarmed",
                    "nonlethal"
                ]
            },
            {
                "key": "PF2E.RuleElement.FlatModifier",
                "predicate": {
                    "all": [
                        "action:feint"
                    ]
                },
                "selector": "deception",
                "type": "circumstance",
                "value": 1
            },
            {
                "key": "PF2E.RuleElement.TokenEffectIcon"
            }
        ],
        "schema": {
            "lastMigration": null,
            "version": 0.643
        },
        "source": {
            "value": ""
        },
        "start": {
            "initiative": null,
            "value": 0
        },
        "traits": {
            "custom": "",
            "rarity": {
                "value": "common"
            },
            "value": []
        }
    },
    "effects": [],
    "flags": {},
    "img": "systems/pf2e/icons/features/feats/stumbling-stance.webp",
    "name": "Stance: Stumbling Stance",
    "type": "effect"
}
