{
    "_id": "JefXqvhzUeBArkAP",
    "data": {
        "description": {
            "chat": "",
            "unidentified": "",
            "value": "<p>Granted by @Compendium[pf2e.feats-srd.Whirling Blade Stance]{Whirling Blade Stance}</p>\n<p>You enter a mindful stance that creates a deep connection between you and your monk weapons, allowing you to manipulate them with your ki even at a distance.</p>\n<p>All melee Monk weapons you wield with the finesse trait gain the thrown 10 feet trait (unless they already have the thrown trait with a greater range).</p>\n<p>Once you've made a thrown Strike with such a weapon, you can use the precision of your throw to make additional Strikes with it, even from a distance. Start from the space of the previous Strike's target to determine the range increment and whether the new target has cover. At the end of your turn, the thrown weapon flies directly back to you in a straight line. If a solid barrier blocks its path, it falls to the ground after hitting the barrier.</p>"
        },
        "duration": {
            "expiry": "turn-start",
            "sustained": false,
            "unit": "unlimited",
            "value": -1
        },
        "level": {
            "value": 0
        },
        "rules": [
            {
                "key": "PF2E.RuleElement.TokenEffectIcon"
            }
        ],
        "schema": {
            "lastMigration": null,
            "version": 0.643
        },
        "source": {
            "value": ""
        },
        "start": {
            "initiative": null,
            "value": 0
        },
        "target": null,
        "traits": {
            "custom": "",
            "rarity": {
                "value": "common"
            },
            "value": []
        }
    },
    "effects": [],
    "flags": {},
    "img": "systems/pf2e/icons/equipment/weapons/buugeng.webp",
    "name": "Stance: Whirling Blade Stance",
    "type": "effect"
}
