{
    "_id": "zUvgAbgeQH5t6DWs",
    "data": {
        "abilities": {
            "cha": {
                "min": 3,
                "mod": 5,
                "value": 20
            },
            "con": {
                "min": 3,
                "mod": 2,
                "value": 14
            },
            "dex": {
                "min": 3,
                "mod": 4,
                "value": 18
            },
            "int": {
                "min": 3,
                "mod": 3,
                "value": 16
            },
            "str": {
                "min": 3,
                "mod": 1,
                "value": 12
            },
            "wis": {
                "min": 3,
                "mod": 4,
                "value": 18
            }
        },
        "attributes": {
            "ac": {
                "base": 24,
                "check": 0,
                "details": "",
                "dex": 0,
                "item": 0,
                "min": 0,
                "value": 24
            },
            "allSaves": {
                "value": "+1 status bonus to all saves vs. magic"
            },
            "ancestryhp": 0,
            "bonusEncumbranceBulk": 0,
            "bonusLimitBulk": 0,
            "classDC": {
                "ability": "str",
                "breakdown": "",
                "item": 0,
                "rank": 0,
                "value": 0
            },
            "classhp": 0,
            "flatbonushp": 0,
            "flatbonussp": 0,
            "hp": {
                "details": "",
                "max": 100,
                "min": 0,
                "temp": 0,
                "value": 100
            },
            "init": {
                "bonus": 0,
                "value": 0
            },
            "initiative": {
                "ability": "",
                "circumstance": 0,
                "status": 0
            },
            "levelbonushp": 0,
            "levelbonussp": 0,
            "perception": {
                "ability": "wis",
                "breakdown": "",
                "item": 0,
                "rank": 0,
                "value": 14
            },
            "resolve": {
                "value": 0
            },
            "shield": {
                "ac": 0,
                "brokenThreshold": "0",
                "hardness": 0,
                "max": "0",
                "min": 0,
                "value": 0
            },
            "sp": {
                "details": "",
                "max": 0,
                "min": 0,
                "value": 0
            },
            "speed": {
                "otherSpeeds": [
                    {
                        "label": "Fly",
                        "type": "fly",
                        "value": "40"
                    }
                ],
                "value": "30"
            }
        },
        "details": {
            "alignment": {
                "value": "NG"
            },
            "ancestry": {
                "value": ""
            },
            "biography": {
                "public": "",
                "value": ""
            },
            "class": {
                "value": ""
            },
            "creatureType": "",
            "deity": {
                "image": "systems/pf2e/assets/sheet/deity.webp",
                "value": ""
            },
            "flavorText": "<p>Choral angels are incredible singers who fill the halls of Nirvana with pious chants and sacred hymns. They form from the souls of talented bards and other performers. While they shy away from conflict, they occasionally brave the mortal realm to deliver good omens and auspicious messages. Choral angels often serve the goddess Shelyn, but they can also serve other good deities and empyreal lords.</p>\n<hr />\n<p>The celestial hosts of angels are messengers and warriors, divided into choirs based on their abilities and purviews. The majority of angels are neutral good and live in Nirvana, the plane of virtue and enlightenment. However, some angels, including several angelic deities, have different alignments, and some even dwell on other planes. Regardless of alignment, angels remain benevolent messengers possessed with magical auras to aid their allies.</p>",
            "flavourText": "",
            "heritage": {
                "value": ""
            },
            "keyability": {
                "value": "str"
            },
            "level": {
                "min": 1,
                "value": 6
            },
            "recallKnowledgeText": "",
            "source": {
                "value": "Bestiary"
            }
        },
        "saves": {
            "fortitude": {
                "ability": "con",
                "breakdown": "",
                "item": 0,
                "rank": 0,
                "saveDetail": "",
                "value": 10
            },
            "reflex": {
                "ability": "dex",
                "breakdown": "",
                "item": 0,
                "rank": 0,
                "saveDetail": "",
                "value": 14
            },
            "will": {
                "ability": "wis",
                "breakdown": "",
                "item": 0,
                "rank": 0,
                "saveDetail": "",
                "value": 16
            }
        },
        "schema": {
            "lastMigration": null,
            "version": 0.643
        },
        "traits": {
            "ci": [],
            "di": {
                "custom": "",
                "value": []
            },
            "dr": [
                {
                    "exceptions": "",
                    "label": "Sonic",
                    "type": "sonic",
                    "value": "5"
                }
            ],
            "dv": [
                {
                    "exceptions": "",
                    "label": "Evil",
                    "type": "evil",
                    "value": "5"
                }
            ],
            "languages": {
                "custom": "tongues",
                "selected": [],
                "value": [
                    "celestial",
                    "draconic",
                    "infernal",
                    "custom"
                ]
            },
            "rarity": {
                "value": "common"
            },
            "senses": {
                "value": "darkvision"
            },
            "size": {
                "value": "sm"
            },
            "traits": {
                "custom": "",
                "value": [
                    "angel",
                    "celestial"
                ]
            }
        }
    },
    "effects": [],
    "flags": {},
    "img": "systems/pf2e/icons/bestiary-1/choral.webp",
    "items": [
        {
            "_id": "t3Ol2zQPDW95kua8",
            "data": {
                "ability": {
                    "value": "cha"
                },
                "autoHeightenLevel": {
                    "value": null
                },
                "autoHeightenLevel": {
                    "value": null
                },
                "description": {
                    "chat": "",
                    "unidentified": "",
                    "value": ""
                },
                "displayLevels": {},
                "focus": {
                    "points": 1,
                    "pool": 1
                },
                "item": {
                    "value": 0
                },
                "prepared": {
                    "value": "innate"
                },
                "proficiency": {
                    "value": 0
                },
                "rules": [],
                "schema": {
                    "lastMigration": null,
                    "version": 0.643
                },
                "showUnpreparedSpells": {
                    "value": true
                },
                "signatureSpells": {
                    "value": []
                },
                "slots": {
                    "slot0": {
                        "max": 0,
                        "prepared": [],
                        "value": 0
                    },
                    "slot1": {
                        "max": 0,
                        "prepared": [],
                        "value": 0
                    },
                    "slot10": {
                        "max": 0,
                        "prepared": [],
                        "value": 0
                    },
                    "slot11": {
                        "max": 0,
                        "prepared": [],
                        "value": 0
                    },
                    "slot2": {
                        "max": 0,
                        "prepared": [],
                        "value": 0
                    },
                    "slot3": {
                        "max": 4,
                        "prepared": [],
                        "value": 4
                    },
                    "slot4": {
                        "max": 0,
                        "prepared": [],
                        "value": 0
                    },
                    "slot5": {
                        "max": 0,
                        "prepared": [],
                        "value": 0
                    },
                    "slot6": {
                        "max": 0,
                        "prepared": [],
                        "value": 0
                    },
                    "slot7": {
                        "max": 0,
                        "prepared": [],
                        "value": 0
                    },
                    "slot8": {
                        "max": 0,
                        "prepared": [],
                        "value": 0
                    },
                    "slot9": {
                        "max": 0,
                        "prepared": [],
                        "value": 0
                    }
                },
                "slug": null,
                "source": {
                    "value": ""
                },
                "spelldc": {
                    "dc": 23,
                    "item": 0,
                    "mod": 0,
                    "value": 13
                },
                "tradition": {
                    "value": "divine"
                },
                "traits": {
                    "custom": "",
                    "rarity": {
                        "value": "common"
                    },
                    "value": []
                }
            },
            "effects": [],
            "flags": {},
            "img": "systems/pf2e/icons/default-icons/spellcastingEntry.svg",
            "name": "Innate Divine Spells",
            "sort": 100000,
            "type": "spellcastingEntry"
        },
        {
            "_id": "XV2upvukYetXJhuE",
            "data": {
                "ability": {
                    "value": "cha"
                },
                "autoHeightenLevel": {
                    "value": null
                },
                "autoHeightenLevel": {
                    "value": null
                },
                "description": {
                    "chat": "",
                    "unidentified": "",
                    "value": ""
                },
                "displayLevels": {},
                "focus": {
                    "points": 1,
                    "pool": 1
                },
                "item": {
                    "value": 0
                },
                "prepared": {
                    "value": ""
                },
                "proficiency": {
                    "value": 0
                },
                "rules": [],
                "schema": {
                    "lastMigration": null,
                    "version": 0.643
                },
                "showUnpreparedSpells": {
                    "value": true
                },
                "signatureSpells": {
                    "value": []
                },
                "slots": {
                    "slot0": {
                        "max": 0,
                        "prepared": [],
                        "value": 0
                    },
                    "slot1": {
                        "max": 0,
                        "prepared": [],
                        "value": 0
                    },
                    "slot10": {
                        "max": 0,
                        "prepared": [],
                        "value": 0
                    },
                    "slot11": {
                        "max": 0,
                        "prepared": [],
                        "value": 0
                    },
                    "slot2": {
                        "max": 0,
                        "prepared": [],
                        "value": 0
                    },
                    "slot3": {
                        "max": 0,
                        "prepared": [],
                        "value": 0
                    },
                    "slot4": {
                        "max": 0,
                        "prepared": [],
                        "value": 0
                    },
                    "slot5": {
                        "max": 0,
                        "prepared": [],
                        "value": 0
                    },
                    "slot6": {
                        "max": 0,
                        "prepared": [],
                        "value": 0
                    },
                    "slot7": {
                        "max": 0,
                        "prepared": [],
                        "value": 0
                    },
                    "slot8": {
                        "max": 0,
                        "prepared": [],
                        "value": 0
                    },
                    "slot9": {
                        "max": 0,
                        "prepared": [],
                        "value": 0
                    }
                },
                "slug": null,
                "source": {
                    "value": ""
                },
                "spelldc": {
                    "dc": 23,
                    "item": 0,
                    "mod": 0,
                    "value": 13
                },
                "tradition": {
                    "value": "ritual"
                },
                "traits": {
                    "custom": "",
                    "rarity": {
                        "value": "common"
                    },
                    "value": []
                }
            },
            "effects": [],
            "flags": {},
            "img": "systems/pf2e/icons/default-icons/spellcastingEntry.svg",
            "name": "Rituals",
            "sort": 200000,
            "type": "spellcastingEntry"
        },
        {
            "_id": "WqJUUXxdCUyxGYwP",
            "data": {
                "ability": {
                    "value": ""
                },
                "area": {
                    "areaType": "",
                    "value": ""
                },
                "areasize": {
                    "value": ""
                },
                "autoHeightenLevel": {
                    "value": null
                },
                "category": {
                    "value": "spell"
                },
                "components": {
                    "material": false,
                    "somatic": true,
                    "verbal": true
                },
                "cost": {
                    "value": ""
                },
                "damage": {
                    "applyMod": false,
                    "value": ""
                },
                "damageType": {
                    "value": ""
                },
                "description": {
                    "chat": "",
                    "unidentified": "",
                    "value": "<p>The target can understand all words regardless of language and also speak the languages of other creatures. When in a mixed group of creatures, each time the target speaks, it can choose a creature and speak in a language that creature understands, even if the target doesn't know what language that is.</p>\n<hr />\n<p><strong>Heightened (7th)</strong> The duration is 8 hours.</p>"
                },
                "duration": {
                    "value": "1 hour"
                },
                "hasCounteractCheck": {
                    "value": false
                },
                "level": {
                    "value": 5
                },
                "location": {
                    "value": "t3Ol2zQPDW95kua8"
                },
                "materials": {
                    "value": ""
                },
                "prepared": {
                    "value": ""
                },
                "primarycheck": {
                    "value": ""
                },
                "range": {
                    "value": "touch"
                },
                "rules": [],
                "save": {
                    "basic": "",
                    "value": ""
                },
                "scaling": {
                    "formula": "",
                    "mode": "none"
                },
                "schema": {
                    "lastMigration": null,
                    "version": 0.643
                },
                "school": {
                    "value": "divination"
                },
                "secondarycasters": {
                    "value": ""
                },
                "secondarycheck": {
                    "value": ""
                },
                "slug": "tongues",
                "source": {
                    "value": ""
                },
                "spellType": {
                    "value": "utility"
                },
                "sustained": {
                    "value": false
                },
                "target": {
                    "value": "1 creature"
                },
                "time": {
                    "value": "2"
                },
                "traditions": {
                    "value": [
                        "arcane",
                        "divine",
                        "occult"
                    ]
                },
                "traits": {
                    "custom": "",
                    "rarity": {
                        "value": "uncommon"
                    },
                    "value": [
                        "divination"
                    ]
                }
            },
            "effects": [],
            "flags": {
                "core": {
                    "sourceId": "Compendium.pf2e.spells-srd.SwUiVavHKMWG7t5K"
                }
            },
            "img": "systems/pf2e/icons/spells/tongues.webp",
            "name": "Tongues (Constant)",
            "sort": 300000,
            "type": "spell"
        },
        {
            "_id": "IWpK5uuK2T3c9gsQ",
            "data": {
                "ability": {
                    "value": ""
                },
                "area": {
                    "areaType": "",
                    "value": ""
                },
                "areasize": {
                    "value": ""
                },
                "autoHeightenLevel": {
                    "value": null
                },
                "autoHeightenLevel": {
                    "value": null
                },
                "category": {
                    "value": "spell"
                },
                "components": {
                    "material": true,
                    "somatic": true,
                    "verbal": true
                },
                "cost": {
                    "value": ""
                },
                "damage": {
                    "applyMod": false,
                    "value": ""
                },
                "damageType": {
                    "value": ""
                },
                "description": {
                    "chat": "",
                    "unidentified": "",
                    "value": "<p>Your touch grants a reprieve to a cursed creature. You attempt to counteract one curse afflicting the target. If the curse comes from a cursed item or other external source, a success indicates that the target creature can rid itself of the cursed item, but it doesn't remove the curse from the item.</p>"
                },
                "duration": {
                    "value": ""
                },
                "hasCounteractCheck": {
                    "value": true
                },
                "heightenedLevel": {
                    "value": 3
                },
                "level": {
                    "value": 3
                },
                "location": {
                    "value": "t3Ol2zQPDW95kua8"
                },
                "materials": {
                    "value": ""
                },
                "prepared": {
                    "value": ""
                },
                "primarycheck": {
                    "value": ""
                },
                "range": {
                    "value": "touch"
                },
                "rules": [],
                "save": {
                    "basic": "",
                    "value": ""
                },
                "scaling": {
                    "formula": "",
                    "mode": "none"
                },
                "schema": {
                    "lastMigration": null,
                    "version": 0.643
                },
                "school": {
                    "value": "necromancy"
                },
                "secondarycasters": {
                    "value": ""
                },
                "secondarycheck": {
                    "value": ""
                },
                "slug": "remove-curse",
                "source": {
                    "value": ""
                },
                "spellType": {
                    "value": "heal"
                },
                "sustained": {
                    "value": false
                },
                "target": {
                    "value": "1 creature"
                },
                "time": {
                    "value": "10 minutes"
                },
                "traditions": {
                    "value": [
                        "divine",
                        "occult"
                    ]
                },
                "traits": {
                    "custom": "",
                    "rarity": {
                        "value": "common"
                    },
                    "value": [
                        "healing",
                        "necromancy"
                    ]
                }
            },
            "effects": [],
            "flags": {
                "core": {
                    "sourceId": "Compendium.pf2e.spells-srd.OyFCwQuw8XRazsNr"
                }
            },
            "img": "systems/pf2e/icons/spells/remove-curse.webp",
            "name": "Remove Curse",
            "sort": 400000,
            "type": "spell"
        },
        {
            "_id": "wFM2dTr23752N9YC",
            "data": {
                "ability": {
                    "value": ""
                },
                "area": {
                    "areaType": "",
                    "value": null
                },
                "areasize": {
                    "value": ""
                },
                "autoHeightenLevel": {
                    "value": null
                },
                "category": {
                    "value": "spell"
                },
                "components": {
                    "material": true,
                    "somatic": true,
                    "verbal": true
                },
                "cost": {
                    "value": ""
                },
                "damage": {
                    "applyMod": false,
                    "value": ""
                },
                "damageType": {
                    "value": ""
                },
                "description": {
                    "chat": "",
                    "unidentified": "",
                    "value": "<p>Healing magic purges disease from a creature's body. You attempt to counteract one disease afflicting the target.</p>"
                },
                "duration": {
                    "value": ""
                },
                "hasCounteractCheck": {
                    "value": true
                },
                "level": {
                    "value": 3
                },
                "location": {
                    "value": "t3Ol2zQPDW95kua8"
                },
                "materials": {
                    "value": ""
                },
                "prepared": {
                    "value": ""
                },
                "primarycheck": {
                    "value": ""
                },
                "range": {
                    "value": "touch"
                },
                "rules": [],
                "save": {
                    "basic": "",
                    "value": ""
                },
                "scaling": {
                    "formula": "",
                    "mode": "none"
                },
                "schema": {
                    "lastMigration": null,
                    "version": 0.643
                },
                "school": {
                    "value": "necromancy"
                },
                "secondarycasters": {
                    "value": ""
                },
                "secondarycheck": {
                    "value": ""
                },
                "slug": "remove-disease",
                "source": {
                    "value": ""
                },
                "spellType": {
                    "value": "heal"
                },
                "sustained": {
                    "value": false
                },
                "target": {
                    "value": "1 creature"
                },
                "time": {
                    "value": "10 minutes"
                },
                "traditions": {
                    "value": [
                        "divine",
                        "primal"
                    ]
                },
                "traits": {
                    "custom": "",
                    "rarity": {
                        "value": "common"
                    },
                    "value": [
                        "healing",
                        "necromancy"
                    ]
                }
            },
            "effects": [],
            "flags": {
                "core": {
                    "sourceId": "Compendium.pf2e.spells-srd.RneiyehRO6f7LP44"
                }
            },
            "img": "systems/pf2e/icons/spells/remove-disease.webp",
            "name": "Remove Disease",
            "sort": 500000,
            "type": "spell"
        },
        {
            "_id": "ATwMmTxEOk003WOb",
            "data": {
                "ability": {
                    "value": ""
                },
                "area": {
                    "areaType": "",
                    "value": ""
                },
                "areasize": {
                    "value": ""
                },
                "autoHeightenLevel": {
                    "value": null
                },
                "category": {
                    "value": "spell"
                },
                "components": {
                    "material": true,
                    "somatic": true,
                    "verbal": false
                },
                "cost": {
                    "value": ""
                },
                "damage": {
                    "applyMod": false,
                    "value": ""
                },
                "damageType": {
                    "value": ""
                },
                "description": {
                    "chat": "",
                    "unidentified": "",
                    "value": "<p>Cloaked in illusion, the target becomes @Compendium[pf2e.conditionitems.Invisible]{Invisible}. This makes it @Compendium[pf2e.conditionitems.Undetected]{Undetected} to all creatures, though the creatures can attempt to find the target, making it @Compendium[pf2e.conditionitems.Hidden]{Hidden} to them instead. If the target uses a hostile action, the spell ends after that hostile action is completed.</p>\n<hr />\n<p><strong>Heightened (4th)</strong> The spell lasts 1 minute, but it doesn't end if the target uses a hostile action.</p>"
                },
                "duration": {
                    "value": "10 minutes"
                },
                "hasCounteractCheck": {
                    "value": false
                },
                "level": {
                    "value": 2
                },
                "location": {
                    "value": "t3Ol2zQPDW95kua8"
                },
                "materials": {
                    "value": ""
                },
                "prepared": {
                    "value": ""
                },
                "primarycheck": {
                    "value": ""
                },
                "range": {
                    "value": "touch"
                },
                "rules": [],
                "save": {
                    "basic": "",
                    "value": ""
                },
                "scaling": {
                    "formula": "",
                    "mode": "none"
                },
                "schema": {
                    "lastMigration": null,
                    "version": 0.643
                },
                "school": {
                    "value": "illusion"
                },
                "secondarycasters": {
                    "value": ""
                },
                "secondarycheck": {
                    "value": ""
                },
                "slug": "invisibility",
                "source": {
                    "value": ""
                },
                "spellType": {
                    "value": "utility"
                },
                "sustained": {
                    "value": false
                },
                "target": {
                    "value": "self"
                },
                "time": {
                    "value": "2"
                },
                "traditions": {
                    "value": [
                        "arcane",
                        "occult"
                    ]
                },
                "traits": {
                    "custom": "",
                    "rarity": {
                        "value": "common"
                    },
                    "value": [
                        "illusion"
                    ]
                }
            },
            "effects": [],
            "flags": {
                "core": {
                    "sourceId": "Compendium.pf2e.spells-srd.XXqE1eY3w3z6xJCB"
                }
            },
            "img": "systems/pf2e/icons/spells/invisibility.webp",
            "name": "Invisibility (At Will) (Self Only)",
            "sort": 600000,
            "type": "spell"
        },
        {
            "_id": "AbqNGYy0B1Tgk4oe",
            "data": {
                "ability": {
                    "value": ""
                },
                "area": {
                    "areaType": "",
                    "value": ""
                },
                "areasize": {
                    "value": ""
                },
                "autoHeightenLevel": {
                    "value": null
                },
                "category": {
                    "value": "spell"
                },
                "components": {
                    "material": false,
                    "somatic": true,
                    "verbal": true
                },
                "cost": {
                    "value": ""
                },
                "damage": {
                    "applyMod": false,
                    "value": ""
                },
                "damageType": {
                    "value": ""
                },
                "description": {
                    "chat": "",
                    "unidentified": "",
                    "value": "<p>With a touch, you ease a creature's fears. You can attempt to counteract a single fear effect that the target suffers from. This frees only the target, not any other creatures under the fear effect.</p>\n<hr />\n<p><strong>Heightened (6th)</strong> The spell's range increases to 30 feet, and you can target up to 10 creatures.</p>"
                },
                "duration": {
                    "value": ""
                },
                "hasCounteractCheck": {
                    "value": true
                },
                "heightenedLevel": {
                    "value": 3
                },
                "level": {
                    "value": 2
                },
                "location": {
                    "value": "t3Ol2zQPDW95kua8"
                },
                "materials": {
                    "value": ""
                },
                "prepared": {
                    "value": ""
                },
                "primarycheck": {
                    "value": ""
                },
                "range": {
                    "value": "touch"
                },
                "rules": [],
                "save": {
                    "basic": "",
                    "value": ""
                },
                "scaling": {
                    "formula": "",
                    "mode": "none"
                },
                "schema": {
                    "lastMigration": null,
                    "version": 0.643
                },
                "school": {
                    "value": "enchantment"
                },
                "secondarycasters": {
                    "value": ""
                },
                "secondarycheck": {
                    "value": ""
                },
                "slug": "remove-fear",
                "source": {
                    "value": ""
                },
                "spellType": {
                    "value": "utility"
                },
                "sustained": {
                    "value": false
                },
                "target": {
                    "value": "1 creature"
                },
                "time": {
                    "value": "2"
                },
                "traditions": {
                    "value": [
                        "divine",
                        "occult",
                        "primal"
                    ]
                },
                "traits": {
                    "custom": "",
                    "rarity": {
                        "value": "common"
                    },
                    "value": [
                        "enchantment"
                    ]
                }
            },
            "effects": [],
            "flags": {
                "core": {
                    "sourceId": "Compendium.pf2e.spells-srd.EfFMLVbmkBWmzoLF"
                }
            },
            "img": "systems/pf2e/icons/spells/remove-fear.webp",
            "name": "Remove Fear (At Will)",
            "sort": 700000,
            "type": "spell"
        },
        {
            "_id": "4E7yBUrapUHjrOA4",
            "data": {
                "ability": {
                    "value": ""
                },
                "area": {
                    "areaType": "burst",
                    "value": "10"
                },
                "areasize": {
                    "value": "10-foot burst"
                },
                "autoHeightenLevel": {
                    "value": null
                },
                "category": {
                    "value": "spell"
                },
                "components": {
                    "material": false,
                    "somatic": true,
                    "verbal": true
                },
                "cost": {
                    "value": ""
                },
                "damage": {
                    "applyMod": false,
                    "value": "2d10"
                },
                "damageType": {
                    "value": "sonic"
                },
                "description": {
                    "chat": "",
                    "unidentified": "",
                    "value": "<p>A cacophonous noise blasts out, dealing 2d10 sonic damage. Each creature must attempt a Fortitude save.</p>\n<hr />\n<p><strong>Critical Success</strong> The creature is unaffected.</p>\n<p><strong>Success</strong> The creature takes half damage.</p>\n<p><strong>Failure</strong> The creature takes full damage and is @Compendium[pf2e.conditionitems.Deafened]{Deafened} for 1 round.</p>\n<p><strong>Critical Failure</strong> The creature takes double damage, is Deafened for 1 minute, and is @Compendium[pf2e.conditionitems.Stunned]{Stunned 1}.</p>\n<hr />\n<p><strong>Heightened (+1)</strong> The damage increases by 1d10.</p>"
                },
                "duration": {
                    "value": ""
                },
                "hasCounteractCheck": {
                    "value": false
                },
                "heightenedLevel": {
                    "value": 3
                },
                "level": {
                    "value": 2
                },
                "location": {
                    "value": "t3Ol2zQPDW95kua8"
                },
                "materials": {
                    "value": ""
                },
                "prepared": {
                    "value": ""
                },
                "primarycheck": {
                    "value": ""
                },
                "range": {
                    "value": "30 feet"
                },
                "rules": [],
                "save": {
                    "basic": "",
                    "value": "fortitude"
                },
                "scaling": {
                    "formula": "1d10",
                    "mode": "level1"
                },
                "schema": {
                    "lastMigration": null,
                    "version": 0.643
                },
                "school": {
                    "value": "evocation"
                },
                "secondarycasters": {
                    "value": ""
                },
                "secondarycheck": {
                    "value": ""
                },
                "slug": "sound-burst",
                "source": {
                    "value": ""
                },
                "spellType": {
                    "value": "save"
                },
                "sustained": {
                    "value": false
                },
                "target": {
                    "value": ""
                },
                "time": {
                    "value": "2"
                },
                "traditions": {
                    "value": [
                        "divine",
                        "occult"
                    ]
                },
                "traits": {
                    "custom": "",
                    "rarity": {
                        "value": "common"
                    },
                    "value": [
                        "evocation",
                        "sonic"
                    ]
                }
            },
            "effects": [],
            "flags": {
                "core": {
                    "sourceId": "Compendium.pf2e.spells-srd.Sound Burst"
                }
            },
            "img": "systems/pf2e/icons/spells/sound-burst.webp",
            "name": "Sound Burst",
            "sort": 800000,
            "type": "spell"
        },
        {
            "_id": "MtJcy3ZTprbZq4W7",
            "data": {
                "ability": {
                    "value": ""
                },
                "area": {
                    "areaType": "burst",
                    "value": "10"
                },
                "areasize": {
                    "value": "10-foot burst"
                },
                "autoHeightenLevel": {
                    "value": null
                },
                "autoHeightenLevel": {
                    "value": null
                },
                "category": {
                    "value": "spell"
                },
                "components": {
                    "material": false,
                    "somatic": true,
                    "verbal": true
                },
                "cost": {
                    "value": ""
                },
                "damage": {
                    "applyMod": false,
                    "value": "2d10"
                },
                "damageType": {
                    "value": "sonic"
                },
                "description": {
                    "chat": "",
                    "unidentified": "",
                    "value": "<p>A cacophonous noise blasts out, dealing 2d10 sonic damage. Each creature must attempt a Fortitude save.</p>\n<hr />\n<p><strong>Critical Success</strong> The creature is unaffected.</p>\n<p><strong>Success</strong> The creature takes half damage.</p>\n<p><strong>Failure</strong> The creature takes full damage and is @Compendium[pf2e.conditionitems.Deafened]{Deafened} for 1 round.</p>\n<p><strong>Critical Failure</strong> The creature takes double damage, is Deafened for 1 minute, and is @Compendium[pf2e.conditionitems.Stunned]{Stunned 1}.</p>\n<hr />\n<p><strong>Heightened (+1)</strong> The damage increases by 1d10.</p>"
                },
                "duration": {
                    "value": ""
                },
                "hasCounteractCheck": {
                    "value": false
                },
                "level": {
                    "value": 2
                },
                "location": {
                    "value": "t3Ol2zQPDW95kua8"
                },
                "materials": {
                    "value": ""
                },
                "prepared": {
                    "value": ""
                },
                "primarycheck": {
                    "value": ""
                },
                "range": {
                    "value": "30 feet"
                },
                "rules": [],
                "save": {
                    "basic": "",
                    "value": "fortitude"
                },
                "scaling": {
                    "formula": "1d10",
                    "mode": "level1"
                },
                "schema": {
                    "lastMigration": null,
                    "version": 0.643
                },
                "school": {
                    "value": "evocation"
                },
                "secondarycasters": {
                    "value": ""
                },
                "secondarycheck": {
                    "value": ""
                },
                "slug": "sound-burst",
                "source": {
                    "value": ""
                },
                "spellType": {
                    "value": "save"
                },
                "sustained": {
                    "value": false
                },
                "target": {
                    "value": ""
                },
                "time": {
                    "value": "2"
                },
                "traditions": {
                    "value": [
                        "divine",
                        "occult"
                    ]
                },
                "traits": {
                    "custom": "",
                    "rarity": {
                        "value": "common"
                    },
                    "value": [
                        "evocation",
                        "sonic"
                    ]
                }
            },
            "effects": [],
            "flags": {
                "core": {
                    "sourceId": "Compendium.pf2e.spells-srd.Sound Burst"
                }
            },
            "img": "systems/pf2e/icons/spells/sound-burst.webp",
            "name": "Sound Burst (At Will)",
            "sort": 900000,
            "type": "spell"
        },
        {
            "_id": "scHWjsahWCsgbtD6",
            "data": {
                "ability": {
                    "value": ""
                },
                "area": {
                    "areaType": "",
                    "value": null
                },
                "areasize": {
                    "value": ""
                },
                "autoHeightenLevel": {
                    "value": null
                },
                "autoHeightenLevel": {
                    "value": null
                },
                "category": {
                    "value": "ritual"
                },
                "components": {
                    "material": false,
                    "somatic": false,
                    "verbal": false
                },
                "cost": {
                    "value": ""
                },
                "damage": {
                    "applyMod": false,
                    "value": ""
                },
                "damageType": {
                    "value": ""
                },
                "description": {
                    "chat": "",
                    "unidentified": "",
                    "value": "<p>You transport yourself to either a celestial plane or a world on the Material Plane where worshippers of your patron can be found. You must be of no higher level than double <em>angelic messenger's</em> spell level</p>\n<hr />\n<p><span><strong>Critical Success</strong> As success, but if you've never visited that plane or world before, you appear right in front of the message's intended recipient.</span></p>\n<p><span><strong>Success</strong> You arrive on the target plane or world at the last location you visited on that plane or world, or to a random location within 10d10 miles of your message's intended recipient if you've never visited that plane or world before.</span></p>\n<p><span><strong>Failure</strong> You don't travel.</span></p>\n<p><span><strong>Critical Failure</strong> You accidentally travel to the wrong plane, possibly a dangerous plane.</span></p>"
                },
                "duration": {
                    "value": ""
                },
                "hasCounteractCheck": {
                    "value": false
                },
                "level": {
                    "value": 1
                },
                "location": {
                    "value": "XV2upvukYetXJhuE"
                },
                "materials": {
                    "value": ""
                },
                "prepared": {
                    "value": ""
                },
                "primarycheck": {
                    "value": "Religion (expert; you must be an angel)"
                },
                "range": {
                    "value": ""
                },
                "rules": [],
                "save": {
                    "basic": "",
                    "value": ""
                },
                "scaling": {
                    "formula": "",
                    "mode": "none"
                },
                "schema": {
                    "lastMigration": null,
                    "version": 0.643
                },
                "school": {
                    "value": "conjuration"
                },
                "secondarycasters": {
                    "value": ""
                },
                "secondarycheck": {
                    "value": ""
                },
                "slug": "angelic-messenger",
                "source": {
                    "value": ""
                },
                "spellType": {
                    "value": "utility"
                },
                "sustained": {
                    "value": false
                },
                "target": {
                    "value": ""
                },
                "time": {
                    "value": "1 day"
                },
                "traditions": {
                    "custom": "",
                    "value": []
                },
                "traits": {
                    "custom": "",
                    "rarity": {
                        "value": "uncommon"
                    },
                    "value": [
                        "uncommon",
                        "conjuration"
                    ]
                }
            },
            "effects": [],
            "flags": {
                "core": {
                    "sourceId": "Compendium.pf2e.spells-srd.joEruBVz31Uxczzq"
                }
            },
            "img": "systems/pf2e/icons/spells/angelic-messenger.webp",
            "name": "Angelic Messenger",
            "sort": 1000000,
            "type": "spell"
        },
        {
            "_id": "z56SmukWsoPvkwEm",
            "data": {
                "ability": {
                    "value": ""
                },
                "area": {
                    "areaType": "",
                    "value": ""
                },
                "areasize": {
                    "value": "60-foot emanation"
                },
                "autoHeightenLevel": {
                    "value": null
                },
                "autoHeightenLevel": {
                    "value": null
                },
                "category": {
                    "value": "focus"
                },
                "components": {
                    "material": false,
                    "somatic": false,
                    "verbal": false
                },
                "cost": {
                    "value": ""
                },
                "damage": {
                    "applyMod": false,
                    "value": ""
                },
                "damageType": {
                    "value": ""
                },
                "description": {
                    "chat": "",
                    "unidentified": "",
                    "value": "<p><strong>Trigger</strong> You or an ally within 60 feet rolls a saving throw against an auditory or visual effect.</p>\n<hr />\n<p>Your performance protects you and your allies. Roll a Performance check for a type you know: an auditory performance if the trigger was auditory, or a visual one for a visual trigger. You and allies in the area can use the better result between your Performance check and the saving throw.</p>"
                },
                "duration": {
                    "value": ""
                },
                "hasCounteractCheck": {
                    "value": false
                },
                "level": {
                    "value": 1
                },
                "location": {
                    "value": "t3Ol2zQPDW95kua8"
                },
                "materials": {
                    "value": ""
                },
                "prepared": {
                    "value": ""
                },
                "primarycheck": {
                    "value": ""
                },
                "range": {
                    "value": ""
                },
                "rules": [],
                "save": {
                    "basic": "",
                    "value": ""
                },
                "scaling": {
                    "formula": "",
                    "mode": "none"
                },
                "schema": {
                    "lastMigration": null,
                    "version": 0.643
                },
                "school": {
                    "value": "enchantment"
                },
                "secondarycasters": {
                    "value": ""
                },
                "secondarycheck": {
                    "value": ""
                },
                "slug": "counter-performance",
                "source": {
                    "value": ""
                },
                "spellType": {
                    "value": "utility"
                },
                "sustained": {
                    "value": false
                },
                "target": {
                    "value": ""
                },
                "time": {
                    "value": "reaction"
                },
                "traditions": {
                    "value": []
                },
                "traits": {
                    "custom": "",
                    "rarity": {
                        "value": "uncommon"
                    },
                    "value": [
                        "bard",
                        "composition",
                        "enchantment",
                        "mental"
                    ]
                }
            },
            "effects": [],
            "flags": {
                "core": {
                    "sourceId": "Compendium.pf2e.spells-srd.WILXkjU5Yq3yw10r"
                }
            },
            "img": "systems/pf2e/icons/spells/counter-performance.webp",
            "name": "Counter Performance (At Will)",
            "sort": 1100000,
            "type": "spell"
        },
        {
            "_id": "3Hkl4SXTXTa60UIU",
            "data": {
                "ability": {
                    "value": ""
                },
                "area": {
                    "areaType": "",
                    "value": null
                },
                "areasize": {
                    "value": ""
                },
                "autoHeightenLevel": {
                    "value": null
                },
                "autoHeightenLevel": {
                    "value": null
                },
                "category": {
                    "value": "spell"
                },
                "components": {
                    "material": false,
                    "somatic": true,
                    "verbal": true
                },
                "cost": {
                    "value": ""
                },
                "damage": {
                    "applyMod": false,
                    "value": ""
                },
                "damageType": {
                    "value": ""
                },
                "description": {
                    "chat": "",
                    "unidentified": "",
                    "value": "<p>You create an auditory illusion of simple sounds that has a maximum volume equal to four normal humans shouting. The sounds emanate from a square you designate within range. You can't create intelligible words or other intricate sounds (such as music).</p>\n<hr />\n<p><strong>Heightened (3rd)</strong> The range increases to 60 feet.</p>\n<p><strong>Heightened (5th)</strong> The range increases to 120 feet.</p>"
                },
                "duration": {
                    "value": "sustained"
                },
                "hasCounteractCheck": {
                    "value": false
                },
                "level": {
                    "value": 1
                },
                "location": {
                    "value": "t3Ol2zQPDW95kua8"
                },
                "materials": {
                    "value": ""
                },
                "prepared": {
                    "value": ""
                },
                "primarycheck": {
                    "value": ""
                },
                "range": {
                    "value": "30 feet"
                },
                "rules": [],
                "save": {
                    "basic": "",
                    "value": ""
                },
                "scaling": {
                    "formula": "",
                    "mode": "none"
                },
                "schema": {
                    "lastMigration": null,
                    "version": 0.643
                },
                "school": {
                    "value": "illusion"
                },
                "secondarycasters": {
                    "value": ""
                },
                "secondarycheck": {
                    "value": ""
                },
                "slug": "ghost-sound",
                "source": {
                    "value": ""
                },
                "spellType": {
                    "value": "utility"
                },
                "sustained": {
                    "value": false
                },
                "target": {
                    "value": ""
                },
                "time": {
                    "value": "2"
                },
                "traditions": {
                    "value": [
                        "arcane",
                        "occult"
                    ]
                },
                "traits": {
                    "custom": "",
                    "rarity": {
                        "value": "common"
                    },
                    "value": [
                        "auditory",
                        "cantrip",
                        "illusion"
                    ]
                }
            },
            "effects": [],
            "flags": {
                "core": {
                    "sourceId": "Compendium.pf2e.spells-srd.atlgGNI1E1Ox3O3a"
                }
            },
            "img": "systems/pf2e/icons/spells/ghost-sound.webp",
            "name": "Ghost Sound",
            "sort": 1200000,
            "type": "spell"
        },
        {
            "_id": "ekfowbzt74UiemUt",
            "data": {
                "ability": {
                    "value": ""
                },
                "area": {
                    "areaType": "",
                    "value": null
                },
                "areasize": {
                    "value": "varies"
                },
                "autoHeightenLevel": {
                    "value": null
                },
                "autoHeightenLevel": {
                    "value": null
                },
                "category": {
                    "value": "spell"
                },
                "components": {
                    "material": false,
                    "somatic": false,
                    "verbal": false
                },
                "cost": {
                    "value": ""
                },
                "damage": {
                    "applyMod": false,
                    "value": "1d8"
                },
                "damageType": {
                    "value": "positive"
                },
                "description": {
                    "chat": "",
                    "unidentified": "",
                    "value": "<p>You channel positive energy to heal the living or damage the undead. If the target is a willing living creature, you restore 1d8 Hit Points. If the target is undead, you deal that amount of positive damage to it, and it gets a basic Fortitude save. The number of actions you spend when Casting this Spell determines its targets, range, area, and other parameters.</p>\n<hr />\n<p><strong>1 Action</strong> (somatic) The spell has a range of touch.</p>\n<p><strong>2 Actions</strong> (somatic, verbal) The spell has a range of 30 feet. If you're healing a living creature, increase the Hit Points restored by 8.</p>\n<p><strong>3 Actions</strong> (material, somatic, verbal) You disperse positive energy in a 30-foot emanation. This targets all living and undead creatures in the burst.</p>\n<hr />\n<p><strong>Heightened (+1)</strong> The amount of healing or damage increases by 1d8, and the extra healing for the 2-action version increases by 8.</p>"
                },
                "duration": {
                    "value": ""
                },
                "hasCounteractCheck": {
                    "value": false
                },
                "heightenedLevel": {
                    "value": 3
                },
                "level": {
                    "value": 1
                },
                "location": {
                    "value": "t3Ol2zQPDW95kua8"
                },
                "materials": {
                    "value": ""
                },
                "prepared": {
                    "value": ""
                },
                "primarycheck": {
                    "value": ""
                },
                "range": {
                    "value": "varies"
                },
                "rules": [],
                "save": {
                    "basic": "",
                    "value": ""
                },
                "scaling": {
                    "formula": "1d8",
                    "mode": "level1"
                },
                "schema": {
                    "lastMigration": null,
                    "version": 0.643
                },
                "school": {
                    "value": "necromancy"
                },
                "secondarycasters": {
                    "value": ""
                },
                "secondarycheck": {
                    "value": ""
                },
                "slug": "heal",
                "source": {
                    "value": ""
                },
                "spellType": {
                    "value": "heal"
                },
                "sustained": {
                    "value": false
                },
                "target": {
                    "value": "1 willing living creature or 1 undead"
                },
                "time": {
                    "value": "1 to 3"
                },
                "traditions": {
                    "custom": "",
                    "value": [
                        "divine",
                        "primal"
                    ]
                },
                "traits": {
                    "custom": "",
                    "rarity": {
                        "value": "common"
                    },
                    "value": [
                        "healing",
                        "necromancy",
                        "positive"
                    ]
                }
            },
            "effects": [],
            "flags": {
                "core": {
                    "sourceId": "Compendium.pf2e.spells-srd.rfZpqmj0AIIdkVIs"
                }
            },
            "img": "systems/pf2e/icons/spells/heal.webp",
            "name": "Heal",
            "sort": 1300000,
            "type": "spell"
        },
        {
            "_id": "OZQd68kU0xNckpAO",
            "data": {
                "ability": {
                    "value": ""
                },
                "area": {
                    "areaType": "",
                    "value": null
                },
                "areasize": {
                    "value": ""
                },
                "autoHeightenLevel": {
                    "value": null
                },
                "category": {
                    "value": "focus"
                },
                "components": {
                    "material": false,
                    "somatic": false,
                    "verbal": true
                },
                "cost": {
                    "value": ""
                },
                "damage": {
                    "applyMod": false,
                    "value": ""
                },
                "damageType": {
                    "value": ""
                },
                "description": {
                    "chat": "",
                    "unidentified": "",
                    "value": "<p>Your encouragement inspires your ally to succeed at a task. This counts as having taken sufficient preparatory actions to Aid your ally on a skill check of your choice, regardless of the circumstances. When you later use the Aid reaction, you can roll Performance instead of the normal skill check, and if you roll a failure, you get a success instead. If you are legendary in Performance, you automatically critically succeed.</p>\n<p>The GM might rule that you can't use this ability if the act of encouraging your ally would interfere with the skill check (such as a check to Sneak quietly or maintain a disguise).</p>"
                },
                "duration": {
                    "value": "1 round"
                },
                "hasCounteractCheck": {
                    "value": false
                },
                "level": {
                    "value": 1
                },
                "location": {
                    "value": "t3Ol2zQPDW95kua8"
                },
                "materials": {
                    "value": ""
                },
                "prepared": {
                    "value": ""
                },
                "primarycheck": {
                    "value": ""
                },
                "range": {
                    "value": "60 feet"
                },
                "rules": [],
                "save": {
                    "basic": "",
                    "value": ""
                },
                "scaling": {
                    "formula": "",
                    "mode": "none"
                },
                "schema": {
                    "lastMigration": null,
                    "version": 0.643
                },
                "school": {
                    "value": "enchantment"
                },
                "secondarycasters": {
                    "value": ""
                },
                "secondarycheck": {
                    "value": ""
                },
                "slug": "inspire-competence",
                "source": {
                    "value": ""
                },
                "spellType": {
                    "value": "utility"
                },
                "sustained": {
                    "value": false
                },
                "target": {
                    "value": "1 ally"
                },
                "time": {
                    "value": "1"
                },
                "traditions": {
                    "custom": "",
                    "value": []
                },
                "traits": {
                    "custom": "",
                    "rarity": {
                        "value": "uncommon"
                    },
                    "value": [
                        "bard",
                        "cantrip",
                        "composition",
                        "emotion",
                        "enchantment",
                        "mental"
                    ]
                }
            },
            "effects": [],
            "flags": {
                "core": {
                    "sourceId": "Compendium.pf2e.spells-srd.f0Z5mqGA6Yu79B8x"
                }
            },
            "img": "systems/pf2e/icons/spells/inspire-competence.webp",
            "name": "Inspire Competence",
            "sort": 1400000,
            "type": "spell"
        },
        {
            "_id": "5dTNNUnAaaEiTaXm",
            "data": {
                "ability": {
                    "value": ""
                },
                "area": {
                    "areaType": "",
                    "value": null
                },
                "areasize": {
                    "value": "60-foot emanation"
                },
                "autoHeightenLevel": {
                    "value": null
                },
                "category": {
                    "value": "focus"
                },
                "components": {
                    "material": false,
                    "somatic": false,
                    "verbal": true
                },
                "cost": {
                    "value": ""
                },
                "damage": {
                    "applyMod": false,
                    "value": ""
                },
                "damageType": {
                    "value": ""
                },
                "description": {
                    "chat": "",
                    "unidentified": "",
                    "value": "<p>You inspire yourself and your allies with words or tunes of encouragement. You and all allies in the area gain a +1 status bonus to attack rolls, damage rolls, and saves against fear effects.</p>\n<p>@Compendium[pf2e.spell-effects.Spell Effect: Inspire Courage]{Spell Effect: Inspire Courage}</p>"
                },
                "duration": {
                    "value": "1 round"
                },
                "hasCounteractCheck": {
                    "value": false
                },
                "level": {
                    "value": 1
                },
                "location": {
                    "value": "t3Ol2zQPDW95kua8"
                },
                "materials": {
                    "value": ""
                },
                "prepared": {
                    "value": ""
                },
                "primarycheck": {
                    "value": ""
                },
                "range": {
                    "value": ""
                },
                "rules": [],
                "save": {
                    "basic": "",
                    "value": ""
                },
                "scaling": {
                    "formula": "",
                    "mode": "none"
                },
                "schema": {
                    "lastMigration": null,
                    "version": 0.643
                },
                "school": {
                    "value": "enchantment"
                },
                "secondarycasters": {
                    "value": ""
                },
                "secondarycheck": {
                    "value": ""
                },
                "slug": "inspire-courage",
                "source": {
                    "value": ""
                },
                "spellType": {
                    "value": "utility"
                },
                "sustained": {
                    "value": false
                },
                "target": {
                    "value": ""
                },
                "time": {
                    "value": "1"
                },
                "traditions": {
                    "custom": "",
                    "value": []
                },
                "traits": {
                    "custom": "",
                    "rarity": {
                        "value": "uncommon"
                    },
                    "value": [
                        "bard",
                        "cantrip",
                        "composition",
                        "emotion",
                        "enchantment",
                        "mental"
                    ]
                }
            },
            "effects": [],
            "flags": {
                "core": {
                    "sourceId": "Compendium.pf2e.spells-srd.IAjvwqgiDr3qGYxY"
                }
            },
            "img": "systems/pf2e/icons/spells/inspire-courage.webp",
            "name": "Inspire Courage",
            "sort": 1500000,
            "type": "spell"
        },
        {
            "_id": "LfFpWQJ2gEIy0oiZ",
            "data": {
                "attack": {
                    "value": ""
                },
                "attackEffects": {
                    "value": []
                },
                "bonus": {
                    "value": 14
                },
                "damageRolls": {
                    "npjqo3w608o36puhaks1l": {
                        "damage": "3d6+1",
                        "damageType": "bludgeoning"
                    },
                    "w13fabw56ekl4qgrfutst": {
                        "damage": "1d6",
                        "damageType": "good"
                    }
                },
                "description": {
                    "chat": "",
                    "unidentified": "",
                    "value": ""
                },
                "rules": [],
                "schema": {
                    "lastMigration": null,
                    "version": 0.643
                },
                "slug": null,
                "source": {
                    "value": ""
                },
                "traits": {
                    "custom": "",
                    "rarity": {
                        "value": "common"
                    },
                    "selected": {
                        "agile": "Agile",
                        "finesse": "Finesse",
                        "good": "Good",
                        "magical": "Magical"
                    },
                    "value": [
                        "agile",
                        "finesse",
                        "good",
                        "magical"
                    ]
                },
                "weaponType": {
                    "value": "melee"
                }
            },
            "effects": [],
            "flags": {},
            "img": "systems/pf2e/icons/default-icons/melee.svg",
            "name": "Fist",
            "sort": 1600000,
            "type": "melee"
        },
        {
            "_id": "fegp7nmVFKZeTSA5",
            "data": {
                "attack": {
                    "value": ""
                },
                "attackEffects": {
                    "custom": "",
                    "value": [
                        "deafening-aria"
                    ]
                },
                "bonus": {
                    "value": 17
                },
                "damageRolls": {
                    "91vcz6emm628tbhyp93l3": {
                        "damage": "4d6",
                        "damageType": "sonic"
                    },
                    "nkki5qwj0zp3jhxpfceawh": {
                        "damage": "1d6",
                        "damageType": "good"
                    }
                },
                "description": {
                    "chat": "",
                    "unidentified": "",
                    "value": ""
                },
                "rules": [],
                "schema": {
                    "lastMigration": null,
                    "version": 0.643
                },
                "slug": null,
                "source": {
                    "value": ""
                },
                "traits": {
                    "custom": "",
                    "rarity": {
                        "value": "common"
                    },
                    "selected": {
                        "good": "Good",
                        "magical": "Magical",
                        "range-increment-90": "Range Increment 90 ft",
                        "sonic": "Sonic"
                    },
                    "value": [
                        "good",
                        "magical",
                        "range-increment-90",
                        "sonic"
                    ]
                },
                "weaponType": {
                    "value": "ranged"
                }
            },
            "effects": [],
            "flags": {},
            "img": "systems/pf2e/icons/default-icons/melee.svg",
            "name": "Piercing Hymn",
            "sort": 1700000,
            "type": "melee"
        },
        {
            "_id": "4SeHhCM0ulS4TIjL",
            "data": {
                "actionCategory": {
                    "value": "interaction"
                },
                "actionType": {
                    "value": "passive"
                },
                "actions": {
                    "value": ""
                },
                "description": {
                    "chat": "",
                    "unidentified": "",
                    "value": "<p>A monster with darkvision can see perfectly well in areas of darkness and dim light, though such vision is in black and white only. Some forms of magical darkness, such as a 4th-level @Compendium[pf2e.spells-srd.Darkness]{Darkness} spell, block normal darkvision. A monster with @Compendium[pf2e.bestiary-ability-glossary-srd.Greater Darkvision]{Greater Darkvision}, however, can see through even these forms of magical darkness.</p>"
                },
                "requirements": {
                    "value": ""
                },
                "rules": [],
                "schema": {
                    "lastMigration": null,
                    "version": 0.643
                },
                "slug": "darkvision",
                "source": {
                    "value": ""
                },
                "traits": {
                    "custom": "",
                    "rarity": {
                        "value": "common"
                    },
                    "value": []
                },
                "trigger": {
                    "value": ""
                },
                "weapon": {
                    "value": ""
                }
            },
            "effects": [],
            "flags": {
                "core": {
                    "sourceId": "Compendium.pf2e.bestiary-ability-glossary-srd.qCCLZhnp2HhP3Ex6"
                }
            },
            "img": "systems/pf2e/icons/default-icons/action.svg",
            "name": "Darkvision",
            "sort": 1800000,
            "type": "action"
        },
        {
            "_id": "jqPcPNAR4c3cEI3M",
            "data": {
                "actionCategory": {
                    "value": "interaction"
                },
                "actionType": {
                    "value": "passive"
                },
                "actions": {
                    "value": ""
                },
                "description": {
                    "chat": "",
                    "unidentified": "",
                    "value": "<p>The monster can cast its at-will spells any number of times without using up spell slots.</p>"
                },
                "requirements": {
                    "value": ""
                },
                "rules": [],
                "schema": {
                    "lastMigration": null,
                    "version": 0.643
                },
                "slug": "at-will-spells",
                "source": {
                    "value": ""
                },
                "traits": {
                    "custom": "",
                    "rarity": {
                        "value": "common"
                    },
                    "value": []
                },
                "trigger": {
                    "value": ""
                },
                "weapon": {
                    "value": ""
                }
            },
            "effects": [],
            "flags": {
                "core": {
                    "sourceId": "Compendium.pf2e.bestiary-ability-glossary-srd.2YRDYVnC1eljaXKK"
                }
            },
            "img": "systems/pf2e/icons/default-icons/action.svg",
            "name": "At-Will Spells",
            "sort": 1900000,
            "type": "action"
        },
        {
            "_id": "rtbwOcOPVCHoeTWz",
            "data": {
                "actionCategory": {
                    "value": "interaction"
                },
                "actionType": {
                    "value": "passive"
                },
                "actions": {
                    "value": ""
                },
                "description": {
                    "chat": "",
                    "unidentified": "",
                    "value": "<p>A constant spell affects the monster without the monster needing to cast it, and its duration is unlimited. If a constant spell gets counteracted, the monster can reactivate it by spending the normal spellcasting actions the spell requires.</p>"
                },
                "requirements": {
                    "value": ""
                },
                "rules": [],
                "schema": {
                    "lastMigration": null,
                    "version": 0.643
                },
                "slug": "constant-spells",
                "source": {
                    "value": ""
                },
                "traits": {
                    "custom": "",
                    "rarity": {
                        "value": "common"
                    },
                    "value": []
                },
                "trigger": {
                    "value": ""
                },
                "weapon": {
                    "value": ""
                }
            },
            "effects": [],
            "flags": {
                "core": {
                    "sourceId": "Compendium.pf2e.bestiary-ability-glossary-srd.kakyXBG5WA8c6Zfd"
                }
            },
            "img": "systems/pf2e/icons/default-icons/action.svg",
            "name": "Constant Spells",
            "sort": 2000000,
            "type": "action"
        },
        {
            "_id": "8cJQY3xEuodUaxz6",
            "data": {
                "actionCategory": {
                    "value": "defensive"
                },
                "actionType": {
                    "value": "passive"
                },
                "actions": {
                    "value": ""
                },
                "description": {
                    "chat": "",
                    "unidentified": "",
                    "value": "<p>@Compendium[pf2e.bestiary-ability-glossary-srd.Aura]{Aura} 20 feet.</p>\n<p>Allies in the area gain a +2 status bonus to sonic damage rolls and a +1 status bonus to AC and all saves against sonic and auditory effects. Enemies in the area take a -2 status bonus to sonic damage rolls and a -1 status bonus to AC and all saves against sonic and auditory effects.</p>"
                },
                "requirements": {
                    "value": ""
                },
                "rules": [],
                "schema": {
                    "lastMigration": null,
                    "version": 0.643
                },
                "slug": null,
                "source": {
                    "value": ""
                },
                "traits": {
                    "custom": "",
                    "rarity": {
                        "value": "common"
                    },
                    "selected": {
                        "aura": "Aura",
                        "divine": "Divine",
                        "evocation": "Evocation",
                        "sonic": "Sonic"
                    },
                    "value": [
                        "aura",
                        "divine",
                        "evocation",
                        "sonic"
                    ]
                },
                "trigger": {
                    "value": ""
                },
                "weapon": {
                    "value": ""
                }
            },
            "effects": [],
            "flags": {},
            "img": "systems/pf2e/icons/actions/Passive.webp",
            "name": "Harmonizing Aura",
            "sort": 2100000,
            "type": "action"
        },
        {
            "_id": "r77dpdKAfpWBVSeS",
            "data": {
                "actionCategory": {
                    "value": "defensive"
                },
                "actionType": {
                    "value": "passive"
                },
                "actions": {
                    "value": ""
                },
                "description": {
                    "value": ""
                },
                "requirements": {
                    "value": ""
                },
                "rules": [
                    {
                        "key": "PF2E.RuleElement.FlatModifier",
                        "predicate": {
                            "any": [
                                "magical",
                                "arcane",
                                "primal",
                                "occult",
                                "divine"
                            ]
                        },
                        "selector": "saving-throw",
                        "type": "status",
                        "value": 1
                    }
                ],
                "schema": {
                    "lastMigration": {
                        "datetime": "2021-07-14T08:42:09.628-06:00",
                        "version": {
                            "foundry": "0.8.8",
                            "schema": 0.642,
                            "system": "2.9.1"
                        }
                    },
                    "version": 0.643
                },
                "slug": null,
                "source": {
                    "value": ""
                },
                "traits": {
                    "custom": "",
                    "rarity": {
                        "value": "common"
                    },
                    "value": []
                },
                "trigger": {
                    "value": ""
                },
                "weapon": {
                    "value": ""
                }
            },
            "effects": [],
            "flags": {},
            "img": "systems/pf2e/icons/actions/Passive.webp",
            "name": "+1 Status Bonus on Saves vs Magic",
            "sort": 2200000,
            "type": "action"
        },
        {
            "_id": "09tr8RqXPJwNExtR",
            "data": {
                "actionCategory": {
                    "value": "offensive"
                },
                "actionType": {
                    "value": "passive"
                },
                "actions": {
                    "value": ""
                },
                "description": {
                    "chat": "",
                    "unidentified": "",
                    "value": "<p>On a critical hit with piercing hymn, the target is @Compendium[pf2e.conditionitems.Deafened]{Deafened} for one minute.</p>"
                },
                "requirements": {
                    "value": ""
                },
                "rules": [],
                "schema": {
                    "lastMigration": null,
                    "version": 0.643
                },
                "slug": null,
                "source": {
                    "value": ""
                },
                "traits": {
                    "custom": "",
                    "rarity": {
                        "value": "common"
                    },
                    "selected": {},
                    "value": []
                },
                "trigger": {
                    "value": ""
                },
                "weapon": {
                    "value": ""
                }
            },
            "effects": [],
            "flags": {},
            "img": "systems/pf2e/icons/actions/Passive.webp",
            "name": "Deafening Aria",
            "sort": 2300000,
            "type": "action"
        },
        {
            "_id": "kpuj3LrmPskjllD8",
            "data": {
                "actionCategory": {
                    "value": "offensive"
                },
                "actionType": {
                    "value": "action"
                },
                "actions": {
                    "value": ""
                },
                "description": {
                    "chat": "",
                    "unidentified": "",
                    "value": "<p>The choral angel adds its harmony to a choral angel ally within its harmonizing aura.</p>\n<p>The ally can cast @Compendium[pf2e.spells-srd.Calm Emotions]{Calm Emotions} or @Compendium[pf2e.spells-srd.Heroism]{Heroism} on its next turn in place of its 3rd-level @Compendium[pf2e.spells-srd.Sound Burst]{Sound Burst} or heighten its 3rd-level @Compendium[pf2e.spells-srd.Sound Burst]{Sound Burst} by 1 level.</p>\n<p>If five different choral angels use Harmonize on the same choral angel ally, it can instead cast @Compendium[pf2e.spells-srd.Divine Decree]{Divine Decree} in place of its 3rd-level @Compendium[pf2e.spells-srd.Sound Burst]{Sound Burst}.</p>"
                },
                "requirements": {
                    "value": ""
                },
                "rules": [],
                "schema": {
                    "lastMigration": null,
                    "version": 0.643
                },
                "slug": null,
                "source": {
                    "value": ""
                },
                "traits": {
                    "custom": "",
                    "rarity": {
                        "value": "common"
                    },
                    "selected": {},
                    "value": []
                },
                "trigger": {
                    "value": ""
                },
                "weapon": {
                    "value": ""
                }
            },
            "effects": [],
            "flags": {},
            "img": "systems/pf2e/icons/actions/OneAction.webp",
            "name": "Harmonize",
            "sort": 2400000,
            "type": "action"
        },
        {
            "_id": "bZxlZW8KRhiFlcC8",
            "data": {
                "description": {
                    "chat": "",
                    "unidentified": "",
                    "value": ""
                },
                "item": {
                    "value": 0
                },
                "mod": {
                    "value": 12
                },
                "proficient": {
                    "value": 0
                },
                "rules": [],
                "schema": {
                    "lastMigration": null,
                    "version": 0.643
                },
                "slug": null,
                "source": {
                    "value": ""
                },
                "traits": {
                    "custom": "",
                    "rarity": {
                        "value": "common"
                    },
                    "value": []
                }
            },
            "effects": [],
            "flags": {},
            "img": "systems/pf2e/icons/default-icons/lore.svg",
            "name": "Acrobatics",
            "sort": 2500000,
            "type": "lore"
        },
        {
            "_id": "aTUjiMfphqCQfp3y",
            "data": {
                "description": {
                    "chat": "",
                    "unidentified": "",
                    "value": ""
                },
                "item": {
                    "value": 0
                },
                "mod": {
                    "value": 15
                },
                "proficient": {
                    "value": 0
                },
                "rules": [],
                "schema": {
                    "lastMigration": null,
                    "version": 0.643
                },
                "slug": null,
                "source": {
                    "value": ""
                },
                "traits": {
                    "custom": "",
                    "rarity": {
                        "value": "common"
                    },
                    "value": []
                }
            },
            "effects": [],
            "flags": {},
            "img": "systems/pf2e/icons/default-icons/lore.svg",
            "name": "Diplomacy",
            "sort": 2600000,
            "type": "lore"
        },
        {
            "_id": "KxrGQO0bBgnpV6Ah",
            "data": {
                "description": {
                    "chat": "",
                    "unidentified": "",
                    "value": ""
                },
                "item": {
                    "value": 0
                },
                "mod": {
                    "value": 17
                },
                "proficient": {
                    "value": 0
                },
                "rules": [],
                "schema": {
                    "lastMigration": null,
                    "version": 0.643
                },
                "slug": null,
                "source": {
                    "value": ""
                },
                "traits": {
                    "custom": "",
                    "rarity": {
                        "value": "common"
                    },
                    "value": []
                }
            },
            "effects": [],
            "flags": {},
            "img": "systems/pf2e/icons/default-icons/lore.svg",
            "name": "Performance",
            "sort": 2700000,
            "type": "lore"
        },
        {
            "_id": "9CVr1qBwASELjoHM",
            "data": {
                "description": {
                    "chat": "",
                    "unidentified": "",
                    "value": ""
                },
                "item": {
                    "value": 0
                },
                "mod": {
                    "value": 14
                },
                "proficient": {
                    "value": 0
                },
                "rules": [],
                "schema": {
                    "lastMigration": null,
                    "version": 0.643
                },
                "slug": null,
                "source": {
                    "value": ""
                },
                "traits": {
                    "custom": "",
                    "rarity": {
                        "value": "common"
                    },
                    "value": []
                }
            },
            "effects": [],
            "flags": {},
            "img": "systems/pf2e/icons/default-icons/lore.svg",
            "name": "Religion",
            "sort": 2800000,
            "type": "lore"
        }
    ],
    "name": "Choral",
    "token": {
        "actorId": "zUvgAbgeQH5t6DWs",
        "actorLink": false,
        "alpha": 1,
        "bar1": {
            "attribute": null
        },
        "bar2": {
            "attribute": null
        },
        "brightLight": 0,
        "brightSight": 0,
        "dimLight": 0,
        "dimSight": 0,
        "displayBars": 20,
        "displayName": 20,
        "disposition": -1,
        "flags": {},
        "height": 1,
        "img": "systems/pf2e/icons/bestiary-1/choral.webp",
        "lightAlpha": 1,
        "lightAngle": 0,
        "lightAnimation": {
            "intensity": 5,
            "speed": 5
        },
        "lockRotation": false,
        "mirrorX": false,
        "mirrorY": false,
        "name": "Choral",
        "randomImg": false,
        "rotation": 0,
        "scale": 1,
        "sightAngle": 0,
        "tint": null,
        "vision": false,
        "width": 1
    },
    "type": "npc"
}
