{
    "_id": "NUFsxlmHqk4LeYlq",
    "data": {
        "abilities": {
            "cha": {
                "min": 3,
                "mod": -1,
                "value": 8
            },
            "con": {
                "min": 3,
                "mod": 4,
                "value": 18
            },
            "dex": {
                "min": 3,
                "mod": -1,
                "value": 8
            },
            "int": {
                "min": 3,
                "mod": -4,
                "value": 2
            },
            "str": {
                "min": 3,
                "mod": "+5",
                "value": 20
            },
            "wis": {
                "min": 3,
                "mod": 3,
                "value": 16
            }
        },
        "attributes": {
            "ac": {
                "base": 22,
                "breakdown": "Base Armor Class 10, Base Modifier +13, Dexterity -1",
                "check": 0,
                "details": "",
                "dex": 0,
                "item": 0,
                "min": 0,
                "name": "ac",
                "totalModifier": 12,
                "value": 22
            },
            "allSaves": {
                "value": ""
            },
            "ancestryhp": 0,
            "bonusEncumbranceBulk": 0,
            "bonusLimitBulk": 0,
            "classDC": {
                "ability": "str",
                "breakdown": "",
                "item": 0,
                "rank": 0,
                "value": 0
            },
            "classhp": 0,
            "flatbonushp": 0,
            "flatbonussp": 0,
            "hp": {
                "details": "",
                "max": 71,
                "min": 0,
                "temp": 0,
                "value": 71
            },
            "init": {
                "bonus": 0,
                "value": 0
            },
            "initiative": {
                "ability": "",
                "circumstance": 0,
                "status": 0
            },
            "levelbonushp": 0,
            "levelbonussp": 0,
            "perception": {
                "ability": "wis",
                "base": 12,
                "breakdown": "Base Modifier +9, Wisdom +3",
                "item": 0,
                "name": "perception",
                "rank": 0,
                "totalModifier": 12,
                "value": 12
            },
            "resolve": {
                "value": 0
            },
            "shield": {
                "ac": 0,
                "brokenThreshold": 0,
                "hardness": 0,
                "max": 0,
                "min": 0,
                "value": 0
            },
            "sp": {
                "details": "",
                "max": 0,
                "min": 0,
                "value": 0
            },
            "speed": {
                "otherSpeeds": [
                    {
                        "type": "Burrow",
                        "value": "20 feet"
                    },
                    {
                        "type": "Earth Glide",
                        "value": ""
                    }
                ],
                "value": "30 feet"
            }
        },
        "details": {
            "alignment": {
                "value": "N"
            },
            "ancestry": {
                "value": ""
            },
            "biography": {
                "public": "",
                "value": ""
            },
            "class": {
                "value": ""
            },
            "creatureType": "",
            "deity": {
                "image": "systems/pf2e/assets/sheet/deity.webp",
                "value": ""
            },
            "flavourText": "",
            "heritage": {
                "value": ""
            },
            "keyability": {
                "value": "str"
            },
            "level": {
                "min": 1,
                "value": 5
            },
            "recallKnowledgeText": "",
            "source": {
                "value": "Pathfinder Society: Season 1"
            }
        },
        "saves": {
            "fortitude": {
                "ability": "con",
                "base": 15,
                "breakdown": "Base Modifier +11, Constitution +4",
                "item": 0,
                "name": "fortitude",
                "rank": 0,
                "saveDetail": "",
                "totalModifier": 15,
                "value": 15
            },
            "reflex": {
                "ability": "dex",
                "base": 8,
                "breakdown": "Base Modifier +9, Dexterity -1",
                "item": 0,
                "name": "reflex",
                "rank": 0,
                "saveDetail": "",
                "totalModifier": 8,
                "value": 8
            },
            "will": {
                "ability": "wis",
                "base": 9,
                "breakdown": "Base Modifier +6, Wisdom +3",
                "item": 0,
                "name": "will",
                "rank": 0,
                "saveDetail": "",
                "totalModifier": 9,
                "value": 9
            }
        },
        "schema": {
            "lastMigration": null,
            "version": 0.643
        },
        "traits": {
            "ci": [],
            "di": {
                "custom": "",
                "value": [
                    "bleed",
                    "paralyzed",
                    "poison",
                    "sleep"
                ]
            },
            "dr": [],
            "dv": [],
            "languages": {
                "custom": "",
                "selected": [],
                "value": []
            },
            "rarity": {
                "value": "common"
            },
            "senses": {
                "value": "metal sense (imprecise) 60 feet, darkvision"
            },
            "size": {
                "value": "sm"
            },
            "traits": {
                "custom": "",
                "value": [
                    "earth",
                    "elemental"
                ]
            }
        }
    },
    "effects": [],
    "flags": {},
    "img": "systems/pf2e/icons/default-icons/npc.svg",
    "items": [
        {
            "_id": "ssVlk5UdA3f3ww9q",
            "data": {
                "attack": {
                    "value": ""
                },
                "attackEffects": {
                    "value": [
                        "Knockdown"
                    ]
                },
                "bonus": {
                    "value": 14
                },
                "damageRolls": {
                    "4wpuqrx5d0fu04e2o5i9": {
                        "damage": "2d10+8",
                        "damageType": "piercing"
                    }
                },
                "description": {
                    "chat": "",
                    "unidentified": "",
                    "value": ""
                },
                "rules": [],
                "schema": {
                    "lastMigration": null,
                    "version": 0.643
                },
                "slug": null,
                "source": {
                    "value": ""
                },
                "traits": {
                    "custom": "",
                    "rarity": {
                        "value": "common"
                    },
                    "value": []
                },
                "weaponType": {
                    "value": "melee"
                }
            },
            "effects": [],
            "flags": {},
            "img": "systems/pf2e/icons/default-icons/melee.svg",
            "name": "Jaws",
            "sort": 100000,
            "type": "melee"
        },
        {
            "_id": "KmWoENKZCuKf0g7W",
            "data": {
                "actionCategory": {
                    "value": "offensive"
                },
                "actionType": {
                    "value": "passive"
                },
                "actions": {
                    "value": ""
                },
                "description": {
                    "chat": "",
                    "unidentified": "",
                    "value": "<p>The metallic sod hound can Burrow through any earthen or metallic matter, including rock or metal. When it does so, the metallic sod hound moves at its full burrow Speed, leaving no tunnels or signs of its passing.</p>"
                },
                "requirements": {
                    "value": ""
                },
                "rules": [],
                "schema": {
                    "lastMigration": null,
                    "version": 0.643
                },
                "slug": null,
                "source": {
                    "value": ""
                },
                "traits": {
                    "custom": "",
                    "rarity": {
                        "value": "common"
                    },
                    "value": []
                },
                "trigger": {
                    "value": ""
                },
                "weapon": {
                    "value": ""
                }
            },
            "effects": [],
            "flags": {},
            "img": "systems/pf2e/icons/default-icons/action.svg",
            "name": "Earth Glide",
            "sort": 200000,
            "type": "action"
        },
        {
            "_id": "xOsuqTOfFzsePwrs",
            "data": {
                "description": {
                    "chat": "",
                    "unidentified": "",
                    "value": ""
                },
                "item": {
                    "value": 0
                },
                "mod": {
                    "value": 14
                },
                "proficient": {
                    "value": 0
                },
                "rules": [],
                "schema": {
                    "lastMigration": null,
                    "version": 0.643
                },
                "slug": null,
                "source": {
                    "value": ""
                },
                "traits": {
                    "custom": "",
                    "rarity": {
                        "value": "common"
                    },
                    "value": []
                }
            },
            "effects": [],
            "flags": {},
            "img": "systems/pf2e/icons/default-icons/lore.svg",
            "name": "Athletics",
            "sort": 300000,
            "type": "lore"
        },
        {
            "_id": "qRSCrq51zX9pUvq3",
            "data": {
                "description": {
                    "chat": "",
                    "unidentified": "",
                    "value": ""
                },
                "item": {
                    "value": 0
                },
                "mod": {
                    "value": 12
                },
                "proficient": {
                    "value": 0
                },
                "rules": [],
                "schema": {
                    "lastMigration": null,
                    "version": 0.643
                },
                "slug": null,
                "source": {
                    "value": ""
                },
                "traits": {
                    "custom": "",
                    "rarity": {
                        "value": "common"
                    },
                    "value": []
                }
            },
            "effects": [],
            "flags": {},
            "img": "systems/pf2e/icons/default-icons/lore.svg",
            "name": "Survival (+14 to Track)",
            "sort": 400000,
            "type": "lore"
        }
    ],
    "name": "Greater Metallic Sod Hound",
    "token": {
        "actorId": "NUFsxlmHqk4LeYlq",
        "actorLink": false,
        "alpha": 1,
        "bar1": {
            "attribute": null
        },
        "bar2": {
            "attribute": null
        },
        "brightLight": 0,
        "brightSight": 0,
        "dimLight": 0,
        "dimSight": 0,
        "displayBars": 20,
        "displayName": 20,
        "disposition": -1,
        "flags": {},
        "height": 1,
        "img": "systems/pf2e/icons/default-icons/npc.svg",
        "lightAlpha": 1,
        "lightAngle": 0,
        "lightAnimation": {
            "intensity": 5,
            "speed": 5
        },
        "lockRotation": false,
        "mirrorX": false,
        "mirrorY": false,
        "name": "Greater Metallic Sod Hound",
        "randomImg": false,
        "rotation": 0,
        "scale": 1,
        "sightAngle": 0,
        "tint": null,
        "vision": false,
        "width": 1
    },
    "type": "npc"
}
