{
    "_id": "KoYqhZoY3RSBEo5Y",
    "data": {
        "attributes": {
            "ac": {
                "value": 16
            },
            "hardness": 7,
            "hasHealth": true,
            "hp": {
                "details": "",
                "max": 24,
                "temp": 0,
                "value": 24
            },
            "stealth": {
                "details": "<p>(trained)</p>",
                "value": 8
            }
        },
        "creatureType": "",
        "details": {
            "description": "<p>An immense, jagged piece of clear crystal 10 feet square and forty feet high juts up from the seafloor</p>",
            "disable": "<p>Survival DC 13 (trained) to blunt the crystal's edges without getting cut</p>",
            "isComplex": false,
            "level": {
                "value": 1
            },
            "reset": "<p>The hazard still damages any creature or object that enters its space, but the surface doesn't become hidden again until it settles over the course of 1 minute.</p>",
            "routine": ""
        },
        "recallKnowledgeText": "",
        "saves": {
            "fortitude": {
                "rank": 0,
                "saveDetail": "",
                "value": 10
            },
            "reflex": {
                "rank": 0,
                "saveDetail": "",
                "value": 4
            },
            "will": {
                "rank": 0,
                "saveDetail": "",
                "value": null
            }
        },
        "schema": {
            "lastMigration": null,
            "version": 0.643
        },
        "source": {
            "value": ""
        },
        "statusEffects": [],
        "traits": {
            "ci": [],
            "di": {
                "custom": "",
                "selected": {},
                "value": [
                    "precision",
                    "critical-hits",
                    "object-immunities"
                ]
            },
            "dr": [],
            "dv": [],
            "rarity": {
                "value": "common"
            },
            "size": {
                "value": "med"
            },
            "traits": {
                "custom": "",
                "value": [
                    "environmental"
                ]
            }
        }
    },
    "effects": [],
    "flags": {},
    "img": "systems/pf2e/icons/default-icons/hazard.svg",
    "items": [
        {
            "_id": "LdduGnrZ9V9lFlPT",
            "data": {
                "actionCategory": {
                    "value": "offensive"
                },
                "actionType": {
                    "value": "reaction"
                },
                "actions": {
                    "value": ""
                },
                "description": {
                    "value": "<p><strong>Trigger</strong> A creature or object moves into the shard’s space.</p>\n<p><strong>Effect</strong> The triggering creature takes [[/r 2d6+5 #piercing]] piercing damage (<span data-pf2-saving-throw=\"reflex\" data-pf2-traits=\"attack,damaging-effect\" data-pf2-label=\"Shard\" data-pf2-dc=\"17\" data-pf2-show-dc=\"gm\">basic Reflex</span> save).</p>"
                },
                "requirements": {
                    "value": ""
                },
                "rules": [],
                "schema": {
                    "lastMigration": null,
                    "version": 0.643
                },
                "slug": null,
                "source": {
                    "value": ""
                },
                "traits": {
                    "custom": "",
                    "rarity": {
                        "value": "common"
                    },
                    "value": [
                        "attack"
                    ]
                },
                "trigger": {
                    "value": ""
                },
                "weapon": {
                    "value": ""
                }
            },
            "effects": [],
            "flags": {},
            "img": "systems/pf2e/icons/actions/Reaction.webp",
            "name": "Shard",
            "sort": 100000,
            "type": "action"
        }
    ],
    "name": "Submerged Shard",
    "token": {
        "actorId": "KoYqhZoY3RSBEo5Y",
        "actorLink": false,
        "alpha": 1,
        "bar1": {
            "attribute": null
        },
        "bar2": {
            "attribute": null
        },
        "brightLight": 0,
        "brightSight": 0,
        "dimLight": 0,
        "dimSight": 0,
        "displayBars": 20,
        "displayName": 20,
        "disposition": 0,
        "flags": {},
        "height": 1,
        "img": "systems/pf2e/icons/default-icons/hazard.svg",
        "lightAlpha": 1,
        "lightAngle": 0,
        "lightAnimation": {
            "intensity": 5,
            "speed": 5
        },
        "lockRotation": false,
        "mirrorX": false,
        "mirrorY": false,
        "name": "Submerged Shard",
        "randomImg": false,
        "rotation": 0,
        "scale": 1,
        "sightAngle": 0,
        "tint": null,
        "vision": false,
        "width": 1
    },
    "type": "hazard"
}
