{
    "_id": "TmDKaw1WenWKvNBU",
    "data": {
        "abilities": {
            "cha": {
                "min": 3,
                "mod": 0,
                "value": 10
            },
            "con": {
                "min": 3,
                "mod": 3,
                "value": 16
            },
            "dex": {
                "min": 3,
                "mod": 4,
                "value": 18
            },
            "int": {
                "min": 3,
                "mod": -4,
                "value": 2
            },
            "str": {
                "min": 3,
                "mod": "+4",
                "value": 18
            },
            "wis": {
                "min": 3,
                "mod": 2,
                "value": 14
            }
        },
        "attributes": {
            "ac": {
                "base": 16,
                "breakdown": "Base Armor Class 10, Base Modifier +2, Dexterity +4",
                "check": 0,
                "details": "",
                "dex": 0,
                "item": 0,
                "min": 0,
                "name": "ac",
                "totalModifier": 6,
                "value": 16
            },
            "allSaves": {
                "value": ""
            },
            "ancestryhp": 0,
            "bonusEncumbranceBulk": 0,
            "bonusLimitBulk": 0,
            "classDC": {
                "ability": "str",
                "breakdown": "",
                "item": 0,
                "rank": 0,
                "value": 0
            },
            "classhp": 0,
            "flatbonushp": 0,
            "flatbonussp": 0,
            "hp": {
                "details": "",
                "max": 20,
                "min": 0,
                "temp": 0,
                "value": 20
            },
            "init": {
                "bonus": 0,
                "value": 0
            },
            "initiative": {
                "ability": "",
                "circumstance": 0,
                "status": 0
            },
            "levelbonushp": 0,
            "levelbonussp": 0,
            "perception": {
                "ability": "wis",
                "base": 5,
                "breakdown": "Base Modifier +3, Wisdom +2",
                "item": 0,
                "name": "perception",
                "rank": 0,
                "totalModifier": 5,
                "value": 5
            },
            "resolve": {
                "value": 0
            },
            "shield": {
                "ac": 0,
                "brokenThreshold": 0,
                "hardness": 0,
                "max": 0,
                "min": 0,
                "value": 0
            },
            "sp": {
                "details": "",
                "max": 0,
                "min": 0,
                "value": 0
            },
            "speed": {
                "otherSpeeds": [],
                "value": "35 feet"
            }
        },
        "details": {
            "alignment": {
                "value": "N"
            },
            "ancestry": {
                "value": ""
            },
            "biography": {
                "public": "",
                "value": ""
            },
            "class": {
                "value": ""
            },
            "creatureType": "",
            "deity": {
                "image": "systems/pf2e/assets/sheet/deity.webp",
                "value": ""
            },
            "flavourText": "",
            "heritage": {
                "value": ""
            },
            "keyability": {
                "value": "str"
            },
            "level": {
                "min": 1,
                "value": 1
            },
            "recallKnowledgeText": "",
            "source": {
                "value": "Pathfinder Society: Season 1"
            }
        },
        "saves": {
            "fortitude": {
                "ability": "con",
                "base": 8,
                "breakdown": "Base Modifier +5, Constitution +3",
                "item": 0,
                "name": "fortitude",
                "rank": 0,
                "saveDetail": "",
                "totalModifier": 8,
                "value": 8
            },
            "reflex": {
                "ability": "dex",
                "base": 7,
                "breakdown": "Base Modifier +3, Dexterity +4",
                "item": 0,
                "name": "reflex",
                "rank": 0,
                "saveDetail": "",
                "totalModifier": 7,
                "value": 7
            },
            "will": {
                "ability": "wis",
                "base": 5,
                "breakdown": "Base Modifier +3, Wisdom +2",
                "item": 0,
                "name": "will",
                "rank": 0,
                "saveDetail": "",
                "totalModifier": 5,
                "value": 5
            }
        },
        "schema": {
            "lastMigration": null,
            "version": 0.643
        },
        "traits": {
            "ci": [],
            "di": {
                "custom": "",
                "value": []
            },
            "dr": [],
            "dv": [],
            "languages": {
                "custom": "",
                "selected": [],
                "value": []
            },
            "rarity": {
                "value": "common"
            },
            "senses": {
                "value": "low-light vision, scent (imprecise) 30 feet"
            },
            "size": {
                "value": "med"
            },
            "traits": {
                "custom": "",
                "value": [
                    "animal"
                ]
            }
        }
    },
    "effects": [],
    "flags": {},
    "img": "systems/pf2e/icons/default-icons/npc.svg",
    "items": [
        {
            "_id": "mZGgdRk3nvEySoqA",
            "data": {
                "attack": {
                    "value": ""
                },
                "attackEffects": {
                    "value": [
                        "Push"
                    ]
                },
                "bonus": {
                    "value": 7
                },
                "damageRolls": {
                    "8sffps37po42707tlc3s": {
                        "damage": "1d4+4",
                        "damageType": "bludgeoning"
                    }
                },
                "description": {
                    "chat": "",
                    "unidentified": "",
                    "value": ""
                },
                "rules": [],
                "schema": {
                    "lastMigration": null,
                    "version": 0.643
                },
                "slug": null,
                "source": {
                    "value": ""
                },
                "traits": {
                    "custom": "",
                    "rarity": {
                        "value": "common"
                    },
                    "value": []
                },
                "weaponType": {
                    "value": "melee"
                }
            },
            "effects": [],
            "flags": {},
            "img": "systems/pf2e/icons/default-icons/melee.svg",
            "name": "Horn",
            "sort": 100000,
            "type": "melee"
        },
        {
            "_id": "KIM4GGcs2YWfve43",
            "data": {
                "actionCategory": {
                    "value": "offensive"
                },
                "actionType": {
                    "value": "action"
                },
                "actions": {
                    "value": 2
                },
                "description": {
                    "chat": "",
                    "unidentified": "",
                    "value": "<p>The mountain goat Strides up to double its Speed in a straight line and then makes a horn attack.<br />\nIf the mountain goat moved at least 20 feet, its Push increases to 10 feet on a hit.</p>"
                },
                "requirements": {
                    "value": ""
                },
                "rules": [],
                "schema": {
                    "lastMigration": null,
                    "version": 0.643
                },
                "slug": null,
                "source": {
                    "value": ""
                },
                "traits": {
                    "custom": "",
                    "rarity": {
                        "value": "common"
                    },
                    "value": []
                },
                "trigger": {
                    "value": ""
                },
                "weapon": {
                    "value": ""
                }
            },
            "effects": [],
            "flags": {},
            "img": "systems/pf2e/icons/default-icons/action.svg",
            "name": "Powerful Charge",
            "sort": 200000,
            "type": "action"
        },
        {
            "_id": "XIMEzLJ0EC0ouD9L",
            "data": {
                "description": {
                    "chat": "",
                    "unidentified": "",
                    "value": ""
                },
                "item": {
                    "value": 0
                },
                "mod": {
                    "value": 7
                },
                "proficient": {
                    "value": 0
                },
                "rules": [],
                "schema": {
                    "lastMigration": null,
                    "version": 0.643
                },
                "slug": null,
                "source": {
                    "value": ""
                },
                "traits": {
                    "custom": "",
                    "rarity": {
                        "value": "common"
                    },
                    "value": []
                }
            },
            "effects": [],
            "flags": {},
            "img": "systems/pf2e/icons/default-icons/lore.svg",
            "name": "Acrobatics",
            "sort": 300000,
            "type": "lore"
        },
        {
            "_id": "e9sp09bPo7NvaB7d",
            "data": {
                "description": {
                    "chat": "",
                    "unidentified": "",
                    "value": ""
                },
                "item": {
                    "value": 0
                },
                "mod": {
                    "value": 7
                },
                "proficient": {
                    "value": 0
                },
                "rules": [],
                "schema": {
                    "lastMigration": null,
                    "version": 0.643
                },
                "slug": null,
                "source": {
                    "value": ""
                },
                "traits": {
                    "custom": "",
                    "rarity": {
                        "value": "common"
                    },
                    "value": []
                }
            },
            "effects": [],
            "flags": {},
            "img": "systems/pf2e/icons/default-icons/lore.svg",
            "name": "Athletics",
            "sort": 400000,
            "type": "lore"
        }
    ],
    "name": "Tough Mountain Goat",
    "token": {
        "actorId": "TmDKaw1WenWKvNBU",
        "actorLink": false,
        "alpha": 1,
        "bar1": {
            "attribute": null
        },
        "bar2": {
            "attribute": null
        },
        "brightLight": 0,
        "brightSight": 0,
        "dimLight": 0,
        "dimSight": 0,
        "displayBars": 20,
        "displayName": 20,
        "disposition": -1,
        "flags": {},
        "height": 1,
        "img": "systems/pf2e/icons/default-icons/npc.svg",
        "lightAlpha": 1,
        "lightAngle": 0,
        "lightAnimation": {
            "intensity": 5,
            "speed": 5
        },
        "lockRotation": false,
        "mirrorX": false,
        "mirrorY": false,
        "name": "Tough Mountain Goat",
        "randomImg": false,
        "rotation": 0,
        "scale": 1,
        "sightAngle": 0,
        "tint": null,
        "vision": false,
        "width": 1
    },
    "type": "npc"
}
